TS,VeloABeamPositionx
2024.11.07 13:15:56.632,-0.90563436895843
2024.11.07 13:17:34.429,-0.9064677963102
2024.11.07 13:18:00.484,-0.89878159964116
2024.11.07 13:25:34.178,-0.89331708017643
2024.11.07 13:26:39.144,-1000
2024.11.07 13:26:39.144,-1000
2024.11.07 13:26:39.144,-1000
2024.11.07 13:27:39.584,0
2024.11.07 13:27:39.584,0
2024.11.07 13:28:03.795,-0.90217357900121
2024.11.07 13:29:56.969,-0.90314822532813
2024.11.07 13:32:25.759,-1000
2024.11.07 13:32:25.759,-1000
2024.11.07 13:32:25.759,-1000
2024.11.07 13:34:08.733,0
2024.11.07 13:34:08.733,0
2024.11.07 13:35:48.020,-0.90552892657255
2024.11.07 13:36:28.109,-0.90262758288208
2024.11.07 13:37:08.585,-0.90270090487628
2024.11.07 13:37:46.978,-0.50766676193921
2024.11.07 13:38:28.901,-0.50344932463042
2024.11.07 13:39:09.683,-0.50037816786481
2024.11.07 13:39:31.033,-0.50102821552478
2024.11.07 13:39:35.990,-0.50232624846551
2024.11.07 13:39:42.606,-0.50722511800007
2024.11.07 13:39:52.745,-0.50428770595823
2024.11.07 13:40:01.030,-0.50013995192052
2024.11.07 13:40:05.505,-0.50438524717975
2024.11.07 13:40:11.780,-0.50409194815604
2024.11.07 13:40:20.195,-0.50564414580234
2024.11.07 13:40:27.304,-0.50012623226605
2024.11.07 13:40:36.267,-0.50504200474955
2024.11.07 13:40:45.012,-0.50606629186154
2024.11.07 13:40:52.378,-0.50029732104723
2024.11.07 13:41:00.885,-0.50539602333178
2024.11.07 13:41:06.123,-0.50747291942698
2024.11.07 13:41:12.299,-0.50518443725748
2024.11.07 13:41:18.967,-0.50234030683363
2024.11.07 13:41:28.131,-0.5017341552869
2024.11.07 13:41:34.808,-0.49937109817742
2024.11.07 13:41:42.798,-0.50306926155301
2024.11.07 13:41:51.926,-0.50519124073337
2024.11.07 13:41:57.145,-0.50304316600243
2024.11.07 13:42:07.334,-0.50291706790398
2024.11.07 13:42:16.115,-0.50331912175231
2024.11.07 13:42:22.023,-0.499627144209
2024.11.07 13:42:27.060,-0.5065675604102
2024.11.07 13:42:35.174,-0.50545292239604
2024.11.07 13:42:44.433,-0.50287878053037
2024.11.07 13:42:53.090,-0.50137540021793
2024.11.07 13:43:02.133,-0.50395970435833
2024.11.07 13:43:10.333,-0.50334192901108
2024.11.07 13:43:19.438,-0.50174538506338
2024.11.07 13:43:26.302,-0.5021116484913
2024.11.07 13:43:32.506,-0.5019954543823
2024.11.07 13:43:37.709,-0.50225229946844
2024.11.07 13:44:00.772,-0.50078864002654
2024.11.07 13:44:07.728,-0.50329762504934
2024.11.07 13:44:18.140,-0.50092730685571
2024.11.07 13:44:27.163,-0.50188622204639
2024.11.07 13:44:37.267,-0.49930283763108
2024.11.07 13:44:47.729,-0.50324234480228
2024.11.07 13:44:54.807,-0.50274560257208
2024.11.07 13:45:04.075,-0.5011949966735
2024.11.07 13:45:11.254,-0.5009488112635
2024.11.07 13:45:19.682,-0.49986791102491
2024.11.07 13:45:25.677,-0.50300654661019
2024.11.07 13:45:34.010,-0.50180873902292
2024.11.07 13:45:43.080,-0.50025979105001
2024.11.07 13:45:53.351,-0.50074446154796
2024.11.07 13:46:01.668,-0.50424887093
2024.11.07 13:46:17.223,-0.50246472527804
2024.11.07 13:46:24.248,-0.50338497521562
2024.11.07 13:46:33.638,-0.50466178899079
2024.11.07 13:46:42.635,-0.50272417684658
2024.11.07 13:46:51.644,-0.50563385039931
2024.11.07 13:47:03.109,-0.50667249385994
2024.11.07 13:47:10.382,-0.50242546803231
2024.11.07 13:47:19.287,-0.49949474043332
2024.11.07 13:47:29.940,-0.50577722011304
2024.11.07 13:47:39.603,-0.50139750828442
2024.11.07 13:47:48.990,-0.50108098159308
2024.11.07 13:47:57.243,-0.50094033356626
2024.11.07 13:48:06.208,-0.50150382777116
2024.11.07 13:48:14.153,-0.50178095651046
2024.11.07 13:48:32.525,-0.50002446871997
2024.11.07 13:48:37.152,-0.5010280397082
2024.11.07 13:48:43.441,-0.50087734686199
2024.11.07 13:48:51.419,-0.50530281960004
2024.11.07 13:48:57.940,-0.5028613080296
2024.11.07 13:49:08.000,-0.49980682914797
2024.11.07 13:49:15.537,-0.49952111814603
2024.11.07 13:49:20.526,-0.50274756194637
2024.11.07 13:49:25.944,-0.49899051097145
2024.11.07 13:49:33.081,-0.49655743431509
2024.11.07 13:49:43.117,-0.50055231224662
2024.11.07 13:49:53.513,-0.49966297131928
2024.11.07 13:52:17.338,-1000
2024.11.07 13:52:17.338,-1000
2024.11.07 13:52:17.338,-1000
2024.11.07 13:54:23.641,0
2024.11.07 13:54:23.641,0
2024.11.07 13:54:36.896,-0.5034080242913
2024.11.07 13:54:47.130,-0.49924545973447
2024.11.07 13:54:54.280,-0.50217306803642
2024.11.07 13:55:04.251,-0.50333226714048
2024.11.07 13:55:11.910,-0.49917583002781
2024.11.07 13:55:20.782,-0.50341381360422
2024.11.07 13:55:30.675,-0.50248465898246
2024.11.07 13:55:39.306,-0.50278929134597
2024.11.07 13:55:48.332,-0.50312685179363
2024.11.07 13:55:57.393,-0.50564343501862
2024.11.07 13:56:06.241,-0.50427125820039
2024.11.07 13:56:15.192,-0.50420551258685
2024.11.07 13:56:22.885,-0.50147826860722
2024.11.07 13:56:32.872,-0.50558423766699
2024.11.07 13:56:42.793,-0.50611133635978
2024.11.07 13:56:51.920,-0.50206561046071
2024.11.07 13:57:01.070,-0.50319154833999
2024.11.07 13:57:11.037,-0.50177231242105
2024.11.07 13:57:21.209,-0.50132594365144
2024.11.07 13:57:29.356,-0.49900230321956
2024.11.07 13:57:38.145,-0.50026181074647
2024.11.07 13:57:47.036,-0.5056037344776
2024.11.07 13:57:56.897,-0.50634289586044
2024.11.07 13:58:04.447,-0.50221326014524
2024.11.07 13:58:14.122,-0.50228244035378
2024.11.07 13:58:23.137,-0.500870020758
2024.11.07 13:58:32.118,-0.50217489526982
2024.11.07 13:58:39.564,-0.49941217062379
2024.11.07 13:58:49.656,-0.50544930111945
2024.11.07 13:59:05.120,-0.50332212104037
2024.11.07 13:59:14.122,-0.50122371205006
2024.11.07 13:59:24.217,-0.50254549406192
2024.11.07 13:59:31.948,-0.50089158850189
2024.11.07 13:59:41.732,-0.50512516102194
2024.11.07 13:59:50.774,-0.50087117132901
2024.11.07 14:00:08.399,-0.50291277108731
2024.11.07 14:00:17.538,-0.50292803015559
2024.11.07 14:00:26.428,-0.499895700904
2024.11.07 14:00:35.424,-0.49888151566848
2024.11.07 14:00:54.195,-0.50273969739182
2024.11.07 14:01:03.131,-0.50324918306643
2024.11.07 14:01:12.061,-0.50059350927607
2024.11.07 14:01:20.842,-0.50063517513825
2024.11.07 14:01:29.667,-0.49892990519472
2024.11.07 14:01:39.682,-0.50187025352509
2024.11.07 14:01:48.541,-0.50233919396373
2024.11.07 14:01:57.453,-0.50462236951971
2024.11.07 14:02:06.362,-0.50413479124399
2024.11.07 14:02:16.532,-0.50499165578677
2024.11.07 14:02:24.454,-0.50338915739011
2024.11.07 14:02:31.244,-0.50304540719949
2024.11.07 14:02:40.273,-0.50075265627313
2024.11.07 14:02:51.332,-0.50275992926389
2024.11.07 14:03:00.264,-0.5033663220142
2024.11.07 14:03:10.319,-0.50176757571333
2024.11.07 14:03:18.142,-0.50495584348506
2024.11.07 14:03:26.710,-0.5054647694707
2024.11.07 14:03:35.699,-0.49682350418843
2024.11.07 14:03:44.307,-0.50391828919084
2024.11.07 14:03:51.455,-0.50320706529878
2024.11.07 14:04:00.462,-0.50158943298638
2024.11.07 14:04:09.507,-0.50164285891372
2024.11.07 14:04:19.213,-0.50648734734522
2024.11.07 14:04:36.839,-0.50158480391875
2024.11.07 14:04:44.608,-0.49829074693227
2024.11.07 14:04:53.164,-0.50252542999955
2024.11.07 14:05:03.145,-0.50156284346271
2024.11.07 14:05:11.817,-0.50301233703354
2024.11.07 14:05:20.557,-0.50298428380801
2024.11.07 14:05:28.260,-0.50434640476432
2024.11.07 14:05:46.984,-0.49996879684592
2024.11.07 14:05:55.807,-0.50677736182836
2024.11.07 14:06:04.883,-0.50189118925138
2024.11.07 14:06:22.177,-0.49990029479912
2024.11.07 14:06:30.896,-0.5058600660903
2024.11.07 14:06:39.790,-0.49962509960683
2024.11.07 14:06:49.876,-0.50361793542829
2024.11.07 14:07:07.903,-0.50132931968527
2024.11.07 14:07:16.665,-0.50503078038512
2024.11.07 14:07:25.551,-0.50303303186166
2024.11.07 14:07:29.171,-0.5044357782555
2024.11.07 14:07:37.657,-0.503085198425
2024.11.07 14:07:46.461,-0.50419353887347
2024.11.07 14:07:55.278,-0.49866912252345
2024.11.07 14:08:04.146,-0.50276989893946
2024.11.07 14:08:11.529,-0.5017682022266
2024.11.07 14:08:21.230,-0.50421339300761
2024.11.07 14:08:37.514,-0.50740189438725
2024.11.07 14:08:46.181,-0.50351082792188
2024.11.07 14:09:03.704,-0.50287021791048
2024.11.07 14:09:13.969,-0.50317260043208
2024.11.07 14:09:22.561,-0.50467414276685
2024.11.07 14:09:30.321,-0.50238836183249
2024.11.07 14:09:38.717,-0.50113826501633
2024.11.07 14:09:44.107,-0.50170069053284
2024.11.07 14:10:03.024,-0.50227939958034
2024.11.07 14:10:10.254,-0.50302172171742
2024.11.07 14:10:19.134,-0.50568079789376
2024.11.07 14:10:27.993,-0.50563473280252
2024.11.07 14:10:36.708,-0.50601899350182
2024.11.07 14:10:45.701,-0.50588341855697
2024.11.07 14:10:54.298,-0.50064093116825
2024.11.07 14:11:01.134,-0.50238879224346
2024.11.07 14:11:09.637,-0.50424404371002
2024.11.07 14:11:18.337,-0.50594116105305
2024.11.07 14:11:27.212,-0.50334596682334
2024.11.07 14:11:32.672,-0.50125294446566
2024.11.07 14:11:41.727,-0.50329851178112
2024.11.07 14:11:50.492,-0.50174400306298
2024.11.07 14:11:59.343,-0.50022729489309
2024.11.07 14:12:07.931,-0.50121180699374
2024.11.07 14:12:16.590,-0.50064363947363
2024.11.07 14:12:25.350,-0.50343232586208
2024.11.07 14:12:34.274,-0.50004004556038
2024.11.07 14:12:46.012,-0.50251477887133
2024.11.07 14:12:55.076,-0.50321814922992
2024.11.07 14:13:03.804,-0.5000900844609
2024.11.07 14:13:10.647,-0.50331223292972
2024.11.07 14:13:18.247,-0.49873691475004
2024.11.07 14:13:24.002,-0.50530877928942
2024.11.07 14:13:33.536,-0.50055587588013
2024.11.07 14:13:42.354,-0.50443985165783
2024.11.07 14:13:50.029,-0.50213592784878
2024.11.07 14:13:59.565,-0.50256373729768
2024.11.07 14:14:07.210,-0.50258582191022
2024.11.07 14:14:14.892,-0.50410170188086
2024.11.07 14:14:24.889,-0.50352561773173
2024.11.07 14:14:34.666,-0.50804781490209
2024.11.07 14:14:42.163,-0.50654935021245
2024.11.07 14:14:50.889,-0.50490861156765
2024.11.07 14:14:57.995,-0.50662534671605
2024.11.07 14:15:06.731,-0.49932295545947
2024.11.07 14:15:15.472,-0.50372464522547
2024.11.07 14:15:26.130,-0.50221507975326
2024.11.07 14:15:33.582,-0.50399204131656
2024.11.07 14:15:42.315,-0.50155749445444
2024.11.07 14:15:51.091,-0.50583479725813
2024.11.07 14:15:54.813,-0.50123568184069
2024.11.07 14:16:04.423,-0.50040885946431
2024.11.07 14:16:12.301,-0.50123175898287
2024.11.07 14:16:20.591,-0.50108222072341
2024.11.07 14:16:30.507,-0.50052766938984
2024.11.07 14:16:39.641,-0.50393974351305
2024.11.07 14:16:45.262,-0.50252541984902
2024.11.07 14:16:53.614,-0.50553506982469
2024.11.07 14:17:02.520,-0.50218899945582
2024.11.07 14:17:10.037,-0.5010643558219
2024.11.07 14:17:18.437,-0.5031681383483
2024.11.07 14:17:27.159,-0.50387771755996
2024.11.07 14:17:35.842,-0.50378663982865
2024.11.07 14:17:51.885,-0.50190003557367
2024.11.07 14:18:00.405,-0.49934368142346
2024.11.07 14:18:09.174,-0.50471741951887
2024.11.07 14:18:17.974,-0.50278140662394
2024.11.07 14:18:26.768,-0.49953469351297
2024.11.07 14:18:35.692,-0.5066020424449
2024.11.07 14:18:43.243,-0.50266056478046
2024.11.07 14:18:53.112,-0.50857603639274
2024.11.07 14:19:02.206,-0.50373980828624
2024.11.07 14:19:10.812,-0.50086499795359
2024.11.07 14:19:27.929,-0.50360200113059
2024.11.07 14:19:36.560,-0.50059824389173
2024.11.07 14:19:44.175,-0.50425723233728
2024.11.07 14:19:52.979,-0.50285332952335
2024.11.07 14:20:01.695,-0.50416040443242
2024.11.07 14:20:10.226,-0.50618266972908
2024.11.07 14:20:26.347,-0.5036183143814
2024.11.07 14:20:34.057,-0.5031592334577
2024.11.07 14:20:40.571,-0.50337022241361
2024.11.07 14:20:45.212,-0.50811780432456
2024.11.07 14:20:53.647,-0.50175830193985
2024.11.07 14:21:01.223,-0.49997506648103
2024.11.07 14:21:09.724,-0.50242526669446
2024.11.07 14:21:18.290,-0.50317398264325
2024.11.07 14:21:24.003,-0.50245405188293
2024.11.07 14:21:31.999,-0.49928746086727
2024.11.07 14:21:39.619,-0.50394391394048
2024.11.07 14:21:48.518,-0.50433582749175
2024.11.07 14:21:56.052,-0.5021126832052
2024.11.07 14:31:36.296,-1000
2024.11.07 14:31:36.296,-1000
2024.11.07 14:31:36.296,-1000
2024.11.07 14:31:36.296,-1000
2024.11.07 14:33:09.912,0
2024.11.07 14:33:09.912,0
2024.11.07 14:36:00.404,-0.49870948237583
2024.11.07 14:36:10.088,-0.50158102518969
2024.11.07 14:36:21.940,-0.49857501666143
2024.11.07 14:36:34.280,-0.50139480582279
2024.11.07 14:37:00.029,-0.5027671970729
2024.11.07 14:37:11.542,-0.49825098814353
2024.11.07 14:37:22.401,-0.50465810525956
2024.11.07 14:37:33.853,-0.50337837161997
2024.11.07 14:37:45.719,-0.50319867842682
2024.11.07 14:37:54.653,-0.49910124033165
2024.11.07 14:38:04.052,-0.50393886179146
2024.11.07 14:38:12.614,-0.50173518768678
2024.11.07 14:38:26.847,-0.50237142126398
2024.11.07 14:38:40.553,-0.5003011575913
2024.11.07 14:38:54.432,-0.50067741149777
2024.11.07 14:39:07.166,-0.50232648807078
2024.11.07 14:39:20.630,-0.50080685739051
2024.11.07 14:39:33.486,-0.49924077701081
2024.11.07 14:39:47.009,-0.49911707833251
2024.11.07 14:40:00.347,-0.50714791830602
2024.11.07 14:40:25.582,-0.50493726529006
2024.11.07 14:40:35.892,-0.5016459701098
2024.11.07 14:40:49.468,-0.50210889882556
2024.11.07 14:41:01.137,-0.50422247156354
2024.11.07 14:41:12.751,-0.50002623875804
2024.11.07 14:41:25.251,-0.5016130775799
2024.11.07 14:41:38.826,-0.5028246515674
2024.11.07 14:41:51.288,-0.50088341098089
2024.11.07 14:42:04.871,-0.49920978525009
2024.11.07 14:42:18.894,-0.49909471954863
2024.11.07 14:42:29.594,-0.49983871282285
2024.11.07 14:42:41.409,-0.49840804634029
2024.11.07 14:42:52.840,-0.50100727214467
2024.11.07 14:43:21.843,-0.50171347032858
2024.11.07 14:43:32.740,-0.49829709800458
2024.11.07 14:43:43.640,-0.50127676466146
2024.11.07 14:43:57.262,-0.50131096010667
2024.11.07 14:44:07.796,-0.50270904999445
2024.11.07 14:44:21.590,-0.50074169012187
2024.11.07 14:44:33.839,-0.49975470699685
2024.11.07 14:44:44.772,-0.50407067140543
2024.11.07 14:44:57.325,-0.50195588525555
2024.11.07 14:45:12.408,-0.49903180113758
2024.11.07 14:45:25.217,-0.49812770342849
2024.11.07 14:45:39.697,-0.49825915504366
2024.11.07 14:45:49.873,-0.49960700058992
2024.11.07 14:46:05.153,-0.49661597462279
2024.11.07 14:46:17.279,-0.50015824875853
2024.11.07 14:46:29.237,-0.50258555901396
2024.11.07 14:46:42.509,-0.50210269704325
2024.11.07 14:46:55.016,-0.4987481670201
2024.11.07 14:47:07.551,-0.50072877841726
2024.11.07 14:47:19.188,-0.50315157357598
2024.11.07 14:47:31.394,-0.50268395176734
2024.11.07 14:47:42.831,-0.50096119057069
2024.11.07 14:47:56.504,-0.49978952801741
2024.11.07 14:48:04.697,-0.50170642616155
2024.11.07 14:48:17.530,-0.5030248517373
2024.11.07 14:48:30.252,-0.50304046710487
2024.11.07 14:48:44.368,-0.50175286043651
2024.11.07 14:48:53.726,-0.50029613240879
2024.11.07 14:49:06.308,-0.50392059409083
2024.11.07 14:49:20.254,-0.50713462535916
2024.11.07 14:49:32.660,-0.49806895404634
2024.11.07 14:49:45.286,-0.49968725735217
2024.11.07 14:49:57.477,-0.50314340976067
2024.11.07 14:50:11.157,-0.50783586133831
2024.11.07 14:50:20.445,-0.50590507116227
2024.11.07 14:50:32.469,-0.49978886868724
2024.11.07 14:50:42.675,-0.50384569020945
2024.11.07 14:50:56.279,-0.50570455126055
2024.11.07 14:51:07.308,-0.50301004401186
2024.11.07 14:51:20.042,-0.50064777495446
2024.11.07 14:53:56.001,-1000
2024.11.07 14:53:56.001,-1000
2024.11.07 14:53:56.001,-1000
2024.11.07 15:14:45.838,0
2024.11.07 15:14:45.838,0
