TS,VeloABeamPositionssy
2024.11.07 13:15:56.632,0.040964695432611
2024.11.07 13:17:34.429,0.039225431507689
2024.11.07 13:18:00.484,0.037790685248916
2024.11.07 13:25:34.178,0.035718733825654
2024.11.07 13:26:39.144,-1000
2024.11.07 13:26:39.144,-1000
2024.11.07 13:26:39.144,-1000
2024.11.07 13:27:39.584,0
2024.11.07 13:27:39.584,0
2024.11.07 13:28:03.795,0.039041260277633
2024.11.07 13:29:56.969,0.038251309375815
2024.11.07 13:32:25.759,-1000
2024.11.07 13:32:25.759,-1000
2024.11.07 13:32:25.759,-1000
2024.11.07 13:34:08.733,0
2024.11.07 13:34:08.733,0
2024.11.07 13:35:48.020,0.042411492168657
2024.11.07 13:36:28.109,0.040533229252613
2024.11.07 13:37:08.585,0.043102606552429
2024.11.07 13:37:46.979,0.041756988805845
2024.11.07 13:38:28.901,0.043788724493903
2024.11.07 13:39:09.683,0.042898638624532
2024.11.07 13:39:31.033,0.040124960435409
2024.11.07 13:39:35.990,0.037388885680811
2024.11.07 13:39:42.606,0.042333965538716
2024.11.07 13:40:01.030,0.041542454238701
2024.11.07 13:40:11.780,0.040451042023077
2024.11.07 13:40:27.304,0.042432821548332
2024.11.07 13:40:36.267,0.037915457842088
2024.11.07 13:40:45.012,0.040437630437239
2024.11.07 13:41:00.885,0.039286743847305
2024.11.07 13:41:06.123,0.042346905280806
2024.11.07 13:41:12.299,0.039799648741965
2024.11.07 13:41:18.967,0.040784199782541
2024.11.07 13:41:28.131,0.041796156351922
2024.11.07 13:41:34.808,0.039862250842272
2024.11.07 13:41:42.798,0.036155453060383
2024.11.07 13:41:51.926,0.038449855008478
2024.11.07 13:41:57.146,0.037382933576545
2024.11.07 13:42:07.334,0.039784979175136
2024.11.07 13:42:16.115,0.037826264082356
2024.11.07 13:42:22.023,0.040775207053073
2024.11.07 13:42:44.433,0.039224276255128
2024.11.07 13:42:53.090,0.036770334498719
2024.11.07 13:43:02.133,0.036323121637364
2024.11.07 13:43:10.333,0.038346888927604
2024.11.07 13:43:19.438,0.039305701823333
2024.11.07 13:43:26.302,0.039975837003411
2024.11.07 13:43:32.506,0.039159480473569
2024.11.07 13:43:37.709,0.040602042734211
2024.11.07 13:44:07.728,0.040021017722955
2024.11.07 13:44:18.140,0.041055101482907
2024.11.07 13:44:27.163,0.037767555440594
2024.11.07 13:44:37.267,0.039254811640161
2024.11.07 13:44:47.729,0.043790305346852
2024.11.07 13:44:54.807,0.042386789022952
2024.11.07 13:45:04.075,0.039841893357463
2024.11.07 13:45:11.255,0.04128759445327
2024.11.07 13:45:25.678,0.038840813948651
2024.11.07 13:45:34.010,0.039931850765649
2024.11.07 13:45:43.080,0.040957124972303
2024.11.07 13:45:53.351,0.037146277812716
2024.11.07 13:46:01.668,0.040418729273835
2024.11.07 13:46:17.223,0.044445944795915
2024.11.07 13:46:24.248,0.040075849764683
2024.11.07 13:46:33.638,0.04271602869682
2024.11.07 13:46:42.635,0.038154402780284
2024.11.07 13:46:51.644,0.04160438437787
2024.11.07 13:47:03.109,0.037876677646581
2024.11.07 13:47:10.382,0.041058245836049
2024.11.07 13:47:19.287,0.038414118078627
2024.11.07 13:47:29.941,0.036755219368559
2024.11.07 13:47:39.603,0.039089471717548
2024.11.07 13:47:48.990,0.037564852583373
2024.11.07 13:47:57.243,0.042199199960611
2024.11.07 13:48:06.208,0.034713157650719
2024.11.07 13:48:14.153,0.038226851014729
2024.11.07 13:48:32.525,0.04055270021519
2024.11.07 13:48:37.152,0.037704931535503
2024.11.07 13:48:43.441,0.036004758122561
2024.11.07 13:48:51.419,0.04045301968233
2024.11.07 13:48:57.940,0.041016652923298
2024.11.07 13:49:08.001,0.037999720486789
2024.11.07 13:49:15.538,0.041454639849059
2024.11.07 13:49:20.526,0.039534364209685
2024.11.07 13:49:25.944,0.042120894178053
2024.11.07 13:49:33.082,0.039481647420218
2024.11.07 13:49:43.117,0.036759523227174
2024.11.07 13:49:53.514,0.041068945874029
2024.11.07 13:52:17.338,-1000
2024.11.07 13:52:17.338,-1000
2024.11.07 13:52:17.338,-1000
2024.11.07 13:54:23.641,0
2024.11.07 13:54:23.641,0
2024.11.07 13:54:36.896,0.036954166402886
2024.11.07 13:54:47.130,0.040227769456512
2024.11.07 13:55:04.251,0.037269896551483
2024.11.07 13:55:11.911,0.039873368300234
2024.11.07 13:55:20.782,0.039229778694502
2024.11.07 13:55:30.675,0.040610648294104
2024.11.07 13:55:39.306,0.039045561876521
2024.11.07 13:55:48.332,0.04169835688659
2024.11.07 13:55:57.393,0.040588055043166
2024.11.07 13:56:06.241,0.036324891106161
2024.11.07 13:56:15.192,0.037222190488788
2024.11.07 13:56:22.885,0.040305243028059
2024.11.07 13:56:32.872,0.037714728553405
2024.11.07 13:56:42.793,0.040667186439537
2024.11.07 13:56:51.920,0.038057606855981
2024.11.07 13:57:01.071,0.043477637537103
2024.11.07 13:57:11.037,0.03871321773514
2024.11.07 13:57:21.209,0.040570437880807
2024.11.07 13:57:38.145,0.037693985561892
2024.11.07 13:57:47.036,0.038516178368582
2024.11.07 13:57:56.897,0.043269296311922
2024.11.07 13:58:04.447,0.039009796886497
2024.11.07 13:58:14.122,0.03846267471129
2024.11.07 13:58:23.137,0.039952639721556
2024.11.07 13:58:32.118,0.04121416358806
2024.11.07 13:58:39.565,0.039792159605735
2024.11.07 13:58:49.656,0.040392430995332
2024.11.07 13:59:05.120,0.037650829058319
2024.11.07 13:59:14.122,0.040407603457679
2024.11.07 13:59:31.948,0.039161335262402
2024.11.07 13:59:41.732,0.037504101313996
2024.11.07 13:59:50.774,0.03890633391191
2024.11.07 14:00:08.399,0.037451752222579
2024.11.07 14:00:17.538,0.038934082590949
2024.11.07 14:00:26.428,0.037531819011484
2024.11.07 14:00:35.424,0.038958309582065
2024.11.07 14:00:54.195,0.040327994331533
2024.11.07 14:01:12.061,0.040764030826587
2024.11.07 14:01:20.842,0.041763763476116
2024.11.07 14:01:39.682,0.043297599730059
2024.11.07 14:01:48.541,0.04162960853199
2024.11.07 14:01:57.453,0.039611086184463
2024.11.07 14:02:06.362,0.038019868717215
2024.11.07 14:02:16.532,0.036593314201223
2024.11.07 14:02:24.454,0.036995628607663
2024.11.07 14:02:40.273,0.039702114284934
2024.11.07 14:02:51.332,0.038001947574585
2024.11.07 14:03:00.264,0.038411659180204
2024.11.07 14:03:10.319,0.035511710674407
2024.11.07 14:03:18.142,0.041316849061255
2024.11.07 14:03:26.710,0.037219914747227
2024.11.07 14:03:35.699,0.037840396453027
2024.11.07 14:03:44.307,0.038432999722117
2024.11.07 14:03:51.455,0.041762247600496
2024.11.07 14:04:00.462,0.039159059253373
2024.11.07 14:04:36.839,0.04096065049636
2024.11.07 14:04:44.608,0.038812818105148
2024.11.07 14:04:53.164,0.037282118212339
2024.11.07 14:05:03.145,0.039244028954403
2024.11.07 14:05:11.817,0.041304538543014
2024.11.07 14:05:20.557,0.04186870470679
2024.11.07 14:05:28.260,0.038752500388566
2024.11.07 14:05:46.984,0.036907752307353
2024.11.07 14:05:55.807,0.040339724094701
2024.11.07 14:06:04.883,0.037486768768839
2024.11.07 14:06:22.177,0.038729956367744
2024.11.07 14:06:30.896,0.040253068835474
2024.11.07 14:06:39.790,0.040773234424659
2024.11.07 14:07:07.903,0.035770691042469
2024.11.07 14:07:16.665,0.040365637057577
2024.11.07 14:07:29.172,0.041531013088176
2024.11.07 14:07:37.657,0.037629118724654
2024.11.07 14:07:46.461,0.040052492174574
2024.11.07 14:07:55.278,0.042874314137403
2024.11.07 14:08:04.146,0.037915727757575
2024.11.07 14:08:11.529,0.038754192426174
2024.11.07 14:08:21.230,0.039662895886818
2024.11.07 14:08:46.181,0.042878705180076
2024.11.07 14:09:03.704,0.039518341700531
2024.11.07 14:09:13.969,0.038602473791477
2024.11.07 14:09:22.561,0.041863959572619
2024.11.07 14:09:30.321,0.037843000591252
2024.11.07 14:09:38.717,0.039195115971591
2024.11.07 14:09:44.107,0.038665778831139
2024.11.07 14:10:03.024,0.039112678145744
2024.11.07 14:10:19.134,0.041966761990946
2024.11.07 14:10:27.993,0.037079112743048
2024.11.07 14:10:36.708,0.039829244078464
2024.11.07 14:10:45.701,0.034821203552584
2024.11.07 14:10:54.299,0.039833494680048
2024.11.07 14:11:01.134,0.041823684999353
2024.11.07 14:11:09.637,0.039387711010221
2024.11.07 14:11:27.212,0.040817360647272
2024.11.07 14:11:32.672,0.040263481656508
2024.11.07 14:11:41.728,0.039753453891629
2024.11.07 14:11:50.492,0.035129397471622
2024.11.07 14:11:59.343,0.037377579016631
2024.11.07 14:12:07.931,0.039231301866493
2024.11.07 14:12:16.591,0.038788511355467
2024.11.07 14:12:25.350,0.040055586064111
2024.11.07 14:12:46.012,0.037411361565938
2024.11.07 14:12:55.076,0.03933241221029
2024.11.07 14:13:10.647,0.042238638328505
2024.11.07 14:13:18.247,0.040589346822548
2024.11.07 14:13:24.002,0.038817021582197
2024.11.07 14:13:42.354,0.040153569235821
2024.11.07 14:13:50.029,0.037982444933246
2024.11.07 14:13:59.565,0.038850484606669
2024.11.07 14:14:14.892,0.036877709279538
2024.11.07 14:14:24.889,0.041150373476148
2024.11.07 14:14:34.666,0.039431978983113
2024.11.07 14:14:42.163,0.041064272606234
2024.11.07 14:14:50.889,0.039688980557529
2024.11.07 14:14:57.995,0.037621731531225
2024.11.07 14:15:06.731,0.036831910277537
2024.11.07 14:15:15.472,0.039689506023671
2024.11.07 14:15:42.315,0.033575302850756
2024.11.07 14:15:51.091,0.038245473062469
2024.11.07 14:15:54.813,0.038872748840888
2024.11.07 14:16:04.423,0.044534214160801
2024.11.07 14:16:12.301,0.040424379397256
2024.11.07 14:16:20.592,0.039070625062179
2024.11.07 14:16:30.507,0.038609055037863
2024.11.07 14:16:39.641,0.03935878100234
2024.11.07 14:16:45.262,0.038692376985414
2024.11.07 14:16:53.614,0.040356030402875
2024.11.07 14:17:02.520,0.039184011867066
2024.11.07 14:17:10.037,0.036532085162757
2024.11.07 14:17:18.437,0.035921824512607
2024.11.07 14:17:27.160,0.039941548315217
2024.11.07 14:17:35.842,0.038801978427718
2024.11.07 14:17:51.885,0.040324610052283
2024.11.07 14:18:00.405,0.041488189797568
2024.11.07 14:18:09.174,0.038889627746524
2024.11.07 14:18:17.974,0.043184365124971
2024.11.07 14:18:26.768,0.03905007881484
2024.11.07 14:18:35.692,0.0397466188596
2024.11.07 14:18:43.243,0.037589230219546
2024.11.07 14:18:53.113,0.035277412823774
2024.11.07 14:19:02.206,0.038454330591603
2024.11.07 14:19:10.812,0.040098715485248
2024.11.07 14:19:27.929,0.039264239898931
2024.11.07 14:19:44.175,0.041402916618071
2024.11.07 14:20:01.696,0.039483058657138
2024.11.07 14:20:26.347,0.036094580677659
2024.11.07 14:20:34.057,0.037441440757608
2024.11.07 14:20:40.571,0.038635440469337
2024.11.07 14:20:45.212,0.040571792668065
2024.11.07 14:20:53.648,0.037240477410227
2024.11.07 14:21:01.223,0.038823560446127
2024.11.07 14:21:09.724,0.03928227338951
2024.11.07 14:21:24.003,0.042426388976529
2024.11.07 14:21:39.619,0.041368977634797
2024.11.07 14:21:48.518,0.040943039767754
2024.11.07 14:21:56.052,0.04448311421014
2024.11.07 14:31:36.296,-1000
2024.11.07 14:31:36.296,-1000
2024.11.07 14:31:36.296,-1000
2024.11.07 14:33:09.912,0
2024.11.07 14:33:09.912,0
2024.11.07 14:36:00.404,0.037039273631204
2024.11.07 14:36:10.088,0.040076550347556
2024.11.07 14:36:21.941,0.037390938050345
2024.11.07 14:36:34.280,0.040565380691217
2024.11.07 14:37:00.029,0.037712601757007
2024.11.07 14:37:11.542,0.038680888749423
2024.11.07 14:37:22.401,0.042099126333391
2024.11.07 14:37:33.853,0.040757771721184
2024.11.07 14:37:45.719,0.040142072162656
2024.11.07 14:37:54.653,0.036770988497716
2024.11.07 14:38:12.614,0.040050471103176
2024.11.07 14:38:26.847,0.040637959974863
2024.11.07 14:38:40.553,0.042521410587284
2024.11.07 14:38:54.433,0.04050480161983
2024.11.07 14:39:07.166,0.041533048843228
2024.11.07 14:39:20.630,0.040237535354817
2024.11.07 14:39:47.009,0.044775509987667
2024.11.07 14:40:00.347,0.039523994004393
2024.11.07 14:40:25.582,0.040112885855847
2024.11.07 14:40:35.892,0.042827618429473
2024.11.07 14:40:49.468,0.040140852187873
2024.11.07 14:41:12.751,0.039166700367038
2024.11.07 14:41:25.251,0.0422156646081
2024.11.07 14:41:38.826,0.04001821733823
2024.11.07 14:41:51.288,0.03672115888074
2024.11.07 14:42:18.894,0.037802495940521
2024.11.07 14:42:29.594,0.040525117483838
2024.11.07 14:42:52.840,0.04156433725241
2024.11.07 14:43:21.843,0.03880400724392
2024.11.07 14:43:32.740,0.041770855278308
2024.11.07 14:43:43.640,0.036175469271407
2024.11.07 14:43:57.262,0.04086731160072
2024.11.07 14:44:07.796,0.037338487769993
2024.11.07 14:44:21.590,0.038234021343921
2024.11.07 14:44:33.839,0.040097975101149
2024.11.07 14:44:44.772,0.037112253293057
2024.11.07 14:44:57.325,0.038407752960347
2024.11.07 14:45:12.408,0.039130249579075
2024.11.07 14:45:25.217,0.038732251925238
2024.11.07 14:45:49.873,0.040423610720096
2024.11.07 14:46:05.153,0.041315734287874
2024.11.07 14:46:17.279,0.040159032143582
2024.11.07 14:46:29.237,0.037613555793667
2024.11.07 14:46:42.509,0.039744324148747
2024.11.07 14:46:55.017,0.036692896124632
2024.11.07 14:47:07.551,0.037234359869106
2024.11.07 14:47:19.188,0.040953462501395
2024.11.07 14:47:31.394,0.040000922579204
2024.11.07 14:47:42.831,0.037229283364474
2024.11.07 14:47:56.504,0.042309255892643
2024.11.07 14:48:04.697,0.036858091725019
2024.11.07 14:48:17.530,0.039781699113258
2024.11.07 14:48:30.252,0.040814792035734
2024.11.07 14:48:44.368,0.03977208730638
2024.11.07 14:48:53.726,0.040784462450963
2024.11.07 14:49:06.308,0.039367702740798
2024.11.07 14:49:20.254,0.038546763231984
2024.11.07 14:49:32.660,0.037772681713891
2024.11.07 14:49:57.477,0.038672295964222
2024.11.07 14:50:11.157,0.040604066179677
2024.11.07 14:50:20.446,0.042793788371405
2024.11.07 14:50:32.469,0.040311410976287
2024.11.07 14:50:42.675,0.039511137255704
2024.11.07 14:50:56.279,0.041564324751429
2024.11.07 14:51:07.308,0.037824970051438
2024.11.07 14:51:20.043,0.040068014096055
2024.11.07 14:53:56.001,-1000
2024.11.07 14:53:56.001,-1000
2024.11.07 14:53:56.001,-1000
2024.11.07 15:14:45.838,0
2024.11.07 15:14:45.838,0
