colName,mu_x,err_mu_x,mu_y,err_mu_y,sigma_x,err_sigma_x,sigma_y,err_sigma_y,norm,err_norm
M00_0_inner,0.00559063,0.000642496,-0.00687562,0.000551841,0.143798,0.000385002,0.130329,0.000325839,2.01997,0.0109032
M00_0_outer,0.00486924,0.000733705,-0.00704818,0.000669054,0.143901,0.000476405,0.129816,0.000438096,0.797119,0.00462099
M00_1_inner,0.00671183,0.000663918,-0.00668219,0.000575145,0.143564,0.000392531,0.130564,0.000332005,2.12696,0.0115069
M00_1_outer,0.00495738,0.000739409,-0.00716396,0.000654159,0.143356,0.000468946,0.129239,0.000438341,0.821628,0.00468918
M01_0_inner,0.00770599,0.000448275,-0.00783611,0.000443228,0.143164,0.000260772,0.129186,0.000254351,2.04887,0.00866459
M01_0_outer,0.00762377,0.000570237,-0.00818736,0.000614991,0.142696,0.000345343,0.129568,0.000390695,0.767347,0.00327848
M01_1_inner,0.00780698,0.000463696,-0.00761946,0.00050612,0.143338,0.00027702,0.12893,0.000301387,1.99003,0.00889132
M01_1_outer,0.00674573,0.000617535,-0.00717024,0.000543031,0.14333,0.000382851,0.128824,0.000340146,0.801563,0.00402691
M02_0_inner,0.00620855,0.000669697,-0.0066321,0.000517439,0.143916,0.000392522,0.129573,0.000322097,2.07588,0.0107554
M02_0_outer,0.00519369,0.000705151,-0.00755506,0.000637734,0.144132,0.000448686,0.129315,0.000425355,0.785245,0.00441528
M02_1_inner,0.00604004,0.000679287,-0.00719406,0.000550528,0.143503,0.000402917,0.129561,0.000331826,2.08899,0.0112412
M02_1_outer,0.00503868,0.000768574,-0.0071839,0.000682107,0.14381,0.000496454,0.129351,0.000418896,0.810366,0.00432828
M03_0_inner,0.00725779,0.000591342,-0.00695663,0.000589544,0.143516,0.000329154,0.129928,0.000338143,2.03589,0.0115192
M03_0_outer,0.00653967,0.000699034,-0.00809683,0.000637089,0.14318,0.000440148,0.12924,0.000416058,0.777228,0.00448041
M03_1_inner,0.00664725,0.000621834,-0.00667278,0.000570183,0.14353,0.000372767,0.129963,0.000339548,1.95624,0.0108835
M04_0_inner,0.00625613,0.000542354,-0.00597625,0.000531705,0.14454,0.000335815,0.129531,0.000347882,2.04758,0.0101241
M04_1_outer,0.00510998,0.00068657,-0.00714271,0.00059004,0.144132,0.000436649,0.129114,0.000418273,0.801535,0.00424561
M05_0_inner,0.00714098,0.000536014,-0.00767806,0.000540771,0.143072,0.000300638,0.129796,0.000339094,2.07035,0.0114749
M05_0_outer,0.0053092,0.000710142,-0.00669892,0.000635379,0.142743,0.000447993,0.129024,0.000421694,0.75976,0.00438098
M05_1_inner,0.00752168,0.000574461,-0.00725561,0.000567375,0.142936,0.000352796,0.129884,0.000347086,1.98832,0.0111379
M05_1_outer,0.00635003,0.000623495,-0.00715449,0.00060774,0.142483,0.000404935,0.129149,0.000409887,0.782572,0.00457118
M06_0_inner,0.00625613,0.000542354,-0.00597625,0.000531705,0.14454,0.000335815,0.129531,0.000347882,2.04758,0.0101241
M07_0_inner,0.00606776,0.000855273,-0.00583861,0.000721936,0.143487,0.00055661,0.129308,0.000477577,0.111485,0.00071463
M07_0_outer,0.00535029,0.000722345,-0.00762245,0.000612395,0.143036,0.000451439,0.1297,0.00040213,0.729733,0.0042206
M07_1_inner,0.00744368,0.000590009,-0.00804194,0.000527011,0.143789,0.00034273,0.129872,0.000330465,1.91982,0.0114363
M07_1_outer,-0.00439174,0.000112802,-0.00250472,0.000189148,0.0976213,0.00149695,0.0966199,0.00141858,0.0528081,0.000901131
M09_0_outer,0.00467137,0.000685826,-0.00771066,0.000626883,0.14302,0.000405082,0.129737,0.000409286,0.703674,0.00449704
M09_1_inner,0.00650246,0.000537988,-0.00759327,0.000556941,0.143304,0.00032825,0.129991,0.000363604,1.98911,0.0119492
M09_1_outer,0.00430213,0.000621873,-0.00742597,0.000598193,0.142976,0.000398971,0.129119,0.000401805,0.729488,0.00447949
M11_0_inner,0.00311556,0.000591471,-0.0094816,0.000546729,0.14474,0.000399448,0.132149,0.000372706,2.00699,0.0120618
M11_0_outer,0.0116972,0.00128064,-0.00604641,0.00112138,0.144672,0.000932467,0.127588,0.00082972,0.0245412,0.000234779
M11_1_inner,0.0148965,0.000843257,-0.00669962,0.000723285,0.144277,0.000575388,0.128917,0.000532553,0.0893662,0.000608392
M11_1_outer,-0.00111371,0.000702004,-0.00629327,0.00061084,0.142794,0.000466184,0.128934,0.000427948,0.615833,0.00368781
M12_0_inner,0.00247495,0.000615164,-0.00707467,0.0005707,0.144384,0.000345179,0.130469,0.000326342,1.81024,0.00633308
M12_0_outer,-8.74998e-05,0.000711051,-0.00755928,0.000677456,0.143884,0.000455778,0.129058,0.000426865,0.599045,0.00339775
M12_1_inner,0.00276022,0.000617382,-0.00760661,0.000581358,0.143255,0.00037406,0.129568,0.000332828,1.86603,0.00801761
M12_1_outer,0.000380625,0.000662759,-0.00753587,0.000678484,0.143651,0.00043953,0.12853,0.000428577,0.603413,0.00270048
M13_0_inner,0.00390786,0.000605771,-0.00802032,0.000465393,0.14361,0.000377919,0.129595,0.000292734,1.79645,0.0104808
M13_0_outer,0.00298147,0.00066498,-0.00614452,0.000624081,0.143938,0.000439063,0.12844,0.000430161,0.576142,0.00373154
M13_1_inner,0.00420695,0.000598202,-0.00676408,0.000512065,0.143742,0.000368803,0.130178,0.000341968,1.78419,0.0107902
M13_1_outer,0.00212964,0.000758621,-0.00758002,0.000615568,0.143652,0.000492237,0.12802,0.00046488,0.576415,0.00371433
M14_0_inner,0.00419971,0.000626407,-0.00708119,0.000585792,0.143723,0.000369297,0.129713,0.000361677,1.79018,0.00968522
M14_0_outer,0.00386644,0.00071382,-0.00694847,0.000712119,0.143353,0.000456374,0.128644,0.000491339,0.564111,0.00328365
M14_1_inner,0.00563094,0.000595642,-0.00721788,0.000602218,0.144318,0.000350303,0.129865,0.000364947,1.73808,0.00937859
M14_1_outer,-0.0899684,0.00266242,0.000696641,0.0343029,-0.0114783,0.00200065,0.148807,0.0278892,0.0479951,0.566109
M15_0_inner,0.00833673,0.000659127,-0.00741205,0.000687646,0.141679,0.000459,0.129304,0.000463411,0.152942,0.000973555
M15_0_outer,0.00597749,0.000754042,-0.00690855,0.000637656,0.144344,0.000496434,0.128443,0.000475266,0.549978,0.00350071
M15_1_inner,0.00644015,0.000628824,-0.00739883,0.000552444,0.144091,0.000393631,0.12929,0.000361609,1.71095,0.0103764
M16_0_inner,0.00813509,0.000583849,-0.0074652,0.000625481,0.144528,0.000378716,0.130065,0.000364962,1.75192,0.00963399
M16_0_outer,0.00808786,0.000715305,-0.00726308,0.000742919,0.144917,0.000476525,0.129191,0.000493907,0.560104,0.00326745
M16_1_inner,0.00793978,0.000761511,-0.0109302,0.000852937,0.14397,0.000540499,0.129072,0.000587717,1.80672,0.0111648
M16_1_outer,0.00684446,0.000764151,-0.00732579,0.000750577,0.144382,0.000513784,0.127852,0.000498165,0.551141,0.00340747
M17_0_inner,0.00445756,0.000701355,-0.00664378,0.00057341,0.143524,0.000455753,0.130084,0.000391767,0.265319,0.0016732
M17_0_outer,0.0105346,0.000771851,-0.00583868,0.000575946,0.144046,0.000515232,0.127905,0.000431254,0.590815,0.00374302
M17_1_inner,0.00922794,0.000646197,-0.00567718,0.000458203,0.144694,0.000391491,0.129525,0.000330615,1.78265,0.0107662
M17_1_outer,0.0110432,0.000746392,-0.00602531,0.000596724,0.144741,0.000515939,0.128161,0.000436588,0.553298,0.00363985
M18_0_inner,0.00998635,0.000632997,-0.00827856,0.000586809,0.144297,0.000380071,0.129172,0.00035354,1.82817,0.0105793
M18_0_outer,0.0123683,0.000737934,-0.00782366,0.000697479,0.144106,0.000484965,0.128192,0.000460368,0.600843,0.00353323
M18_1_inner,0.0107573,0.000589685,-0.00735312,0.000654705,0.143886,0.000342861,0.129545,0.000396399,1.82708,0.010385
M18_1_outer,0.0108794,0.00068348,-0.00751924,0.00074442,0.14387,0.000451396,0.128405,0.00049916,0.588833,0.00348845
M19_0_inner,0.00977212,0.000652456,-0.00577583,0.000538851,0.14402,0.000391479,0.129285,0.000362472,1.87614,0.011277
M19_0_outer,0.0128814,0.000694157,-0.00634919,0.000618293,0.143826,0.000460723,0.128516,0.000425197,0.617293,0.00386935
M19_1_inner,0.00979763,0.000655547,-0.00653398,0.000514587,0.144107,0.000415619,0.129388,0.000340506,1.86975,0.0112521
M19_1_outer,0.0120305,0.000750969,-0.00588267,0.000619227,0.143855,0.000491937,0.128459,0.000435608,0.613452,0.00397115
M20_0_inner,0.0106113,0.00061073,-0.00630444,0.000612676,0.142891,0.00036509,0.130258,0.000352524,1.94424,0.0106185
M20_0_outer,0.0125196,0.000712342,-0.00633752,0.000676588,0.142917,0.000461577,0.129798,0.000454969,0.654796,0.00368149
M20_1_inner,0.0111282,0.000543679,-0.00624704,0.0005649,0.143892,0.000331048,0.130379,0.000351938,1.9372,0.0108405
M20_1_outer,0.0127838,0.000671648,-0.00680225,0.000669822,0.142512,0.0004292,0.128802,0.000463159,0.642525,0.00399915
M21_0_inner,0.0105427,0.000610353,-0.00648685,0.000521979,0.143432,0.000342349,0.130018,0.000337365,1.98404,0.011304
M21_0_outer,0.0117796,0.00066167,-0.00692032,0.000573881,0.143557,0.000425749,0.128928,0.00039814,0.672699,0.00415004
M21_1_inner,0.00958161,0.000593857,-0.00785897,0.000536576,0.143767,0.000349832,0.130503,0.000329142,1.63167,0.00923034
M22_0_inner,0.00909609,0.000591082,-0.00653163,0.000604862,0.143397,0.000367977,0.130787,0.000350833,2.01749,0.011778
M22_0_outer,0.0110024,0.000677002,-0.00641329,0.000654092,0.143003,0.000447806,0.129723,0.000445684,0.707655,0.00448435
M22_1_inner,0.00997761,0.000574191,-0.00679924,0.000636027,0.14398,0.000341183,0.13021,0.000369844,2.04344,0.0115148
M22_1_outer,0.010686,0.000711663,-0.00669783,0.000689909,0.143489,0.000468371,0.129215,0.000469117,0.700746,0.00425642
M23_0_inner,0.00158587,0.000742747,-0.006625,0.000637002,0.14415,0.000442208,0.129775,0.000418662,0.240647,0.00157726
M23_0_outer,0.0110537,0.000696774,-0.00716417,0.000599505,0.143521,0.000441616,0.129507,0.000407237,0.711285,0.00458023
M23_1_inner,0.00913791,0.000579744,-0.00660329,0.000542405,0.143586,0.00034031,0.129709,0.000353411,2.02419,0.0121683
M23_1_outer,0.00505605,0.00105649,-0.00778549,0.000982755,0.14231,0.00073632,0.128128,0.000710256,0.0523804,0.000397205
M24_0_inner,0.00869991,0.000567213,-0.00617428,0.000569428,0.143681,0.000347916,0.130456,0.000355021,2.06232,0.010803
M24_0_outer,0.0103197,0.00068219,-0.0074556,0.000677233,0.143116,0.000449131,0.128573,0.000446054,0.756375,0.00422293
M24_1_inner,0.00834808,0.000605835,-0.00716748,0.000560756,0.142843,0.000343715,0.130423,0.000337336,2.11956,0.0103976
M25_0_inner,0.00864016,0.000599935,-0.00799987,0.000504279,0.144269,0.000349875,0.130739,0.000309531,2.04239,0.0114269
M25_0_outer,-0.0413911,0.000622538,0.00372289,0.000419406,-0.0055842,0.000933798,0.00431857,0.000489325,0.0294753,0.0188347
M25_1_inner,2.03005,5.88879,0.154049,0.214774,0.35248,1.33756,0.0353827,0.0784939,0.057243,2.45745
M25_1_outer,-0.486195,0.0274621,0.298573,0.0252667,0.283402,0.0225581,0.279245,0.0222603,-0.0220063,0.102234
M26_0_inner,0.00801315,0.000623512,-0.00702493,0.000554971,0.143268,0.000353385,0.129894,0.000345412,2.14003,0.0100669
M26_0_outer,0.00819172,0.000729126,-0.00807495,0.00059607,0.142638,0.000434578,0.129066,0.000397524,0.785692,0.00370815
M26_1_inner,0.0073406,0.000626682,-0.00628147,0.000490697,0.143612,0.000369537,0.129793,0.000328199,2.15001,0.0106763
M26_1_outer,0.00760276,0.000733391,-0.00667346,0.000600828,0.143016,0.000467499,0.1289,0.000424028,0.769277,0.00415384
M27_0_inner,0.00789966,0.000594351,-0.00768394,0.000506537,0.14427,0.000348458,0.130395,0.0003415,2.10456,0.0121128
M27_0_outer,0.00700654,0.00071103,-0.00881154,0.000533911,0.14432,0.000455782,0.129456,0.000386179,0.678106,0.00411043
M27_1_inner,2.65025e-05,0.000640035,-0.00749904,0.000557365,0.144122,0.000404953,0.130949,0.00038359,0.931485,0.0055023
M27_1_outer,0.00954764,0.000621242,-0.00822765,0.000568769,0.144161,0.000400464,0.129378,0.000410854,0.779638,0.00472384
M28_0_inner,0.00775022,0.000603956,-0.00661871,0.00056274,0.14371,0.000343624,0.129571,0.000342996,2.1798,0.00993544
M28_0_outer,0.00872343,0.000687311,-0.00691387,0.000629469,0.143299,0.000444926,0.12774,0.000423966,0.804626,0.00426339
M28_1_inner,0.00680122,0.000613905,-0.00662135,0.000577082,0.143808,0.00035957,0.129927,0.000357926,2.14926,0.0104122
M28_1_outer,0.0100108,0.000695359,-0.00683296,0.000639455,0.144417,0.000439168,0.128379,0.000428249,0.790533,0.00379676
M29_0_inner,0.00738776,0.000570002,-0.00769442,0.000493708,0.144525,0.000343782,0.130633,0.00028877,2.12107,0.0116271
M29_0_outer,0.00856993,0.000693546,-0.00664685,0.000595209,0.143273,0.000434644,0.12909,0.000415894,0.796317,0.00468246
M29_1_inner,0.00667639,0.000617567,-0.00649569,0.000535377,0.144105,0.000369347,0.129469,0.000356733,1.19679,0.00658327
M30_0_inner,0.00725033,0.000623763,-0.00510921,0.000492666,0.143701,0.000336138,0.129439,0.000355314,2.15476,0.0100192
M30_0_outer,0.00777935,0.000705269,-0.00623213,0.000584977,0.141917,0.00046762,0.128396,0.000414215,0.815177,0.00427188
M30_1_inner,0.00794943,0.000553659,-0.00523387,0.000530328,0.143616,0.000305628,0.129147,0.000350243,2.15764,0.0101161
M30_1_outer,0.00911922,0.000690225,-0.00619211,0.000581191,0.143562,0.000441043,0.12817,0.000409062,0.805522,0.00399274
M31_0_inner,0.0079983,0.000576225,-0.00683903,0.000506355,0.144724,0.000352192,0.130107,0.000323924,2.03399,0.0109249
M31_0_outer,0.0090946,0.000672127,-0.00759918,0.000553132,0.143649,0.0004259,0.128854,0.000385,0.799001,0.00445418
M31_1_inner,1.33457,0.00920985,1.16394,6.34045,0.141872,0.00300474,-2.37772,46.6009,0.0127624,0.16259
M31_1_outer,0.00924736,0.000656439,-0.00792582,0.000552737,0.143731,0.000422379,0.129124,0.000371723,0.799897,0.00474225
M32_0_inner,0.0066937,0.000616244,-0.00616125,0.0005448,0.143316,0.000349588,0.13026,0.000339904,2.14468,0.00970885
M32_1_inner,0.00672698,0.000634588,-0.0067142,0.000530225,0.143074,0.000350553,0.129615,0.000336858,2.20857,0.00883436
M32_1_outer,0.00726001,0.000727196,-0.00800327,0.0006094,0.14238,0.00043164,0.128808,0.000433672,0.833141,0.0035064
M33_1_inner,0.00793667,0.000608834,-0.00702482,0.000543364,0.143786,0.00035417,0.130068,0.000353769,2.10989,0.0119322
M34_0_inner,0.00594289,0.000612402,-0.00928011,0.000512938,0.14296,0.000355545,0.12991,0.000326139,2.1967,0.00792582
M34_0_outer,0.00570403,0.000699902,-0.00948936,0.000571156,0.143294,0.000430303,0.129463,0.000363825,0.844179,0.00361099
M34_1_inner,0.00683484,0.000653707,-0.00817783,0.000547974,0.143424,0.000383891,0.129829,0.000345312,2.19906,0.00970934
M34_1_outer,0.00638943,0.000753982,-0.00970307,0.000604303,0.14225,0.000454111,0.128406,0.000422398,0.844641,0.00392185
M36_0_inner,0.00660833,0.000632635,-0.00713253,0.000489488,0.142869,0.000370446,0.130552,0.000307887,2.20784,0.00980023
M36_0_outer,0.00690125,0.000683056,-0.00787145,0.000576075,0.14279,0.000428722,0.130226,0.000408326,0.843954,0.00394168
M36_1_inner,0.00598909,0.000636911,-0.00747844,0.00050375,0.143027,0.00038321,0.130616,0.000320702,2.20506,0.00915966
M36_1_outer,0.00681098,0.000740285,-0.00815669,0.000619857,0.14252,0.000487283,0.130096,0.000438539,0.845167,0.00415052
M37_0_inner,0.0079621,0.00058215,-0.0072823,0.000510896,0.143992,0.0003608,0.130115,0.000327607,1.16904,0.00665918
M37_0_outer,0.00871978,0.000627037,-0.00742621,0.000584067,0.143809,0.000400311,0.129356,0.00039694,0.814914,0.00471907
M37_1_inner,0.00764853,0.00056403,-0.00753266,0.000530762,0.143978,0.00032338,0.129736,0.000323905,2.08911,0.0115322
M37_1_outer,0.00881372,0.00068268,-0.00799275,0.000573857,0.1439,0.000434157,0.129177,0.000389556,0.824718,0.00480714
M38_0_inner,0.00681333,0.00059608,-0.00750247,0.000546275,0.142638,0.000345639,0.130766,0.000332459,2.16878,0.00955771
M38_0_outer,0.00592747,0.000682768,-0.00732886,0.000636847,0.142531,0.000423068,0.129012,0.000410961,0.83649,0.00423471
M38_1_inner,0.00630772,0.000607559,-0.00820109,0.000557565,0.143743,0.000353355,0.130035,0.000329475,2.18176,0.00954868
M38_1_outer,0.0067153,0.000700644,-0.00757698,0.000641183,0.143826,0.000449898,0.129492,0.00042264,0.829076,0.00424655
M39_0_inner,0.00838867,0.000605761,-0.00681328,0.000545222,0.143749,0.000355256,0.129845,0.000352095,2.04173,0.0115517
M39_0_outer,0.00939406,0.000970449,-0.00663055,0.000900737,0.143965,0.000691161,0.127319,0.000691829,0.0661766,0.000451905
M39_1_inner,0.0128011,0.382922,-0.004563,1.41421,-0.000630072,3.9953e-05,5.99315,1.41421,-0.263978,1.41421
M39_1_outer,0.568147,0.0434638,-0.156669,0.0631054,0.126589,0.0275983,0.133217,0.055124,0.000325861,0.000357646
M40_0_inner,0.00686371,0.000624556,-0.00790353,0.000562976,0.143107,0.000366867,0.130627,0.000322444,2.10863,0.00951652
M40_0_outer,0.00603611,0.000721603,-0.00871911,0.000615786,0.142404,0.000450769,0.129866,0.000408449,0.829732,0.00382638
M40_1_inner,0.00650939,0.000623041,-0.00654302,0.000544358,0.143244,0.000358532,0.130841,0.000311812,2.13073,0.0105168
M40_1_outer,0.00707383,0.000680696,-0.0072869,0.00066217,0.143058,0.000449303,0.129377,0.000436314,0.807995,0.00447956
M41_0_inner,0.00793522,0.000587246,-0.00663374,0.000517105,0.143879,0.000357574,0.13009,0.000334961,1.98395,0.0111437
M41_0_outer,0.00875632,0.000910509,-0.00786831,0.000355796,0.143607,0.000701017,0.127412,0.000668757,0.0616772,0.000447785
M41_1_inner,0.00778514,0.000607905,-0.00753559,0.000512588,0.143895,0.000375099,0.129875,0.000316976,2.0283,0.0108673
M41_1_outer,0.00813379,0.000614027,-0.00750006,0.000605394,0.142965,0.000386057,0.129247,0.000384738,0.81042,0.00452246
M42_0_inner,0.0087702,0.000546296,-0.00688434,0.000552394,0.143677,0.000318447,0.130384,0.000339739,2.06515,0.0104888
M42_0_outer,0.00630243,0.000652988,-0.00796568,0.0006328,0.143526,0.00043057,0.12979,0.000415403,0.815203,0.00395737
M42_1_inner,0.00765487,0.000556926,-0.00648576,0.000563181,0.143781,0.000334235,0.130792,0.000344432,2.09984,0.0108578
M42_1_outer,0.00689522,0.000618135,-0.00610896,0.000624445,0.143565,0.00042838,0.130801,0.000397794,0.800178,0.00400468
M44_0_inner,0.084159,1.41421,0,1.41421,0.000112595,1.41421,0.15,1.41421,0.15,1.41421
M44_0_outer,1.84299,0.791176,5.9487,13.5508,0.398039,0.378883,2.24496,5.1024,0.0054899,0.020201
M44_1_inner,0.00674983,0.000567908,-0.00630044,0.000578514,0.142993,0.000331814,0.130662,0.000343964,2.0792,0.0100503
M44_1_outer,0.005772,0.000615416,-0.00874474,0.00066239,0.142933,0.00041112,0.129527,0.0004277,0.803696,0.00386631
M46_0_inner,0.00694609,0.000575076,-0.00548386,0.000543439,0.143933,0.000356168,0.130742,0.000330636,2.06816,0.011125
M46_0_outer,0.0064576,0.000616151,-0.0073131,0.000650833,0.14345,0.000416588,0.130248,0.000415556,0.821668,0.00461152
M46_1_inner,0.00687117,0.000600977,-0.00636753,0.000566173,0.143553,0.000367208,0.130141,0.000343125,2.0914,0.0111688
M47_0_inner,0.00774718,0.00050784,-0.00633881,0.000568569,0.143222,0.000289726,0.129513,0.000341918,1.86947,0.0104219
M47_0_outer,0.00742057,0.000636834,-0.00748967,0.000600162,0.143685,0.000390349,0.129134,0.000380277,0.758028,0.00450299
M47_1_inner,0.00804001,0.000544451,-0.00681948,0.000572143,0.143824,0.000313028,0.129656,0.000344409,2.00606,0.0110151
M47_1_outer,0.00880324,0.000615919,-0.00682241,0.000618669,0.142947,0.000365602,0.128603,0.000382859,0.804399,0.00452462
M48_0_inner,0.00677834,0.000619094,-0.00629792,0.000569533,0.143494,0.000391054,0.130602,0.000355708,2.09179,0.0117232
M48_0_outer,0.00654139,0.000582418,-0.00748812,0.00057997,0.143226,0.000393346,0.129557,0.000412107,0.833626,0.0044827
M48_1_inner,0.00637159,0.000590405,-0.00654919,0.000548075,0.14342,0.000378393,0.130585,0.000332849,2.09949,0.0115611
M48_1_outer,0.00575534,0.000644198,-0.00710116,0.000619693,0.143532,0.000430262,0.129649,0.000403318,0.835243,0.00466182
M49_0_inner,0.00820159,0.000558537,-0.00654536,0.000488828,0.143853,0.000323308,0.130154,0.000296914,1.90823,0.00931137
M49_0_outer,0.00763401,0.000615929,-0.00640634,0.000569106,0.143371,0.000386047,0.129509,0.000374255,0.771621,0.00410838
M49_1_inner,0.00826469,0.000593774,-0.00600951,0.000532647,0.143798,0.00034896,0.130055,0.000322912,1.98177,0.00998419
M49_1_outer,0.0350823,0.00635605,-0.0049984,0.00565284,0.150028,0.0336299,0.148287,0.0324446,0.00737544,0.00617086
M50_0_inner,0.00674052,0.000589876,-0.00647025,0.000516659,0.143112,0.000371536,0.130993,0.000307643,2.0925,0.0104815
M50_0_outer,0.00623981,0.000697405,-0.00701987,0.000594192,0.14343,0.000461348,0.13003,0.000376074,0.843781,0.00482995
M50_1_inner,0.00649883,0.000614447,-0.00630282,0.000556739,0.143442,0.000368059,0.130239,0.00033795,2.09786,0.0109079
M51_0_inner,0.00832376,0.000659572,-0.00693686,0.000616937,0.143312,0.000328888,0.129749,0.000340362,1.91101,0.0105002
M51_0_outer,0.00791928,0.000725011,-0.00741053,0.000703159,0.142267,0.000445328,0.128843,0.000443101,0.370553,0.00216938
M51_1_inner,0.00920256,0.000662285,-0.00711925,0.000596798,0.144099,0.000373968,0.128854,0.000341699,0.913221,0.0047391
