TS,xPositionVeloA,xVeloA
2024-04-06 20:13:08,-0.508537133668,-10.82079345464406
2024-04-06 20:13:09,-0.50850923461653,-10.82079345464406
2024-04-06 20:13:27,-0.50985723062842,-10.820789061246291
2024-04-06 20:13:28,-0.50785734142672,-10.820789061246291
2024-04-06 20:13:46,-0.50627300655532,-10.820795871019737
2024-04-06 20:13:47,-0.50785845908369,-10.82079264336299
2024-04-06 20:14:06,-0.50943608948686,-10.820785202320694
2024-04-06 20:14:25,-0.50844871301075,-10.820792869863388
2024-04-06 20:14:45,-0.50578509655955,-10.820807271446911
2024-04-06 20:14:46,-0.50852233374518,-10.820807271446911
2024-04-06 20:16:04,-0.50809863165148,-10.820811569751283
2024-04-06 20:17:41,-0.50667044618339,-10.820779559160808
2024-04-06 20:18:00,-0.5090651228159,-10.82067873133414
2024-04-06 20:18:01,-0.50841498594289,-10.82067873133414
2024-04-06 20:19:38,-0.50760454394146,-10.8208329824292
2024-04-06 20:19:39,-0.50829228947508,-10.8208329824292
2024-04-06 20:19:58,-0.51029479110194,-10.820793781317647
2024-04-06 20:20:17,-0.51005071710983,-10.820817572940117
2024-04-06 20:20:18,-0.51060740033948,-10.820817572940117
2024-04-06 20:20:37,-0.5106794102736,-10.82083414941196
2024-04-06 20:22:00,-0.51131602922411,-10.82081535279121
2024-04-06 20:23:26,-0.50880220920795,-10.820844450658932
2024-04-06 20:23:27,-0.50893888277414,-10.820844450658932
2024-04-06 20:23:46,-0.51055288212929,-10.820801594518713
2024-04-06 20:24:05,-0.51069287746422,-10.820851722853636
2024-04-06 20:26:02,-0.51077212469961,-10.82080996294658
2024-04-06 20:26:21,-0.51127516923995,-10.820828664374655
2024-04-06 20:26:23,-0.51112240434044,-10.82080542666022
2024-04-06 20:26:42,-0.51265521291,-10.820804004591512
2024-04-06 20:26:43,-0.51002983418499,-10.820804004591512
2024-04-06 20:27:01,-0.51308273694115,-10.82080365651397
2024-04-06 20:29:18,-0.51116493514137,-10.820801855150902
2024-04-06 20:29:37,-0.51065670436715,-10.820805872827512
2024-04-06 20:29:38,-0.51457976618255,-10.820815960362834
2024-04-06 20:29:57,-0.51080928658691,-10.82079889328948
2024-04-06 20:30:16,-0.50933278077936,-10.820797605073054
2024-04-06 20:31:15,-0.51154969446941,-10.820816715553535
2024-04-06 20:31:34,-0.50643406793968,-10.820795404190536
2024-04-06 20:31:53,-0.50715578030919,-10.821084317350124
2024-04-06 20:31:54,-0.50642450659217,-10.821084317350124
2024-04-06 20:32:13,-0.50756972389233,-10.82081217237876
2024-04-06 20:33:51,-0.50529454858721,-10.820822976813824
2024-04-06 20:33:52,-0.50733704637632,-10.820822976813824
2024-04-06 20:35:47,-0.50711480477525,-10.820827017774011
2024-04-06 20:35:48,-0.50708158499547,-10.820827017774011
2024-04-06 20:36:41,-0.50567018638559,-10.820794648712512
2024-04-06 20:36:42,-0.50569211042487,-10.820794648712512
2024-04-06 20:38:59,-0.50338259464858,-10.820806452116766
2024-04-06 20:39:18,-0.50609210061268,-10.82079733516756
2024-04-06 20:39:19,-0.50525896985381,-10.82079733516756
2024-04-06 20:39:38,-0.50582364332852,-10.820784211399966
2024-04-06 20:39:39,-0.5047369577472,-10.820784211399966
2024-04-06 20:42:59,-0.50439159627422,-10.820807771143558
2024-04-06 20:43:00,-0.50283645250449,-10.820807771143558
2024-04-06 20:43:19,-0.5036617954416,-10.820797287852194
2024-04-06 20:46:14,-0.50211684202112,-10.820820796277744
2024-04-06 20:48:32,-0.50159018182478,-10.820804456093285
2024-04-06 20:48:33,-0.50294648392911,-10.820804456093285
2024-04-06 20:48:51,-0.5006617373289,-10.820818025099632
2024-04-06 20:50:31,-0.50027637948392,-10.820779114807287
2024-04-06 20:50:51,-0.49847709176239,-10.820777352793865
2024-04-06 20:51:10,-0.50076643094546,-10.820793256083851
2024-04-06 20:52:29,-0.49822532434914,-10.820797861052888
2024-04-06 20:52:48,-0.50070358985618,-10.820848036997916
2024-04-06 20:53:06,-0.50137441006806,-10.820789337751034
2024-04-06 20:53:07,-0.5004589614423,-10.820789337751034
2024-04-06 20:55:04,-0.50238421826793,-10.820804527995657
2024-04-06 20:58:38,-0.49838111290917,-10.820777680819406
2024-04-06 20:58:39,-0.50039632906687,-10.820777680819406
2024-04-06 20:58:58,-0.50032793798886,-10.820819094639534
2024-04-06 20:59:18,-0.50042605021196,-10.820787999695128
2024-04-06 20:59:37,-0.50024100636436,-10.820792607281074
2024-04-06 21:01:37,-0.50088278055925,-10.820736031306769
2024-04-06 21:04:14,-0.50171174058418,-10.820811366361594
2024-04-06 21:07:29,-0.5006464014046,-10.820812282648998
2024-04-06 21:07:29,-0.49965336506205,-10.820812282648998
2024-04-06 21:07:48,-0.50041969914299,-10.820835458425018
2024-04-06 21:07:49,-0.50063815885474,-10.820835458425018
2024-04-06 21:10:04,-0.5022439603551,-10.820833334327672
2024-04-06 21:12:41,-0.50018329557692,-10.820823931191043
2024-04-06 21:13:00,-0.49838576668938,-10.82079567131308
2024-04-06 21:15:17,-0.49982459236286,-10.820689703062072
2024-04-06 21:15:36,-0.49925389494204,-10.820739617229773
2024-04-06 21:16:15,-0.50113127154106,-10.82078199579297
2024-04-06 21:16:16,-0.49948918344818,-10.82078199579297
2024-04-06 21:16:35,-0.49940555941108,-10.820785035843228
2024-04-06 21:16:54,-0.50193312740148,-10.82079555385191
2024-04-06 21:17:13,-0.4999166412664,-10.820799436546489
2024-04-06 21:17:44,-0.50187017903062,-10.82078504220878
2024-04-06 21:17:45,-0.50071231346454,-10.82078504220878
2024-04-06 21:17:59,-0.50134367756386,-10.820781365915748
2024-04-06 21:18:18,-0.5006863728695,-10.820763777006826
2024-04-06 21:18:19,-0.50060032646124,-10.820763777006826
2024-04-06 21:19:17,-0.4998131008337,-10.82078009833184
2024-04-06 21:19:36,-0.50012487250853,-10.820830172672055
2024-04-06 21:22:31,-0.50055470251529,-10.820812775650364
2024-04-06 21:22:32,-0.50220690554981,-10.820806299672904
2024-04-06 21:23:10,-0.50095705615596,-10.820811292733048
2024-04-06 21:24:29,-0.50193186000302,-10.820822585914698
2024-04-06 21:24:48,-0.50022500001023,-10.82080053598345
2024-04-06 21:24:49,-0.50273342052943,-10.82080053598345
2024-04-06 21:27:05,-0.49974627120404,-10.820821219298091
2024-04-06 21:27:24,-0.50044952395979,-10.82080928609955
2024-04-06 21:27:25,-0.50020174597987,-10.82080928609955
2024-04-06 21:27:44,-0.50015349767104,-10.820794029538703
2024-04-06 21:27:45,-0.50058792591775,-10.820794029538703
2024-04-06 21:28:17,-0.5014045642801,-10.820848234922147
2024-04-06 21:30:16,-0.49850245648912,-10.820825955482556
2024-04-06 21:30:17,-0.50177993970795,-10.820824875670626
2024-04-06 21:30:36,-0.50039009894631,-10.820824140192816
2024-04-06 21:30:55,-0.49985223892527,-10.820799219023847
2024-04-06 21:32:14,-0.50028528797768,-10.82079877903984
2024-04-06 21:32:34,-0.49904593434498,-10.820789117957927
2024-04-06 21:32:52,-0.5010634305071,-10.820829500824155
2024-04-06 21:32:53,-0.49965407630243,-10.820810559875923
2024-04-06 21:33:13,-0.50005280750126,-10.82083245412893
2024-04-06 21:33:31,-0.50099326941701,-10.82082526278216
2024-04-06 21:34:50,-0.50110417067406,-10.82082135604431
2024-04-06 21:35:09,-0.5013145666308,-10.820823298982353
2024-04-06 21:35:10,-0.49871819897736,-10.820823298982353
2024-04-06 21:35:29,-0.49987334274356,-10.820803548795862
2024-04-06 21:35:48,-0.50305655134328,-10.820810631865228
2024-04-06 21:36:07,-0.49919460089386,-10.820840083336192
2024-04-06 21:38:05,-0.50178134961095,-10.820799930753266
2024-04-06 21:38:24,-0.50071967361534,-10.820822560753006
2024-04-06 21:38:25,-0.50010023907207,-10.820822560753006
2024-04-06 21:38:44,-0.49925831947425,-10.820825773875406
2024-04-06 21:39:03,-0.50285450928203,-10.820803266741414
2024-04-06 21:39:23,-0.50134430231719,-10.820849591517788
2024-04-06 21:39:42,-0.49977435448784,-10.820815246608092
2024-04-06 21:39:43,-0.50081361879064,-10.820815246608092
2024-04-06 21:41:20,-0.49976597350262,-10.820829277973974
2024-04-06 21:41:39,-0.50118891760562,-10.820834761238912
2024-04-06 21:43:17,-0.50071501129483,-10.820820622048474
2024-04-06 21:43:35,-0.49979022591799,-10.820801625121645
2024-04-06 21:43:36,-0.4979617374658,-10.820801625121645
2024-04-06 21:48:31,-0.50033242674517,-10.820819983056843
2024-04-06 21:48:32,-0.50211173407561,-10.820813670659236
2024-04-06 21:49:50,-0.49979159418374,-10.82079222220814
2024-04-06 21:50:09,-0.50081015697438,-10.820820349915616
2024-04-06 21:57:53,-0.49937168159731,-10.820466952003033
2024-04-06 21:58:25,-0.50076292631442,-10.820672753792037
2024-04-06 22:02:12,-0.50262469523693,-10.820689316803517
2024-04-06 22:02:13,-0.50162955896242,-10.820689316803517
2024-04-06 22:02:45,-0.50129515167919,-10.82078760719585
2024-04-06 22:02:46,-0.49984198037698,-10.82078760719585
2024-04-06 22:06:00,-0.50287349723824,-10.820798074888469
2024-04-06 22:06:01,-0.50080130878183,-10.820798074888469
2024-04-06 22:06:32,-0.50381678563211,-10.820773282371569
2024-04-06 22:06:34,-0.50111696822045,-10.820773282371569
2024-04-06 22:07:05,-0.50236234712121,-10.820815168321438
2024-04-06 22:07:37,-0.50172343397077,-10.82079472020419
2024-04-06 22:07:38,-0.50112828857169,-10.820795707596044
2024-04-06 22:08:11,-0.49872679253561,-10.820807262747426
2024-04-06 22:09:15,-0.50337456107325,-10.8207980452371
2024-04-06 22:09:16,-0.50014367751751,-10.8207980452371
2024-04-06 22:09:48,-0.50031829545666,-10.820780791975196
2024-04-06 22:10:53,-0.50111053937939,-10.820814895568391
2024-04-06 22:10:54,-0.50088801061385,-10.820814895568391
2024-04-06 22:13:03,-0.50050736410956,-10.820795109952329
2024-04-06 22:13:36,-0.50107456867094,-10.820786732987829
2024-04-06 22:14:08,-0.5012914505136,-10.820809914247189
2024-04-06 22:14:09,-0.50188875218829,-10.820809914247189
2024-04-06 22:15:46,-0.50136958862178,-10.820812341298932
2024-04-06 22:16:19,-0.50158407724803,-10.820800393373933
2024-04-06 22:16:51,-0.50228304381943,-10.820804606091931
2024-04-06 22:17:23,-0.50031111707873,-10.82081971223102
2024-04-06 22:19:33,-0.50096528824607,-10.820800232759684
2024-04-06 22:19:34,-0.49921870652178,-10.820800232759684
2024-04-06 22:20:06,-0.50318521931085,-10.8208020632228
2024-04-06 22:22:17,-0.50067724014086,-10.82081573966457
2024-04-06 22:22:49,-0.50064448339583,-10.820823585863552
2024-04-06 22:22:50,-0.50122128598566,-10.820798256922023
2024-04-06 22:25:31,-0.50315554983489,-10.820804290372598
2024-04-06 22:26:04,-0.50297147979164,-10.820811641393462
2024-04-06 22:26:05,-0.4999524223252,-10.82080541493864
2024-04-06 22:28:14,-0.50103733049585,-10.82078668871319
2024-04-06 22:28:15,-0.50157715167684,-10.82078668871319
2024-04-06 22:29:20,-0.50075925842163,-10.820795375124067
2024-04-06 22:32:34,-0.50090943864963,-10.82078827106068
2024-04-06 22:32:36,-0.50033230782456,-10.82078961676079
2024-04-06 22:33:07,-0.50139432248808,-10.820817448100396
2024-04-06 22:36:55,-0.50227720679027,-10.820808393026557
2024-04-06 22:38:00,-0.49926947256151,-10.820815646760389
2024-04-06 22:38:01,-0.50305241652822,-10.820815646760389
2024-04-06 22:39:37,-0.50021736592713,-10.820805201050463
2024-04-06 22:41:48,-0.50160628329896,-10.820804313456192
2024-04-06 22:42:20,-0.5022707415581,-10.820807599740732
2024-04-06 22:43:25,-0.50287121854465,-10.820807651554524
2024-04-06 22:43:26,-0.50076843067677,-10.820800479798075
2024-04-06 22:43:59,-0.50223785386433,-10.82080936734173
2024-04-06 22:45:36,-0.50148724103914,-10.820813863675417
2024-04-06 22:46:41,-0.49947094794085,-10.820793263096864
2024-04-06 22:51:01,-0.50014141654333,-10.820811286903272
2024-04-06 22:51:34,-0.50326372746603,-10.82080397733094
2024-04-06 22:53:12,-0.50112836421115,-10.820811593905006
2024-04-06 22:53:44,-0.50164346121794,-10.820811197308888
2024-04-06 22:55:23,-0.49958603632068,-10.820804594179563
2024-04-06 22:57:36,-0.50101621777122,-10.82080475297101
2024-04-06 22:57:37,-0.50170002125766,-10.82080475297101
2024-04-06 22:58:03,-0.5014659994303,-10.820811580888387
2024-04-06 23:00:46,-0.50194993356175,-10.820794591582342
2024-04-06 23:00:47,-0.5004072079404,-10.820808290232268
2024-04-06 23:01:19,-0.50237986262979,-10.820781512678163
2024-04-06 23:01:52,-0.4996489774574,-10.820816518532276
2024-04-06 23:01:53,-0.50068777795055,-10.820840007791144
2024-04-06 23:04:34,-0.50197973208292,-10.820806387375166
2024-04-06 23:05:06,-0.50309971534419,-10.820810281720115
2024-04-06 23:05:07,-0.50003261587687,-10.820810281720115
2024-04-06 23:05:41,-0.50231906284764,-10.820809260612478
2024-04-06 23:08:54,-0.50081397933153,-10.820813599899209
2024-04-06 23:10:32,-0.50093941097461,-10.82080118246794
2024-04-06 23:11:04,-0.50104956651006,-10.820809082483096
2024-04-06 23:11:05,-0.50038457611288,-10.820797159500833
2024-04-06 23:11:38,-0.49932080359001,-10.820816291799009
2024-04-06 23:11:39,-0.49949626988424,-10.820816291799009
2024-04-06 23:13:15,-0.49999212787871,-10.820798070469609
2024-04-06 23:13:47,-0.50245301112571,-10.820791457556906
2024-04-06 23:13:48,-0.50070371475905,-10.820791457556906
2024-04-06 23:15:25,-0.50316682970506,-10.820800562378697
2024-04-06 23:18:41,-0.50013399916747,-10.820710697605827
2024-04-06 23:19:14,-0.500548633865,-10.820808409498104
2024-04-06 23:21:55,-0.50091978694226,-10.820819597691882
2024-04-06 23:23:00,-0.50129509206608,-10.820814995890856
2024-04-06 23:23:01,-0.5001562044197,-10.820814995890856
2024-04-06 23:23:33,-0.50204152223405,-10.82084362367031
2024-04-06 23:23:34,-0.50334638736239,-10.82084362367031
2024-04-06 23:24:06,-0.50099308742003,-10.82081293029242
2024-04-06 23:24:38,-0.50027058897506,-10.82081505589989
2024-04-06 23:25:11,-0.50084727830556,-10.820808933599611
2024-04-06 23:25:12,-0.50133982865249,-10.820808933599611
2024-04-06 23:25:45,-0.50139191405827,-10.820805276067732
2024-04-06 23:27:54,-0.50054686897998,-10.820809534066433
2024-04-06 23:28:25,-0.50097592478398,-10.820815238940083
2024-04-06 23:28:59,-0.50157025840073,-10.82080092862302
2024-04-06 23:36:47,-0.50120990661489,-10.820818560198587
2024-04-06 23:36:48,-0.50263649184662,-10.820818560198587
2024-04-06 23:37:27,-0.50125917997993,-10.820804907440095
2024-04-06 23:37:28,-0.50164416583193,-10.820804907440095
2024-04-06 23:38:50,-0.50198717582727,-10.820810773042584
2024-04-06 23:40:53,-0.50224828409937,-10.820815437279308
2024-04-06 23:40:54,-0.50027191260409,-10.820815437279308
2024-04-06 23:41:34,-0.50337191478068,-10.820801664242614
2024-04-06 23:45:01,-0.50149273733811,-10.820813177549576
2024-04-06 23:45:02,-0.49974781451935,-10.820802265121666
2024-04-06 23:49:48,-0.5022102412293,-10.820800538787624
2024-04-06 23:49:50,-0.50220205525381,-10.820806974009429
2024-04-06 23:49:51,-0.50220945166043,-10.820806974009429
2024-04-06 23:51:11,-0.50193820113841,-10.8207993752374
2024-04-06 23:51:12,-0.50203974818552,-10.8207993752374
2024-04-06 23:52:34,-0.50265037359241,-10.82081242611891
2024-04-06 23:52:35,-0.50344192739928,-10.820804162153426
2024-04-06 23:54:38,-0.5022054521686,-10.820815921061728
2024-04-06 23:56:41,-0.50137023424136,-10.82081448988933
2024-04-06 23:56:42,-0.50216511063644,-10.82081448988933
2024-04-06 23:56:43,-0.50127857449169,-10.82081448988933
2024-04-06 23:58:05,-0.50099718417213,-10.820818489446095
2024-04-06 23:58:45,-0.50174061702104,-10.820803486566744
2024-04-06 23:58:46,-0.50313208672323,-10.820803486566744
2024-04-07 00:00:50,-0.50383645008201,-10.82079155930798
2024-04-07 00:02:11,-0.50112241369973,-10.820802889078667
2024-04-07 00:02:52,-0.50129786002292,-10.82079271087763
2024-04-07 00:04:14,-0.50081588418406,-10.820812587403134
2024-04-07 00:04:15,-0.50442826851602,-10.820812587403134
2024-04-07 00:06:59,-0.50126535570319,-10.82080984942594
2024-04-07 00:07:00,-0.50157316632079,-10.82080984942594
2024-04-07 00:09:44,-0.50168203893926,-10.820764377812049
2024-04-07 00:09:46,-0.50192519642127,-10.820764377812049
2024-04-07 00:11:08,-0.50349285189344,-10.82079192044613
2024-04-07 00:11:09,-0.50211674749026,-10.82079192044613
2024-04-07 00:11:48,-0.50318099003044,-10.820818605226568
2024-04-07 00:11:49,-0.50140278620075,-10.820818605226568
2024-04-07 00:13:12,-0.50230602954412,-10.82078975964792
2024-04-07 00:13:13,-0.50303418000997,-10.82078975964792
2024-04-07 00:13:52,-0.50236719008506,-10.82080703497457
2024-04-07 00:15:14,-0.50265684726461,-10.820798564653314
2024-04-07 00:15:15,-0.50232666751831,-10.820798564653314
2024-04-07 00:16:37,-0.501293478162,-10.820817207890071
2024-04-07 00:16:38,-0.50381244886307,-10.820801619714311
2024-04-07 00:19:22,-0.50137652510915,-10.820809136141715
2024-04-07 00:21:25,-0.50236176433779,-10.820801663949595
2024-04-07 00:21:26,-0.50185344631331,-10.82080283029766
2024-04-07 00:25:18,-0.50072945352744,-10.820800450910552
2024-04-07 00:25:19,-0.50030995751301,-10.820800450910552
2024-04-07 00:27:23,-0.50147691003151,-10.820806559351144
2024-04-07 00:28:44,-0.50126037388731,-10.820820976410324
2024-04-07 00:28:45,-0.50241387127669,-10.820820976410324
2024-04-07 00:28:47,-0.50163762480024,-10.820813657074767
2024-04-07 00:29:26,-0.50110769636182,-10.820823980237591
2024-04-07 00:29:27,-0.50104034306308,-10.820823980237591
2024-04-07 00:31:29,-0.5038217573794,-10.820814347986158
2024-04-07 00:31:30,-0.50165959400079,-10.820814347986158
2024-04-07 00:33:35,-0.50162521440459,-10.820800960784222
2024-04-07 00:34:15,-0.50230916491261,-10.820803589613975
2024-04-07 00:36:18,-0.50029187837773,-10.820816745037108
2024-04-07 00:38:22,-0.50124539079306,-10.82081125883462
2024-04-07 00:39:44,-0.50274756434868,-10.820801203917997
2024-04-07 00:39:45,-0.50188147047822,-10.820801203917997
2024-04-07 00:41:48,-0.50093117643265,-10.820807242856787
2024-04-07 00:41:49,-0.50162567653295,-10.820807242856787
2024-04-07 00:43:51,-0.50181950959252,-10.82082879734001
2024-04-07 00:43:52,-0.50162680122324,-10.82082879734001
2024-04-07 00:45:14,-0.50178436294985,-10.82083712489026
2024-04-07 00:45:54,-0.50141575086131,-10.820839495394337
2024-04-07 00:46:36,-0.50059982686335,-10.82082921289608
2024-04-07 00:46:37,-0.50124633455734,-10.82082921289608
2024-04-07 00:46:38,-0.50200352389642,-10.820825984645175
2024-04-07 00:47:18,-0.50157822278178,-10.82084375384832
2024-04-07 00:47:19,-0.49901978935168,-10.82084375384832
2024-04-07 00:50:44,-0.50012681881722,-10.820825838606057
2024-04-07 00:50:45,-0.50087615713505,-10.820825838606057
2024-04-07 00:52:06,-0.50113681952525,-10.820834136378206
2024-04-07 00:53:29,-0.50293296437127,-10.820828492981974
2024-04-07 00:53:30,-0.50020854545728,-10.820828492981974
2024-04-07 00:54:10,-0.50104604242294,-10.82085546336508
2024-04-07 00:55:32,-0.49966176563097,-10.820836943582552
2024-04-07 00:55:33,-0.50228837002899,-10.820836943582552
2024-04-07 00:55:34,-0.50257264403972,-10.820836943582552
2024-04-07 00:57:36,-0.50251255674849,-10.82083494020496
2024-04-07 00:58:58,-0.50227194905155,-10.820823586026384
2024-04-07 00:58:59,-0.50056953118867,-10.820846899316772
2024-04-07 00:59:00,-0.50191994375537,-10.820846899316772
2024-04-07 00:59:40,-0.50109139065241,-10.820830309922629
2024-04-07 01:02:26,-0.50204797166921,-10.820827581294097
2024-04-07 01:04:28,-0.49929255667571,-10.820831187865087
2024-04-07 01:06:32,-0.4986414186439,-10.82083793838045
2024-04-07 01:06:34,-0.5011616214816,-10.82083793838045
2024-04-07 01:08:36,-0.49920365429344,-10.820823535238084
2024-04-07 01:08:37,-0.50070545662641,-10.820823535238084
2024-04-07 01:12:02,-0.49954433584444,-10.820836192964103
2024-04-07 01:14:47,-0.49970664104697,-10.820795657598826
2024-04-07 01:14:48,-0.5008939391473,-10.820795657598826
2024-04-07 01:16:50,-0.50183731157431,-10.82082957783272
2024-04-07 01:16:51,-0.49948651436593,-10.82082957783272
2024-04-07 01:17:31,-0.50022036995604,-10.820850503178416
2024-04-07 01:19:35,-0.50117511496527,-10.820850327827552
2024-04-07 01:20:16,-0.49923700178467,-10.820842970769212
2024-04-07 01:21:38,-0.50183944398573,-10.82083675630068
2024-04-07 01:21:39,-0.50018924813104,-10.82083675630068
2024-04-07 01:22:19,-0.50124301103311,-10.820837127885088
