TS,zPositionVeloC,zVeloC
2024-04-06 13:24:03,-3.4674355331052,-7.580343247094447
2024-04-06 13:24:06,-2.9060208323779,-9.54352335604824
2024-04-06 13:24:12,-5.8209764532834,-12.380790330828743
2024-04-06 13:24:18,-5.1002815558319,-12.950555205038311
2024-04-06 13:24:24,-2.2280394510076,-13.04313093669498
2024-04-06 13:24:30,-6.8629676319702,-13.120869002477434
2024-04-06 13:24:39,-3.8827694869075,-11.556305431414216
2024-04-06 13:24:45,-1.4218166112,-10.189942339421464
2024-04-06 13:24:51,-5.9874859142554,-10.902097665615996
2024-04-06 13:24:57,-8.8459214231966,-10.724425515847315
2024-04-06 13:25:03,-1.3227192154561,-9.636685485043015
2024-04-06 13:25:06,-4.9741660146496,-8.154788944409574
2024-04-06 13:25:12,-3.031781968503,-9.120641284447627
2024-04-06 13:25:18,-1.126439100433,-9.352747610391816
2024-04-06 13:25:24,-2.598990011436,-8.975049104166374
2024-04-06 13:25:33,-6.067270304686,-7.0664491291353215
2024-04-06 13:25:36,-4.7128654476258,-7.801095856055667
2024-04-06 13:25:42,-3.5581312318716,-7.846519149581468
2024-04-06 13:25:48,-6.2115982112614,-7.840126609779304
2024-04-06 13:25:57,-6.6060602915298,-6.996541856110298
2024-04-06 13:26:03,-1.7082041526902,-6.540513600849408
2024-04-06 13:26:09,-2.2574535794883,-6.387438582866821
2024-04-06 13:26:12,-2.3881779100452,-4.2930847330951565
2024-04-06 13:26:18,-3.1101986363918,-3.64605997231854
2024-04-06 13:26:24,-4.0480976100413,-4.646434969081497
2024-04-06 13:26:27,-4.0518162087417,-5.329584286571503
2024-04-06 13:26:33,-1.8634789490054,-4.051736931310302
2024-04-06 13:26:45,-3.0453696935599,-3.295653731194534
2024-04-06 13:26:51,-4.2738862662624,-2.919520230678131
2024-04-06 13:26:54,-0.06439604166419,-1.9008934828459587
2024-04-06 13:27:00,-3.7047018217471,-1.9857902271064631
2024-04-06 13:27:06,0.88938476838095,-1.5654582331644633
2024-04-06 13:27:12,-6.6440124246862,-3.9361705144505095
2024-04-06 13:27:15,-1.8751112889049,-5.634624905200894
2024-04-06 13:27:18,-2.1764806031646,-7.492987797581577
2024-04-06 13:27:21,-3.7695310389349,-7.360165649443161
2024-04-06 13:27:27,-6.8739547329377,-7.19087481280701
2024-04-06 13:27:33,-2.0570580760057,-6.144407945691455
2024-04-06 13:27:36,-3.6167681920684,-7.176199416116106
2024-04-06 13:27:42,-8.5193655997257,-5.908929558488353
2024-04-06 13:27:48,-4.2427360828952,-6.664160924803923
2024-04-06 13:27:54,-4.5979484914021,-8.396236507939875
2024-04-06 13:28:00,-3.6041237068756,-8.533690869003408
2024-04-06 13:28:09,-4.2260786268332,-8.470581987210494
2024-04-06 13:28:12,-4.2777311634231,-8.270875397032
2024-04-06 13:28:15,-4.4589785454371,-8.033976031557359
2024-04-06 13:28:21,-4.6357624510934,-7.6750687767930685
2024-04-06 13:28:27,-3.123058641596,-6.637236703023859
2024-04-06 13:28:39,-1.4445073790517,-8.077685599930419
2024-04-06 13:28:42,-6.6096127407668,-8.82111816441909
2024-04-06 13:28:48,-7.3067021212258,-7.324540845267165
2024-04-06 13:28:54,-1.7797440543169,-7.757056525429903
2024-04-06 13:28:57,-6.0304211306996,-7.148812085643499
2024-04-06 13:29:03,-4.6822945119599,-7.065528319013652
2024-04-06 13:29:09,-2.8974504933206,-7.249304491690282
2024-04-06 13:29:15,-3.3667071623484,-7.521489794107424
2024-04-06 13:29:18,-3.4791913088078,-7.288476241084595
2024-04-06 13:29:24,-2.3152977404688,-6.705958625656308
2024-04-06 13:29:30,-1.0842261363205,-7.901057398203989
2024-04-06 13:29:36,-5.7431888026605,-8.04625262299328
2024-04-06 13:29:45,-5.8646880845888,-7.136124031968279
2024-04-06 13:29:51,-6.5105632032753,-7.243182823929715
2024-04-06 13:29:57,-6.5604582548476,-7.982531756403773
2024-04-06 13:30:03,-1.7562737801643,-7.924503510930322
2024-04-06 13:30:06,-4.0928891660328,-6.812921977874339
2024-04-06 13:30:12,-0.99982015058504,-6.792458838367224
2024-04-06 13:30:18,-2.6036595413205,-7.746087080169559
2024-04-06 13:30:24,-6.3256312586769,-7.61934989579845
2024-04-06 13:30:30,-3.3316354735135,-7.602381025546606
2024-04-06 13:30:36,-1.8308908555278,-7.792424480503769
2024-04-06 13:30:39,-5.2230126902992,-8.974182401896087
2024-04-06 13:30:45,-4.1371304794441,-7.0127943681424085
2024-04-06 13:30:51,-5.5273147965227,-7.613592129817107
2024-04-06 13:31:00,-6.7137080185975,-8.15614245059453
2024-04-06 13:31:06,-4.6108285052718,-6.935069959892985
2024-04-06 13:31:12,-2.5294865768548,-6.986460935258265
2024-04-06 13:31:21,-4.4944098287678,-7.850355278718553
2024-04-06 13:31:24,-2.6902727027705,-7.993139375755504
2024-04-06 13:31:27,-5.1937664507719,-7.91645685342769
2024-04-06 13:31:33,-6.0856747599878,-6.9882829765113
2024-04-06 13:31:39,-5.423915947809,-8.613690479575894
2024-04-06 13:31:45,-5.0590208133812,-7.643779048473448
2024-04-06 13:31:51,-2.0977911779802,-8.28401968744015
2024-04-06 13:31:54,-1.526204375853,-8.531311976755887
2024-04-06 13:32:00,-3.3322786436477,-7.55200539417649
2024-04-06 13:32:06,-3.2675755246559,-8.08489035321793
2024-04-06 13:32:12,-4.7743263669777,-8.54302580576541
2024-04-06 13:32:15,-4.8428760755033,-6.35136319601861
2024-04-06 13:32:21,-4.6709199508198,-6.695138222254286
2024-04-06 13:32:27,-5.6304162819335,-7.97198231212883
2024-04-06 13:32:33,-4.3341521264919,-7.230890919793751
2024-04-06 13:32:36,-0.87433238924107,-7.090211563996832
2024-04-06 13:32:42,-4.3109797514916,-7.239682080833859
2024-04-06 13:32:48,-4.1369048401384,-7.418357437456848
2024-04-06 13:32:57,-2.774850208472,-7.860860998231942
2024-04-06 13:33:03,-1.9111275684728,-7.647340996526509
2024-04-06 13:33:09,-2.47795947917,-7.045030564086801
2024-04-06 13:33:15,-6.6864705218484,-7.136191746759323
2024-04-06 13:33:18,-5.4776674787502,-8.06982712127899
2024-04-06 13:33:24,-1.3083090387071,-7.497967536293572
2024-04-06 13:33:33,-0.52550024105137,-9.215565250939676
2024-04-06 13:33:39,-3.4820751194929,-8.369587691793527
2024-04-06 13:33:42,-2.6694116177403,-7.966531164357889
2024-04-06 13:33:48,-1.5911263121763,-6.842167161649854
2024-04-06 13:33:54,-5.4560593571388,-6.841195211212948
2024-04-06 13:33:57,-2.1971263275188,-7.827506813923492
2024-04-06 13:34:03,-0.60522405102872,-8.578311559763165
2024-04-06 13:34:09,-2.029417009487,-7.052270635906098
2024-04-06 13:34:15,-3.6909767638011,-7.832674231654778
2024-04-06 13:34:18,-3.2199973891884,-7.480635182970445
2024-04-06 13:34:24,-2.537575058083,-7.498988917640986
2024-04-06 13:34:30,-3.0863227890685,-6.788676770117036
2024-04-06 13:34:33,-2.2457220947973,-6.762754590178361
2024-04-06 13:34:39,-4.5829162934866,-9.08547834023284
2024-04-06 13:34:54,-0.057642496194035,-8.22964127355101
2024-04-06 13:35:00,-6.0132995624741,-7.0593107830886765
2024-04-06 13:35:06,-6.910395112589,-7.898351702508648
2024-04-06 13:35:12,-4.2739400760836,-9.237837869234228
2024-04-06 13:35:15,-4.4838423692074,-9.275335734916323
2024-04-06 13:35:21,-3.5921221715716,-9.256927024131985
2024-04-06 13:35:24,-1.4271924236517,-7.966492361541327
2024-04-06 13:35:30,-3.3409930388397,-7.911785262974149
2024-04-06 13:35:36,-5.1597509377218,-7.183333372886068
2024-04-06 13:35:39,-5.9427404605097,-7.450815362521894
2024-04-06 13:35:42,-0.65340295820874,-8.18149687975665
2024-04-06 13:35:45,-6.0548264387327,-8.190460562796034
2024-04-06 13:35:48,-3.0789623291092,-8.37105700084851
2024-04-06 13:35:51,-5.174264789692,-8.313934348053749
2024-04-06 13:35:57,-3.356420574086,-8.37857618867099
2024-04-06 13:36:03,-3.9713484049069,-7.749507449928501
2024-04-06 13:36:09,-6.8370565461941,-7.882492612112856
2024-04-06 13:36:12,-6.6781515640069,-7.661174016256609
2024-04-06 13:36:18,-4.6090221952705,-7.76257886753956
2024-04-06 13:36:24,-1.1867473288584,-7.768879076183225
2024-04-06 13:36:27,-7.1342252823734,-7.723271390485934
2024-04-06 13:36:33,-3.5758154414201,-8.836787984363127
2024-04-06 13:36:39,-5.4920796686126,-7.191590599492088
2024-04-06 13:36:45,-2.4313778018061,-8.079386247467369
2024-04-06 13:36:51,-5.8464417291148,-7.236525672625703
2024-04-06 13:36:57,-0.54982304154493,-7.3981622339555315
2024-04-06 13:37:00,-2.9922855297737,-7.626564472342238
2024-04-06 13:37:06,-4.9843042041805,-8.640183085336957
2024-04-06 13:37:15,-3.9590436849543,-7.739157999856957
2024-04-06 13:37:21,-1.615385517535,-8.687454943832222
2024-04-06 13:37:27,-4.7542486332502,-7.646455829866795
2024-04-06 13:37:36,-2.6205265659206,-7.362326444403152
2024-04-06 13:37:42,0.27420367583018,-8.219977193222803
2024-04-06 13:37:45,-0.86758271602183,-8.670342077739633
2024-04-06 13:37:51,-5.4897451977069,-7.75377697525505
2024-04-06 13:37:57,-4.7002435689324,-8.338316327393159
2024-04-06 13:38:03,-2.7815922652388,-7.815732553809767
2024-04-06 13:38:06,-2.3261953090587,-8.531139008496439
2024-04-06 13:38:12,-4.1851672051292,-9.305056121625512
2024-04-06 13:38:15,-0.012557977718669,30.84771708409653
2024-04-06 13:38:21,-6.9778280060337,-76.92465605172538
2024-04-06 13:38:27,-3.3458352700927,-10.18257336689362
2024-04-06 13:38:36,-3.0914429188486,-6.98863882228045
2024-04-06 13:38:42,-6.8036295192911,-6.576974329481573
2024-04-06 13:38:48,-3.7711510965024,-8.021147060120143
2024-04-06 13:38:54,-2.2297004587072,-8.957762824433757
2024-04-06 13:39:00,0.0072547083542088,-8.252536701732424
2024-04-06 13:39:09,-0.9244222505269,-8.559285284972816
2024-04-06 13:39:15,-3.6493783784796,-7.245818958567952
2024-04-06 13:39:18,-3.1106357732524,-8.889546067271226
2024-04-06 13:39:24,-2.7585874179138,-8.42826922360814
2024-04-06 13:39:30,-4.0266716226719,-7.032972500702272
2024-04-06 13:39:36,-0.78115793153176,-9.00629451580653
2024-04-06 13:39:42,-0.24336399576579,-9.52606667369662
2024-04-06 13:39:57,-3.9845583565279,-3.4839047782976422
2024-04-06 13:40:03,-5.2217544625817,-6.138907283039316
2024-04-06 13:40:09,-3.7804011625828,-7.714864576514742
2024-04-06 13:40:15,-4.7127566214926,-8.841168915001845
2024-04-06 13:40:21,-5.1565972214878,-6.608818145362534
2024-04-06 13:40:27,-7.1970655026185,-8.411325214178419
2024-04-06 13:40:30,-2.5378729902912,-7.190904828654766
2024-04-06 13:40:36,-5.5340903600184,-7.893400541492497
2024-04-06 13:40:39,-1.9126500965738,-7.67927565011064
2024-04-06 13:40:45,-4.5022933297366,-9.77364698767326
2024-04-06 13:40:48,-4.0918259311598,-8.02247391751041
2024-04-06 13:40:54,-3.9131086758838,-7.819950098720483
2024-04-06 13:41:00,-6.3014382198796,-8.181002980336984
2024-04-06 13:41:09,-0.9481394130032,-7.008163320879476
2024-04-06 13:41:15,-5.8279713969983,-6.9219779022606645
2024-04-06 13:41:18,-5.8878328698884,-8.380167343958078
2024-04-06 13:41:21,-3.1158751550598,-8.007267209570273
2024-04-06 13:41:24,-3.7932539037533,-8.928480688118952
2024-04-06 13:41:30,-4.1669724296644,-9.68325834098198
2024-04-06 13:41:36,-1.2711103230063,-8.028415807584679
2024-04-06 13:41:42,-5.4109142160729,-9.344788870120851
2024-04-06 13:41:48,-2.0971939061514,-6.737391280900738
2024-04-06 13:41:51,-5.2290516778336,-7.753390130876369
2024-04-06 13:41:57,-1.1050377561529,-8.088936755393775
2024-04-06 13:42:03,0.21632483259283,-8.689724708042831
2024-04-06 13:42:09,-0.52807449814487,-7.826269926799569
2024-04-06 13:42:12,-3.0630363908711,-7.986451083116208
2024-04-06 13:42:18,-4.0163386908167,-7.921331611825735
2024-04-06 13:42:24,0.2054382773922,-8.336973311431052
2024-04-06 13:42:30,-6.2731080810965,-9.043404652899769
2024-04-06 13:42:33,-3.8169362324652,-7.963523781736626
2024-04-06 13:42:39,-3.0663126990207,-9.029723243475132
2024-04-06 13:42:42,-1.7291665648079,-7.734384613941074
2024-04-06 13:42:45,-4.8404938089214,-9.324737660856044
2024-04-06 13:42:48,-1.3171864544683,-9.55130898497589
2024-04-06 13:42:51,-3.2042022862385,-7.45228286108545
2024-04-06 13:42:54,0.6893351532241,-8.492039252050972
2024-04-06 13:43:00,-4.6097043703537,-8.412500354250824
2024-04-06 13:43:09,-4.9306926679427,-7.338108445706325
2024-04-06 13:43:15,-0.087035795472127,-7.824780405505749
2024-04-06 13:43:21,-3.6493612166568,-8.47195014772808
2024-04-06 13:43:27,-5.5257915662622,-7.697183072975008
2024-04-06 13:43:36,-3.347521938022,-8.186822148002648
2024-04-06 13:43:42,-0.74424025571341,-10.344859416783947
2024-04-06 13:43:45,-3.9782905072438,-8.47665017930683
2024-04-06 13:43:51,-5.6098084298284,-9.597525086875748
2024-04-06 13:43:57,-3.4375827410169,-8.074546607922798
2024-04-06 13:44:03,-4.5474533478958,-8.376178156150786
2024-04-06 13:44:06,-4.7952868284491,-7.907715084200049
2024-04-06 13:44:12,-3.958763805187,-9.957184659994368
2024-04-06 13:44:18,-9.4742634258464,-7.263362131202712
2024-04-06 13:44:21,-3.9951053710128,-8.06807195360659
2024-04-06 13:44:27,-3.4338537809283,-8.935511512345215
2024-04-06 13:44:33,-5.4737884248102,-8.103511844885475
2024-04-06 13:44:39,-5.2680018060162,-9.80148307862919
2024-04-06 13:44:48,-4.2288186113559,-7.338825006945512
2024-04-06 13:44:54,-7.2168595398289,-7.761864691849041
2024-04-06 13:45:00,-7.193106286593,-6.470074602879777
2024-04-06 13:45:06,-4.8974582768075,-8.63187088567497
2024-04-06 13:45:12,-2.7033002168507,-8.899842039175383
2024-04-06 13:45:15,-5.1365077487213,-9.512025056614902
2024-04-06 13:45:21,-2.7422670556972,-9.52117606807508
2024-04-06 13:45:27,-3.0254409754925,-9.111435443746132
2024-04-06 13:45:33,-4.8085932958985,-7.231284361790244
2024-04-06 13:45:36,-6.1035691298297,-7.234246626738241
2024-04-06 13:45:42,-6.2781461019555,-8.86516947114626
2024-04-06 13:45:48,-3.7691817189847,-8.949769259409095
2024-04-06 13:45:57,-0.8804121943022,-9.135482668029226
2024-04-06 13:46:03,-3.638057510288,-8.272698717119397
2024-04-06 13:46:09,-9.2075774075562,-8.43796272896725
2024-04-06 13:46:18,-5.8858624706883,-9.105927411011294
2024-04-06 13:46:27,-7.0559465295678,-8.53258733807877
2024-04-06 13:46:33,-4.4905173870564,-7.937150456454901
2024-04-06 13:46:39,-5.0603025816577,-8.162917763305359
2024-04-06 13:46:48,-6.4092899934717,-8.143948817351202
2024-04-06 13:46:54,-4.4451156188287,-9.68057950557511
2024-04-06 13:47:00,-6.3930494147178,-8.18540226394839
2024-04-06 13:47:03,-5.0843138900123,-9.290552969803912
2024-04-06 13:47:09,-3.0210253122325,-8.920393114327567
2024-04-06 13:47:15,-2.6802209115645,-9.494590682957435
2024-04-06 13:47:30,-4.7355274716126,-7.498122148965535
2024-04-06 13:47:36,-6.5579013535653,-8.531148474596534
2024-04-06 13:47:42,-4.6134413775224,-9.43111199860084
2024-04-06 13:47:48,-1.9984639442727,-8.739552742798537
2024-04-06 13:47:51,-4.9867296765044,-8.604069664626081
2024-04-06 13:47:57,-2.6883815618843,-10.392655470600404
2024-04-06 13:48:03,-4.8596836818558,-13.752499877319336
2024-04-06 13:48:12,-4.4598003000535,-13.494435786824283
2024-04-06 13:48:18,-3.2324565545486,-13.450520200862456
2024-04-06 13:48:24,-5.8385774543053,-13.880187329911564
2024-04-06 13:48:30,-5.1524171796662,-11.345091094449572
2024-04-06 13:48:36,-5.8738631297242,-11.84351228446053
2024-04-06 13:48:39,-4.4668022829622,-10.444771417716764
2024-04-06 13:48:51,-3.058046263411,-10.039039225519788
2024-04-06 13:48:57,-4.7089395251209,-7.340868038350777
2024-04-06 13:49:03,-5.3127785101044,-9.281441921132
2024-04-06 13:49:09,-7.7940428535001,-9.178845303714295
2024-04-06 13:49:15,-3.8151571779061,-10.850255920215544
2024-04-06 13:49:21,-3.5965720173995,-10.164152510221015
2024-04-06 13:49:30,-6.091554521025,-7.123869491531195
2024-04-06 13:49:36,-5.9459832297044,-7.430615668676864
2024-04-06 13:49:42,-1.7840792159254,-7.0365094536686
2024-04-06 13:49:48,-1.9682824750407,-6.455465461223184
2024-04-06 13:49:54,-2.9570294229211,-6.757201362284036
2024-04-06 13:50:00,-4.6848518201987,-5.559760530173662
2024-04-06 13:50:06,-4.4880797960829,-6.012604261561023
2024-04-06 13:50:12,-6.8708109006919,-5.97879610747566
2024-04-06 13:50:18,-6.3319263758464,-4.966427916550401
2024-04-06 13:50:27,-5.2598235609071,-6.065180021351466
2024-04-06 13:50:33,-6.5724464182187,-4.494228094353844
2024-04-06 13:50:39,-2.5297476245648,-3.607373259132487
2024-04-06 13:50:45,-4.2649389418319,-4.612269665090707
2024-04-06 13:50:48,-2.2228593658303,-3.539183724532222
2024-04-06 13:50:54,-3.4719173610117,-2.5868093530328906
2024-04-06 13:51:00,-7.4074618616439,-5.285059198881413
2024-04-06 13:51:06,-3.3586362318093,-7.478703923762396
2024-04-06 13:51:12,-4.1745459003987,-8.88473973800194
2024-04-06 13:51:15,-6.6459342965075,-7.040164839855493
2024-04-06 13:51:21,-6.964728760729,-8.204318841026407
2024-04-06 13:51:27,-4.4262967954785,-7.798165286228937
2024-04-06 13:51:30,-6.0108094054087,-9.465975789538676
2024-04-06 13:51:36,0.40232393139701,-8.66518053663276
2024-04-06 13:51:42,-1.061083814323,-9.63358394299746
2024-04-06 13:51:48,-2.567140699319,-8.958014985056707
2024-04-06 13:51:54,-2.6707801391659,-8.26332332167874
2024-04-06 13:52:03,-5.5358681897821,-7.816786094535018
2024-04-06 13:52:09,-2.8979070420086,-7.938100707258286
2024-04-06 13:52:15,-1.9342939986633,-7.300473669278972
2024-04-06 13:52:21,-6.4446422807847,-7.975513016054606
2024-04-06 13:52:27,-4.4390085362124,-9.6122572433884
2024-04-06 13:52:33,-2.593863040248,-5.56375019799475
2024-04-06 13:52:39,-4.4387453910176,-9.5886626548222
2024-04-06 13:52:45,-5.8729643413655,-8.671985095796572
2024-04-06 13:52:57,-2.0809035391904,-8.5623856595181
2024-04-06 13:53:00,-4.4933348345539,-8.32445280044908
2024-04-06 13:53:06,-1.8697055268123,-10.05531375784176
2024-04-06 13:53:12,-0.56004374928678,-9.955553725206755
2024-04-06 13:53:18,-7.1161563901715,-8.114589236836878
2024-04-06 13:53:24,-2.451538514124,-8.227735372213942
2024-04-06 13:53:27,-4.3202605479529,-7.5624466222193405
2024-04-06 13:53:33,-2.531320872329,-8.404847317130361
2024-04-06 13:53:36,-6.0198180813056,-8.181115687234751
2024-04-06 13:53:42,-0.26203771152855,-7.480049686604616
2024-04-06 13:53:51,-5.1372691502309,-7.675555786285258
2024-04-06 13:53:57,-2.8071640068035,-6.467863716741022
2024-04-06 13:54:00,-4.2771742196841,-8.396678747516148
2024-04-06 13:54:06,-1.8609252824841,-7.493920034624125
2024-04-06 13:54:12,-7.8341954890522,-7.622006693884259
2024-04-06 13:54:18,-4.1236785490464,-9.5469879224662
2024-04-06 13:54:24,-1.7496395503801,-8.615415980773491
2024-04-06 13:54:27,-4.1999351465351,-8.070536518291306
2024-04-06 13:54:33,-2.0815526660891,-8.78242200800537
2024-04-06 13:54:39,-2.5672791694177,-7.123238004178916
2024-04-06 13:54:45,-2.7093206012142,-8.760666357943137
