TS,xPositionVeloC,xVeloC
2024-04-06 13:24:24,0.59249553451238,-0.2732923397999744
2024-04-06 13:24:30,0.59302384708382,-0.273421657691107
2024-04-06 13:24:39,0.62403729008633,-0.2726789442708143
2024-04-06 13:24:45,0.64188517520131,-0.2721735005284971
2024-04-06 13:24:51,0.64080412914988,-0.2722967124222392
2024-04-06 13:24:57,0.64041393896581,-0.2724614407759982
2024-04-06 13:25:03,0.64137352744704,-0.2722520495432818
2024-04-06 13:25:06,0.65536841216145,-0.2718273075826981
2024-04-06 13:25:12,0.66412533349407,-0.271854351416075
2024-04-06 13:25:18,0.66256089711102,-0.2720024712873574
2024-04-06 13:25:24,0.66282778713446,-0.2716362450302979
2024-04-06 13:25:33,0.6837112489744,-0.2712931183061209
2024-04-06 13:25:36,0.6887693198283,-0.2713169788092306
2024-04-06 13:25:42,0.68799594510963,-0.2711943195566391
2024-04-06 13:25:48,0.69563477706346,-0.2711997192527555
2024-04-06 13:25:57,0.71163478327881,-0.2709647515823648
2024-04-06 13:26:03,0.71110248624213,-0.2708250968758878
2024-04-06 13:26:09,0.7116442914331,-0.2709749883736236
2024-04-06 13:26:12,0.71196923338617,-0.2704549838711664
2024-04-06 13:26:18,0.73609661344485,-0.2701220615394658
2024-04-06 13:26:24,0.73582113464867,-0.2701069855566011
2024-04-06 13:26:27,0.73616646402042,-0.2703566774070403
2024-04-06 13:26:33,0.73504405833415,-0.2701237272937564
2024-04-06 13:26:45,0.7817070479327,-0.269632325691819
2024-04-06 13:26:51,0.78441079521052,-0.2695333541214143
2024-04-06 13:26:54,0.78041811647151,-0.2691721076843096
2024-04-06 13:27:00,0.78207153245931,-0.2692237993102052
