TS,yPositionVeloC,yVeloC
2024-04-06 13:31:00,0.20677774256311,0.2118976701468484
2024-04-06 13:31:06,0.2046575864195,0.2062719725257902
2024-04-06 13:31:12,0.20773098581657,0.2044591024555387
2024-04-06 13:31:21,0.21063707317386,0.2134239238242237
2024-04-06 13:31:24,0.20678746780177,0.2034023676059882
2024-04-06 13:31:27,0.20645055616004,0.2062928232667904
2024-04-06 13:31:33,0.20626251807694,0.2066630571367549
2024-04-06 13:31:39,0.2046450688909,0.2064821476902622
2024-04-06 13:31:45,0.20446847870594,0.1989635124555747
2024-04-06 13:31:51,0.20641706592843,0.2071452788829476
2024-04-06 13:31:54,0.20516974523349,0.2080355518609082
2024-04-06 13:32:00,0.20568310468827,0.2032401498206342
2024-04-06 13:32:06,0.20397345843846,0.2041530716790006
2024-04-06 13:32:12,0.20519978905929,0.1993353171790176
2024-04-06 13:32:15,0.20420974049205,0.2020784378405849
2024-04-06 13:32:21,0.20713067000058,0.2036258572240675
2024-04-06 13:32:27,0.20652964911752,0.2097857093163238
2024-04-06 13:32:33,0.20711521390729,0.2037071106954513
2024-04-06 13:32:36,0.20610487426883,0.2065102813980873
2024-04-06 13:32:42,0.20477946795879,0.2099856157066704
2024-04-06 13:32:48,0.2062143567031,0.2130617454480368
2024-04-06 13:32:57,0.20615647810947,0.2031801062125465