TS,xPositionVeloA,1_comp_x
2024-04-06 13:24:24,-0.5812093263413,2.3900261852452607
2024-04-06 13:24:26,-0.58262107549969,2.3911766612328127
2024-04-06 13:24:28,-0.58150671398453,2.3911766612328127
2024-04-06 13:24:30,-0.58299673841842,2.392756608304431
2024-04-06 13:24:32,-0.5829019988804,2.3924934274802894
2024-04-06 13:24:34,-0.58315291365599,2.3924934274802894
2024-04-06 13:24:36,-0.57989916323689,2.393313559928431
2024-04-06 13:24:38,-0.5687320399308,2.40111872615815
2024-04-06 13:24:40,-0.54787313404096,2.40111872615815
2024-04-06 13:24:42,-0.53575591338383,2.4072623131106616
2024-04-06 13:24:44,-0.53393853637684,2.4073201748627744
2024-04-06 13:24:46,-0.53467866252341,2.4073201748627744
2024-04-06 13:24:48,-0.53341108667357,2.4070668950026373
2024-04-06 13:24:50,-0.53480648536253,2.4035110356496507
2024-04-06 13:24:52,-0.53159463310585,2.4035110356496507
2024-04-06 13:24:54,-0.53369691800346,2.402750879846102
2024-04-06 13:24:56,-0.53641355497381,2.403471307993853
2024-04-06 13:24:58,-0.53582836496154,2.403471307993853
2024-04-06 13:25:00,-0.53464327001497,2.4030883059532187
2024-04-06 13:25:02,-0.53487923938156,2.40462126740757
2024-04-06 13:25:04,-0.53426257982991,2.40462126740757
2024-04-06 13:25:06,-0.52473575011354,2.409035321148392
2024-04-06 13:25:08,-0.51704346337723,2.410844830256585
2024-04-06 13:25:10,-0.51355248361989,2.410844830256585
2024-04-06 13:25:12,-0.50985616752224,2.4095096301730585
2024-04-06 13:25:14,-0.51072211372229,2.4104813331130543
2024-04-06 13:25:15,-0.50995419710454,2.4104813331130543
2024-04-06 13:25:17,-0.51184602137628,2.410270853556145
2024-04-06 13:25:19,-0.5117909728358,2.410270853556145
2024-04-06 13:25:21,-0.51330315402622,2.40889199388076
2024-04-06 13:25:23,-0.51029599087291,2.409073897234674
2024-04-06 13:25:25,-0.51076661084225,2.409073897234674
2024-04-06 13:25:27,-0.50989576070886,2.4083606334804406
2024-04-06 13:25:29,-0.51376634773689,2.4112999181456725
2024-04-06 13:25:31,-0.50537976398457,2.4112999181456725
2024-04-06 13:25:33,-0.49452383012734,2.4112999181456725
2024-04-06 13:25:35,-0.48989859216036,2.4112999181456725
2024-04-06 13:25:36,-0.48918379890869,2.4112999181456725
2024-04-06 13:25:38,-0.48802219545545,2.4112999181456725
2024-04-06 13:25:40,-0.49043654628117,2.416980517417464
2024-04-06 13:25:43,-0.48735245413219,2.416980517417464
2024-04-06 13:25:44,-0.48849577191843,2.416980517417464
2024-04-06 13:25:46,-0.48725030104222,2.416980517417464
2024-04-06 13:25:48,-0.47781889668459,2.416980517417464
2024-04-06 13:25:50,-0.46575018339412,2.416661248834268
2024-04-06 13:25:52,-0.46386755184495,2.416661248834268
2024-04-06 13:25:54,-0.46463462443327,2.4203623384598654
2024-04-06 13:25:56,-0.4621820134378,2.418613098517968
2024-04-06 13:25:58,-0.46449948895249,2.418613098517968
2024-04-06 13:26:00,-0.46545881986379,2.420269131560852
2024-04-06 13:26:02,-0.46451448344022,2.4200107824764108
2024-04-06 13:26:04,-0.46434038336642,2.4200107824764108
2024-04-06 13:26:05,-0.46502501577507,2.4218449719215944
2024-04-06 13:26:07,-0.46477425921356,2.4218449719215944
2024-04-06 13:26:09,-0.46396835112116,2.4229652634112284
2024-04-06 13:26:11,-0.46397997428304,2.423218154555617
2024-04-06 13:26:13,-0.46251502767369,2.423218154555617
2024-04-06 13:26:15,-0.4510980346158,2.4246937791478693
2024-04-06 13:26:17,-0.43904117165308,2.423832843833788
2024-04-06 13:26:19,-0.4410155224261,2.423832843833788
2024-04-06 13:26:21,-0.44102820583974,2.4255377913457585
2024-04-06 13:26:23,-0.43904684140176,2.426607416060442
2024-04-06 13:26:25,-0.4415163424564,2.426607416060442
2024-04-06 13:26:26,-0.44115235389378,2.4265068766901567
2024-04-06 13:26:28,-0.44067144477167,2.4265068766901567
2024-04-06 13:26:30,-0.44235779004893,2.423776421009796
2024-04-06 13:26:32,-0.44222577488063,2.4231855576114003
2024-04-06 13:26:35,-0.44084595407004,2.4254788879647755
2024-04-06 13:26:37,-0.44196906056775,2.4254788879647755
2024-04-06 13:26:39,-0.43790873146946,2.4269091338181066
2024-04-06 13:26:41,-0.42603248938454,2.4330993266767047
2024-04-06 13:26:43,-0.40216052821243,2.4330993266767047
2024-04-06 13:26:45,-0.3936541013151,2.435499207684404
2024-04-06 13:26:47,-0.39478865281809,2.4363797663618314
2024-04-06 13:26:49,-0.39216021526761,2.4363797663618314
2024-04-06 13:26:50,-0.39211192587096,2.4365106271379857
2024-04-06 13:26:52,-0.39436883788496,2.4365106271379857
2024-04-06 13:26:54,-0.39445183847307,2.4368921663510745
2024-04-06 13:26:56,-0.39236602276524,2.436711365255267
2024-04-06 13:26:58,-0.39503434798355,2.436711365255267
2024-04-06 13:27:00,-0.39318792309124,2.436212485084557
