TS,VeloCBeamPositionx,1_comp_Cx
2024-10-28 15:05:39,0.40410892177818,-0.26295268928738136
2024-10-28 15:05:39,0.40410892177818,-0.26295268928738136
2024-10-28 15:05:39,0.40410892177818,-0.26295268928738136
2024-10-28 15:05:39,0.40410892177818,-0.26298800233286657
2024-10-28 15:05:51,0.42132167019208,-0.2634089016480683
2024-10-28 15:05:51,0.42132167019208,-0.2634089016480683
2024-10-28 15:05:51,0.42132167019208,-0.2634089016480683
2024-10-28 15:05:51,0.42132167019208,-0.26374561951138564
2024-10-28 15:05:51,0.42132167019208,-0.26374561951138564
2024-10-28 15:06:34,0.4524730299723,-0.26264833929479986
2024-10-28 15:06:34,0.4524730299723,-0.26264833929479986
2024-10-28 15:06:34,0.4524730299723,-0.26264833929479986
2024-10-28 15:06:34,0.4524730299723,-0.2628425413058333
2024-10-28 15:07:02,0.49218286998906,-0.2605045715249577
2024-10-28 15:07:02,0.49218286998906,-0.2605045715249577
2024-10-28 15:07:02,0.49218286998906,-0.2605045715249577
2024-10-28 15:07:02,0.49218286998906,-0.2605045715249577
2024-10-28 15:07:02,0.49218286998906,-0.2605045715249577
2024-10-28 15:07:02,0.49218286998906,-0.2605045715249577
2024-10-28 15:07:02,0.49218286998906,-0.2605045715249577
2024-10-28 15:07:02,0.49218286998906,-0.2605057635463555
2024-10-28 15:07:02,0.49218286998906,-0.2605057635463555
2024-10-28 15:07:02,0.49218286998906,-0.2605057635463555
2024-10-28 15:07:19,0.50143434342627,-0.2646297668761183
2024-10-28 15:07:19,0.50143434342627,-0.2646297668761183
2024-10-28 15:07:19,0.50143434342627,-0.2646297668761183
2024-10-28 15:07:19,0.50143434342627,-0.2605310347991679
2024-10-28 15:07:19,0.50143434342627,-0.2605310347991679
2024-10-28 15:07:28,0.51231773734631,-0.2608204974067667
2024-10-28 15:07:28,0.51231773734631,-0.2607438615768024
2024-10-28 15:07:45,0.51753252788449,-0.261828678465307
2024-10-28 15:07:45,0.51753252788449,-0.261828678465307
2024-10-28 15:07:45,0.51753252788449,-0.261828678465307
2024-10-28 15:07:45,0.51753252788449,-0.261828678465307
2024-10-28 15:07:45,0.51753252788449,-0.2621027839456402
2024-10-28 15:07:45,0.51753252788449,-0.2621027839456402
2024-10-28 15:08:13,0.55781969757695,-0.2599980701530448
2024-10-28 15:08:13,0.55781969757695,-0.2599980701530448
2024-10-28 15:08:13,0.55781969757695,-0.2599980701530448
2024-10-28 15:08:13,0.55781969757695,-0.2599980701530448
2024-10-28 15:08:13,0.55781969757695,-0.2594367049176662
2024-10-28 15:08:13,0.55781969757695,-0.2594367049176662
2024-10-28 15:09:52,0.6420544470008,-0.2574913261480831
2024-10-28 15:09:52,0.6420544470008,-0.2574913261480831
2024-10-28 15:09:52,0.6420544470008,-0.2574913261480831
2024-10-28 15:09:52,0.6420544470008,-0.25858881122647215
2024-10-28 15:11:12,0.71405356981807,-0.257262978927729
2024-10-28 15:11:12,0.71405356981807,-0.257262978927729
2024-10-28 15:11:30,0.72158012934567,-0.2558302594449598
2024-10-28 15:11:30,0.72158012934567,-0.2558302594449598
2024-10-28 15:11:30,0.72158012934567,-0.2558302594449598
2024-10-28 15:11:30,0.72158012934567,-0.2558302594449598
2024-10-28 15:11:30,0.72158012934567,-0.2562428493925
2024-10-28 15:11:30,0.72158012934567,-0.2562428493925
2024-10-28 15:14:34,0.90595026753407,-0.25261573044507424
2024-10-28 15:14:34,0.90595026753407,-0.25261573044507424
2024-10-28 15:14:34,0.90595026753407,-0.25261573044507424
2024-10-28 15:14:34,0.90595026753407,-0.25261573044507424
2024-10-28 15:14:34,0.90595026753407,-0.2528069773945395
2024-10-28 15:14:34,0.90595026753407,-0.2528069773945395
2024-10-28 15:14:58,0.92976195697298,-0.2521171362369783
2024-10-28 15:14:58,0.92976195697298,-0.2521171362369783
2024-10-28 15:14:58,0.92976195697298,-0.2521171362369783
2024-10-28 15:14:58,0.92976195697298,-0.2521049860086039
