TS,xPositionVeloA,1_comp_Ax
2024-05-18 14:42:03,-0.81865117540195,0.0916443848659962
2024-05-18 14:42:09,-0.83981027199702,0.0918900161620927
2024-05-18 14:42:15,-0.84352224694358,0.0917843755414775
2024-05-18 14:42:18,-0.85135360249641,0.0911053009865129
2024-05-18 14:42:21,-0.846709300823,0.0911753667434528
2024-05-18 14:42:24,-0.8452928198384,0.0913969100175818
2024-05-18 14:42:27,-0.84831755352502,0.091420106724367
2024-05-18 14:42:33,-0.84629502989125,0.0918430455176122
2024-05-18 14:42:39,-0.82588084237503,0.0916992406270025
2024-05-18 14:42:42,-0.81416215116399,0.0920780423076427
2024-05-18 14:42:45,-0.79582250521712,0.0922367982542688
2024-05-18 14:42:48,-0.7644664330867,0.0920785662257127
2024-05-18 14:42:54,-0.69980955861508,0.0930644150855725
2024-05-18 14:43:09,-0.67870612779634,0.0927527213659674
2024-05-18 14:43:12,-0.68125929116415,0.0927481688514415
2024-05-18 14:43:15,-0.67534437559057,0.0931427088949834
2024-05-18 14:43:39,-0.58877734097544,0.0934273165829892
2024-05-18 14:43:54,-0.58346419006767,0.0930412679812893
2024-05-18 14:43:57,-0.57456011206506,0.0937874310378704
2024-05-18 14:44:00,-0.55663310550134,0.093827572954879
2024-05-18 14:44:15,-0.49935136920493,0.0939434494875127
2024-05-18 14:44:18,-0.4977288806273,0.0940120260493951
2024-05-18 14:44:48,-0.41325539830021,0.0945242677535142
2024-05-18 14:44:57,-0.3640892490162,0.0951150756544181
2024-05-18 14:45:09,-0.31410221625162,0.0957952365141294
2024-05-18 14:45:12,-0.31661442149318,0.0953793005269361
2024-05-18 14:45:15,-0.31853750931492,0.0953035689266883
2024-05-18 14:45:24,-0.31549142901752,0.0955682532494397
2024-05-18 14:45:27,-0.3150941991739,0.0956171148353389
2024-05-18 14:45:39,-0.21681641353567,0.0959926442368964
2024-05-18 14:45:42,-0.20709630872479,0.0960935176026908
2024-05-18 14:45:48,-0.15259301443417,0.0967724131192322
2024-05-18 14:45:51,-0.15891331091571,0.0960511739455087
2024-05-18 14:46:00,-0.15895391967651,0.0965708911805801
