TS,yPositionVeloC,yVeloC
2024-04-06 13:28:12,0.10881981531817,-0.0003144032218711
2024-04-06 13:28:15,0.1076421748747,-0.0002755874584295
2024-04-06 13:28:21,0.14811967590693,0.0007311396869297
2024-04-06 13:28:27,0.15848995427781,0.0007750297466285
2024-04-06 13:28:39,0.1564778837855,0.0008561701951216
2024-04-06 13:28:42,0.15967606527241,0.0007577312294046
2024-04-06 13:28:48,0.17783817972346,0.0011984102507916
2024-04-06 13:28:54,0.18156524418687,0.0012603671738891
2024-04-06 13:28:57,0.1803375846647,0.0012788363125653
2024-04-06 13:29:03,0.18201655698721,0.0013562575003126
2024-04-06 13:29:09,0.18268924694953,0.0013935742985027
2024-04-06 13:29:15,0.20461914956566,0.0017178789687246
2024-04-06 13:29:18,0.20350642377034,0.0017601829074573
2024-04-06 13:29:24,0.20464916358699,0.0018115637566434
2024-04-06 13:29:30,0.22401903856562,0.0022683226566796
2024-04-06 13:29:36,0.22792474357216,0.0025893018870156
2024-04-06 13:29:45,0.22958830959838,0.0024866465920185
2024-04-06 13:29:51,0.23093576229908,0.0023900868707228
2024-04-06 13:29:57,0.25313549489318,0.0028131003621793
2024-04-06 13:30:03,0.25291395737096,0.0029870977396852
2024-04-06 13:30:06,0.25173234746989,0.0031355294128488
2024-04-06 13:30:12,0.25235268979028,0.0028999920377159
2024-04-06 13:30:18,0.2539305213796,0.0031795582301431
2024-04-06 13:30:24,0.29696034868444,0.0039350101258178
2024-04-06 13:30:30,0.3016065026515,0.0039668409171267
