TS,zPositionVeloC,1_comp_Cz
2024-05-18 14:41:09,2.7825044639121,0.1370465659483794
2024-05-18 14:41:15,5.047594413355,0.1371604721904399
2024-05-18 14:41:18,4.7311461083976,0.1367109898220549
2024-05-18 14:41:24,1.786263814006,0.137541057544989
2024-05-18 14:41:30,0.49608763772916,0.1373323838786263
2024-05-18 14:41:42,1.6847253562886,0.1375561222593476
2024-05-18 14:41:48,7.5263153703093,0.137503511574402
2024-05-18 14:41:51,0.18000337156381,0.1399130099278394
2024-05-18 14:41:54,1.0174207321984,0.1398109310633386
2024-05-18 14:42:03,6.2583053407647,0.1401532772222447
2024-05-18 14:42:06,3.7664502485984,0.1394175067791325
2024-05-18 14:42:09,6.0122153696296,0.1402880457365044
2024-05-18 14:42:15,12.496378972799,0.1403348388567542
2024-05-18 14:42:18,10.253587663012,0.1404199215254442
2024-05-18 14:42:21,5.2549330744256,0.141865610829657
2024-05-18 14:42:30,4.4654874636425,0.1403622108465664
2024-05-18 14:42:33,6.9183950808774,0.1403480863861427
2024-05-18 14:42:57,3.0489045348843,0.1390249977419012
2024-05-18 14:43:00,7.5485999532782,0.1382001417613249
2024-05-18 14:43:03,0.9108628191111,0.1387416615062341
2024-05-18 14:43:15,4.4689213972854,0.1381695318206914
2024-05-18 14:43:18,2.4425564900876,0.1387991506829783
2024-05-18 14:43:21,2.3819977940276,0.1385342415671245
2024-05-18 14:43:33,-1.7748262325181,0.1371867027867201
2024-05-18 14:43:39,4.969106219777,0.1371892486566056
2024-05-18 14:43:54,0.021381793522225,0.1378527654653601
2024-05-18 14:43:57,1.8588866937951,0.1374787321864929
2024-05-18 14:44:00,5.2854183392335,0.1363171701524914
2024-05-18 14:44:18,1.6453114759845,0.1363449456613089
2024-05-18 14:44:24,2.9748694399675,0.1364546337303742
2024-05-18 14:44:27,1.7661051947047,0.1363451007926324
2024-05-18 14:44:57,2.3295428154638,0.1349212909018788
2024-05-18 14:45:03,2.9505089376176,0.1344524160457942
2024-05-18 14:45:06,0.57411692512737,0.1350349527495755
2024-05-18 14:45:21,2.3453686449083,0.1364392324994731
2024-05-18 14:45:27,0.013297743464538,0.1352584480762072
2024-05-18 14:45:30,-1.5325580346684,0.1344487716628443
2024-05-18 14:45:33,4.1034943266447,0.1350447288528282
2024-05-18 14:45:36,2.8662489979867,0.134574658200135
2024-05-18 14:45:42,4.9910973613803,0.1336057466445323
2024-05-18 14:45:48,9.0512066851319,0.1336408491159086
2024-05-18 14:45:51,3.0916414882217,0.1323809770310975
2024-05-18 14:46:03,8.0697573391514,0.13325848492552
2024-05-18 14:46:06,3.2422364901565,0.1338098801156425
2024-05-18 14:46:15,1.8857653276336,0.133286303721506
2024-05-18 14:46:24,4.8252295684127,0.1331001060502451
2024-05-18 14:46:48,-2.3636890501449,0.1373535427590516
2024-05-18 14:47:00,0.14706252739124,0.1371044408032442
2024-05-18 14:47:03,6.9488648219497,0.1361413347947727
2024-05-18 14:47:09,1.6067521298103,0.1372019551282267
2024-05-18 14:47:24,5.7758371014107,0.1357545815930164
2024-05-18 14:47:30,1.7617895469116,0.1363663286736273
2024-05-18 14:47:33,-1.1187381371703,0.1365333291326043
2024-05-18 14:47:36,8.5825375251205,0.136156131902091
2024-05-18 14:47:51,5.3139826416259,0.1365057069250428
2024-05-18 14:48:09,12.939996273089,0.1362458670629633
2024-05-18 14:48:12,7.6350444281335,0.13726509092991
2024-05-18 14:48:24,6.2838660230965,0.1362101399828415
2024-05-18 14:48:27,5.7887816859291,0.1371888437514568
2024-05-18 14:48:39,5.881096447771,0.1376308500809001
2024-05-18 14:48:42,6.0932857226538,0.1372849017436148
2024-05-18 14:48:45,7.7496084679027,0.1364740392835619
2024-05-18 14:49:00,9.450412664844,0.1363322379401756
2024-05-18 14:49:09,0.25768836661608,0.135853987992411
2024-05-18 14:49:30,0.16282390315493,0.1366029467292132
2024-05-18 14:49:42,2.0375454880907,0.1372153810522952
2024-05-18 14:49:45,1.0093284365123,0.1367424013255926
2024-05-18 14:49:51,-1.5141637918493,0.1365772442507635
2024-05-18 14:49:54,3.6005076895926,0.1370966398737175
2024-05-18 14:50:00,6.3673926886477,0.13557718909435
2024-05-18 14:50:12,6.5538877277551,0.1362148958651042
2024-05-18 14:50:15,1.2264059087359,0.1365392216265917
2024-05-18 14:50:18,8.1807900121585,0.1364740164833781
2024-05-18 14:50:21,1.7962892275744,0.1370178107555451
2024-05-18 14:50:33,4.3379553326745,0.1370347974762132
2024-05-18 14:50:36,-0.49716466490517,0.1370950703267036
2024-05-18 14:50:51,2.810585744168,0.137438266895285
2024-05-18 14:50:54,0.76768538526361,0.1374236777337893
2024-05-18 14:51:18,-1.918105501522,0.1370045962379857
2024-05-18 14:51:24,1.4383646558428,0.1372168881565185
2024-05-18 14:51:27,-0.61650380320376,0.1363512889551269
2024-05-18 14:51:30,-0.27908144668277,0.1365105575582386
2024-05-18 14:51:39,4.1761736623727,0.1366757207929745
2024-05-18 14:51:45,1.9866511640432,0.13696523097294
2024-05-18 14:51:48,3.9701407193537,0.1363790292956495
2024-05-18 14:51:54,4.7667365268105,0.1363772688321744
2024-05-18 14:52:09,3.9655342446359,0.1372800936594333
2024-05-18 14:52:30,-2.0452859331819,0.1372536480437087
2024-05-18 14:52:36,-0.78752924954091,0.1371999974118408
2024-05-18 14:52:54,6.5780723818319,0.1362505238703263
2024-05-18 14:52:57,2.3905813658108,0.1372564774181982
2024-05-18 14:53:00,5.0730998017336,0.1373380558669421
2024-05-18 14:53:15,3.5930215011805,0.1374311092331218
2024-05-18 14:53:21,4.0530400054903,0.1368920299775835
2024-05-18 14:53:39,3.3324749001278,0.1381310423020869
2024-05-18 14:53:42,3.0865312354073,0.1371757743123674
2024-05-18 14:53:54,-11.877880083788,0.1332324512651123
2024-05-18 14:57:06,-29.429779064931,0.1401392103289362
2024-05-18 14:57:18,-29.166405813325,0.1381151383661015
2024-05-18 14:57:45,-19.038214188666,0.1409300822709119
2024-05-18 14:57:51,-18.236842701955,0.1404146597743023
2024-05-18 14:57:57,-15.553930818355,0.1403554991499657
2024-05-18 14:58:09,-15.495615829408,0.1387215919732931
2024-05-18 14:58:12,-15.016034600665,0.1394345683155604
2024-05-18 14:58:15,-13.642130807953,0.1401508448337536
2024-05-18 14:58:21,-11.096353632695,0.1386198636244193
2024-05-18 14:58:27,-9.6792099074553,0.1402086588072208
2024-05-18 14:58:39,-8.0912384468217,0.1390415245827895
2024-05-18 14:58:42,-6.5895188318203,0.1404280543791595
2024-05-18 14:58:48,-4.7485682176206,0.1399845670664115
2024-05-18 14:59:06,-5.2375344762837,0.1378245602772657
2024-05-18 14:59:18,1.8299334460943,0.1375966363616768
2024-05-18 14:59:21,3.5329527215999,0.1376896440165392
2024-05-18 14:59:48,8.4203228166338,0.1372495738722979
