,zPositionVeloA,zVeloA
0,-37.805123857075,-0.1310611091649135
1,-34.291339568571,-0.1306194044667508
2,-34.00089500933,-0.1295360168103795
3,-34.96736998516,-0.1295591763575919
4,-37.043127351189,-0.1309301631189602
5,-36.48258362632,-0.1310511834155777
6,-31.913033778058,-0.130796454743624
7,-32.071558417015,-0.1308443025499412
8,-33.424292698759,-0.1299314221000366
9,-31.098970273713,-0.1303562909498052
10,-31.350025272053,-0.1302292880198743
11,-34.299433567336,-0.1300744590042312
12,-29.525157394604,-0.1312586831210036
13,-29.522506602477,-0.1299602344691731
14,-28.662136916201,-0.130300101692531
15,-26.272380783131,-0.1307680936128287
16,-28.385284104557,-0.1299206173892492
17,-26.130523693299,-0.1297297422000417
18,-25.146735370083,-0.130064553445398
19,-28.090002788598,-0.1311931486858572
20,-24.57923835853,-0.1300021454058452
21,-24.625585418765,-0.1299448766863266
22,-22.231502406712,-0.1298265407573517
23,-18.234510359308,-0.1296158848326079
24,-17.240909542689,-0.1294645078481247
25,-19.086320311973,-0.1294566046301838
26,-15.77073614579,-0.1301521062800779
27,-16.076880970334,-0.1285686945030427
28,-14.881011157705,-0.1290436385195198
29,-16.588943676744,-0.1292108449737518
30,-12.58922910284,-0.1291308629335983
31,-14.121433907634,-0.1282020058749543
32,-10.669901117757,-0.1289279896513991
33,-12.731651478137,-0.1284251714497264
34,-8.0692385383372,-0.1284267503178395
35,-7.3182440880554,-0.1287423512971418
36,-8.1224534220534,-0.1281257301696952
37,-3.5312385647765,-0.1282650734218892
38,-3.9386396639511,-0.1283870009690638
39,-2.6830482376659,-0.1283425476159521
40,-4.1824125599768,-0.1283162977446709
41,-3.5245950926715,-0.1283492843086586
42,-5.0885568375742,-0.1284551488689389
43,-1.3690808999834,-0.1287054724652183
44,1.1067750578605,-0.1283479422047655
45,0.96654024643013,-0.1281854104846968
46,-1.4438829500653,-0.1289414302341953
47,6.9820605731919,-0.1282627861626476
48,3.3088427518959,-0.1278250186141287
49,11.370183677973,-0.1272218555707621
50,11.880184201131,-0.1266459487939257
51,13.170467810224,-0.1264040558296261
52,15.839188166576,-0.1275106098035704
53,18.415573363608,-0.1262984118628189
54,16.363743787671,-0.1286840231161139
55,20.01960619888,-0.126417668210646
56,19.367476703443,-0.1253693232135776
57,17.977562473486,-0.125416599546974
58,18.947495312927,-0.1255994892699093
59,20.455125029146,-0.1280139850697675
60,21.987857206525,-0.1248749483872836
61,26.461152041149,-0.1242388339843411
62,26.650389379492,-0.1247500708388684
63,20.037603102583,-0.1270766406905381
64,24.671325544842,-0.1233618932283996
65,27.571289930509,-0.123560254089056
66,26.174993896538,-0.1236043245743479
67,25.590656714419,-0.1244148634618609
68,29.455237815991,-0.1232377644886855
69,29.798274042934,-0.1229343040427016
70,29.111582756168,-0.1234138871427008
71,30.910282785061,-0.1241170600013207
72,29.444262682983,-0.1239754827588481
73,33.106702942559,-0.1225628591060078
74,34.590370086495,-0.1223046123528464
75,29.11816840107,-0.1230368973323569
76,24.528985018415,-0.1227117838334589
77,32.750593441878,-0.1221942717479697
78,32.853640078139,-0.1216173889601588
79,37.007109685761,-0.1220339640332516
80,35.204727774378,-0.1198727132819997
81,37.119968458675,-0.1195798534571231
82,39.817241924555,-0.1215324270026751
85,15.865807828801,-0.1298234806668347
86,-1.7241435288804,-0.1280620480156694
87,-1.0741511006726,-0.1287146526275852
88,-4.2859807911022,-0.1283889963648551
89,-0.97316894812676,-0.1284082618027305
90,-3.420828469521,-0.1284613975762834
91,2.7420740121214,-0.1280749583955736
92,0.070642827322271,-0.1284355312962689
93,-0.96763249781649,-0.1285053879424636
94,-3.021583911962,-0.1284050460352931
95,-3.5264345679402,-0.1281364022656842
96,-3.9193891199874,-0.128271803658174
97,-3.2256297726795,-0.1277112117968308
101,51.016198806669,-0.1204556339029462
102,52.115810981017,-0.120679529875442
103,46.450330613371,-0.1222937127591201
104,48.961863408096,-0.1212113776168049
105,46.372931146441,-0.1205556887235036
106,48.469271697069,-0.1212978759041307
107,48.113405226864,-0.1216002514472445
108,48.153445474882,-0.1207385106967271
109,43.454575698572,-0.1207303107894905
110,46.406738916282,-0.1216728106524223
111,39.79186293578,-0.121546001526898
112,45.797653380032,-0.1212237498721354
113,40.667324570577,-0.1210340209721807
114,41.28195771793,-0.1186303500636267
115,41.560890677437,-0.1198409916172787
116,43.31875208833,-0.1210371390311381
117,41.413880768578,-0.1204890570271939
118,43.029067917603,-0.1191616351297171
119,37.704903098382,-0.1214565826779582
120,41.312397181623,-0.1219186655980125
121,42.013654155541,-0.1219405206987425
122,40.837564864108,-0.120274343600265
123,39.692384506434,-0.1217212982956382
124,42.858644159123,-0.1219446596257833
125,41.299136002763,-0.1219158706981645
126,39.30703316221,-0.1208743157934949
127,39.20620002322,-0.1216155109888135
128,37.655188798291,-0.122131985909844
129,37.053568273386,-0.1225599499383055
130,34.665941087407,-0.1222945870023257
131,40.113863667551,-0.1217648304599879
132,35.649715601864,-0.1226192987470288
133,35.418434708967,-0.1230160739239566
134,28.961440817683,-0.1229222632691956
135,27.601709280283,-0.1244322766881674
136,26.427681852177,-0.1245349483263955
137,31.505686018882,-0.1253899462223625
138,24.968455653236,-0.12516645797749
139,22.145408671045,-0.1253955632651084
140,21.422121134705,-0.1251933053263845
141,24.232068025436,-0.1254433912625956
142,16.616415751303,-0.1263986790342374
143,13.057452671784,-0.1265540637048506
144,11.026553230614,-0.1273855511552636
145,8.7456489029444,-0.1273911674697328
146,6.5987923505959,-0.1278459900861555
147,6.244601094026,-0.127760251591325
148,-0.85903431748536,-0.1273467770626385
149,0.91847086590173,-0.1279653015139204
150,-3.7266455440387,-0.1284658370647213
151,-3.2538335294597,-0.1282036432676923
152,-2.2896769247807,-0.1283865642206039
153,-2.0166269795887,-0.1282045480354821
154,-1.942493719177,-0.1281393747022764
155,-9.252916934433,-0.1286816942148621
156,-9.9487901616425,-0.1286615453692026
157,-7.2641079094888,-0.1283708567574734
158,-14.779472117007,-0.1287036063246523
159,-12.536943800016,-0.1289542413110879
160,-15.17502060003,-0.1287670204307698
161,-15.770310297995,-0.1286446865712332
162,-18.666905284154,-0.1290228046746117
163,-22.345117378032,-0.1293597360678401
164,-17.979877728459,-0.1294195021223728
165,-22.161009775609,-0.1283502571969299
166,-24.484885132916,-0.1288616739434142
167,-24.8696367871,-0.1296970980129294
168,-22.359243864913,-0.1291588256879432
169,-26.671702672823,-0.1282437203418112
170,-29.351524347475,-0.1295762260273249
171,-26.591594327989,-0.129812783159658
172,-31.736631803481,-0.1275855415867024
173,-32.688757237388,-0.1287742542039202
174,-30.176535923581,-0.1297952320020892
175,-34.742147128956,-0.1296938014708897
176,-30.339932238061,-0.1285602934833587
177,-30.980600542588,-0.1296240701921423
178,-36.632353139848,-0.129745467430181
179,-32.263520705291,-0.1282617120857354
180,-32.75239102883,-0.128434853856096
181,-34.777807241288,-0.1294617079700691
182,-33.045422868235,-0.1300049186022852
183,-32.91588584256,-0.1293773550716131
184,-30.533505575001,-0.1275859984211235
185,-31.695222021132,-0.1291990486458902
186,-37.085512815409,-0.1307084304647206
187,-33.70077475243,-0.1307303243772303
