TS,yPositionVeloA,yVeloA
2024-04-06 13:51:39,-0.23143395429274,-0.2485199521706598
2024-04-06 13:51:45,-0.26808055038447,-0.2726697764310189
2024-04-06 13:51:51,-0.27093446996887,-0.2841878503339784
2024-04-06 13:51:57,-0.27029870480541,-0.2648801808841299
2024-04-06 13:52:00,-0.27265767125857,-0.2800699989638916
2024-04-06 13:52:06,-0.26907246086248,-0.2597205226669976
2024-04-06 13:52:12,-0.22445293196627,-0.2324497281841945
2024-04-06 13:52:18,-0.22327319276455,-0.2267771443769826
2024-04-06 13:52:21,-0.22446959796454,-0.2114305484359393
2024-04-06 13:52:27,-0.22456617004398,-0.2256042578750994
2024-04-06 13:52:33,-0.22392845325142,-0.2190344205608159
2024-04-06 13:52:39,-0.19999091209125,-0.1915424071573405
2024-04-06 13:52:45,-0.19971382046445,-0.1963324487866579
2024-04-06 13:52:51,-0.19905609906207,-0.1959817208993215
2024-04-06 13:52:57,-0.19940734285158,-0.1939295842053666
2024-04-06 13:53:03,-0.18424463071978,-0.1778236157435181
2024-04-06 13:53:09,-0.17507795266676,-0.1750228318911187
2024-04-06 13:53:12,-0.17498045027,-0.1739545037531913
2024-04-06 13:53:18,-0.16278278232025,-0.1580006027499757
2024-04-06 13:53:24,-0.14988469001096,-0.1532782888927301
2024-04-06 13:53:30,-0.15050955088658,-0.1295800397617072
2024-04-06 13:53:39,-0.15200400119625,-0.1462322155028684
2024-04-06 13:53:45,-0.13572341871018,-0.1212983598070138
2024-04-06 13:53:51,-0.12664119683134,-0.1255918928915966
2024-04-06 13:53:54,-0.12762473661592,-0.1325012489185899
2024-04-06 13:54:00,-0.12766175677085,-0.1177827123020056
2024-04-06 13:54:06,-0.12749936768191,-0.1236435236752389
2024-04-06 13:54:12,-0.098282324892751,-0.0796634224619353
2024-04-06 13:54:18,-0.078560551511071,-0.0801987905602335
2024-04-06 13:54:24,-0.079003613599892,-0.0762472031262579
2024-04-06 13:54:27,-0.07917481480489,-0.0825349190310629
2024-04-06 13:54:33,-0.081158701466489,-0.0787765499691972
2024-04-06 13:54:45,-0.14656561628168,-0.1686836971756363
