TS,zPositionVeloA,1_comp_Az
2024-05-18 14:41:06,1.3906056001993,4.9033840866477485
2024-05-18 14:41:12,5.5748891224156,4.898341099083083
2024-05-18 14:41:21,4.6036022427834,4.916333888563493
2024-05-18 14:41:33,5.6639274049179,4.864364623800771
2024-05-18 14:41:45,1.8485827769941,4.853723920321837
2024-05-18 14:41:48,7.1601968940594,4.861335148584476
2024-05-18 14:41:51,6.0634891762736,4.829885993582256
2024-05-18 14:42:03,7.8637835599326,4.775445085011012
2024-05-18 14:42:15,11.098652757882,4.781601018166736
2024-05-18 14:42:18,8.5736693730405,4.76853182828021
2024-05-18 14:42:21,4.6331883389212,4.766996032191228
2024-05-18 14:42:24,5.9109775365432,4.792099684606486
2024-05-18 14:42:27,4.0620984414063,4.791325915568251
2024-05-18 14:42:33,4.2427595030007,4.790431211893096
2024-05-18 14:42:39,3.8172434929508,4.79349400745319
2024-05-18 14:42:42,5.2755091984526,4.807451039035845
2024-05-18 14:42:45,8.0965526180058,4.776447127875749
2024-05-18 14:42:48,3.4896265097703,4.816459593459889
2024-05-18 14:42:54,9.4958552951175,4.851558205094548
2024-05-18 14:43:09,8.4564119639662,4.824736306280035
2024-05-18 14:43:12,4.8197847968569,4.85008667047272
2024-05-18 14:43:15,4.1852340690815,4.843299550389777
2024-05-18 14:43:39,7.2863276158529,4.880311512970064
2024-05-18 14:43:54,1.6447160248782,4.863252426482255
2024-05-18 14:43:57,2.6519800551284,4.880682567565417
2024-05-18 14:44:00,4.6759366672838,4.909800321621632
2024-05-18 14:44:15,4.827202968179,4.889808449201279
2024-05-18 14:44:18,1.428355434934,4.9055862302803135
2024-05-18 14:44:48,1.6300255385358,4.93917268324588
2024-05-18 14:44:57,1.1927456840706,4.967364114068862
2024-05-18 14:45:09,-1.276922556369,4.981414747483563
2024-05-18 14:45:12,2.8249898052814,4.953375578768145
2024-05-18 14:45:15,2.4523926504755,4.982755287774115
2024-05-18 14:45:24,-0.88833993816406,4.965426966405631
2024-05-18 14:45:27,1.0367341020404,4.94264617640898
2024-05-18 14:45:39,3.3464970342632,4.981309214849377
2024-05-18 14:45:42,4.7579574030519,5.011919743632962
2024-05-18 14:45:48,6.6590558568934,5.053106497462527
2024-05-18 14:45:51,8.1108010624272,5.012417669266583
2024-05-18 14:46:00,3.6380724401391,5.01929026998659
2024-05-18 14:46:03,2.3841617681236,5.035882765754285
2024-05-18 14:46:09,6.2034695963846,5.0249534023707705
2024-05-18 14:46:18,4.6111900355481,5.0231455635520375
2024-05-18 14:46:21,2.8036356111772,5.001965743664038
2024-05-18 14:46:24,3.576649611928,4.991239523700427
2024-05-18 14:46:27,8.6800841492972,5.001487189609539
2024-05-18 14:46:42,-1.8782840973598,4.953514492487938
2024-05-18 14:46:48,1.2055179435753,4.931309272389773
2024-05-18 14:46:51,-0.43602783482446,4.904285980112658
2024-05-18 14:46:54,3.8138111759884,4.916875121586019
2024-05-18 14:47:00,-1.9739518001237,4.879625175030698
2024-05-18 14:47:03,6.8158928373572,4.889367143188439
2024-05-18 14:47:15,5.0698824622107,4.921997412453221
2024-05-18 14:47:21,0.34834305603873,4.891261996566528
2024-05-18 14:47:24,0.29446294568682,4.872322342331189
2024-05-18 14:47:30,5.7185693894706,4.908119633009923
2024-05-18 14:47:33,3.4509972513401,4.898726989282645
2024-05-18 14:47:36,5.1527229621023,4.959987447662102
2024-05-18 14:47:42,5.9411899013018,4.896122041651666
2024-05-18 14:47:51,4.0748399425519,4.93630104173722
2024-05-18 14:48:18,8.0280796603904,4.937911483731553
2024-05-18 14:48:21,7.1338339704098,4.909427933897455
2024-05-18 14:48:30,9.4519265278517,4.932292319413109
2024-05-18 14:48:51,3.6982810828057,4.92856684585005
2024-05-18 14:48:57,6.0097265812928,4.9141058083726525
2024-05-18 14:49:00,7.197978880822,4.909218119085569
2024-05-18 14:49:06,3.0981279098163,4.934830696287867
2024-05-18 14:49:09,1.9340276923927,4.915170685650806
2024-05-18 14:49:27,3.2293685026181,4.898968576686514
2024-05-18 14:49:30,1.6027210723614,4.894158766048152
2024-05-18 14:49:33,1.173107234159,4.915229712065965
2024-05-18 14:49:45,1.4331041447921,4.93570889193956
2024-05-18 14:50:03,4.5927954395712,4.868560452145086
2024-05-18 14:50:06,3.9519124608879,4.889365000836379
2024-05-18 14:50:24,4.7742886667428,4.879189872793774
2024-05-18 14:50:27,1.5278446303151,4.903747573984258
2024-05-18 14:50:30,2.7860908940712,4.869296272754799
2024-05-18 14:50:33,2.3937195515973,4.921820245968491
2024-05-18 14:50:36,3.7215499038764,4.930230967707958
2024-05-18 14:50:39,3.6734216635623,4.905875567058862
2024-05-18 14:50:42,3.2670082982808,4.881825335673045
2024-05-18 14:50:54,2.0637878254572,4.8945752369533375
2024-05-18 14:51:03,0.38388386533461,4.9140574209644425
2024-05-18 14:51:24,-1.1743193881376,4.9153688529559325
2024-05-18 14:51:27,-0.65401099137041,4.892884952255479
2024-05-18 14:51:30,-1.9774092482694,4.905955419639027
2024-05-18 14:51:39,5.0291571404095,4.880870499758196
2024-05-18 14:51:42,4.0994484496404,4.873867640812842
2024-05-18 14:51:57,2.7986179643679,4.894623782812089
2024-05-18 14:52:06,1.2411198399691,4.881768260604962
2024-05-18 14:52:09,5.5392650588435,4.880558845008596
2024-05-18 14:52:12,4.708860474984,4.891895369622833
2024-05-18 14:52:15,2.7883653299902,4.898176903792564
2024-05-18 14:52:18,3.6527083660723,4.897939073907107
2024-05-18 14:52:21,1.5737771941086,4.877531114756625
2024-05-18 14:52:24,-0.87926711855926,4.876278178595049
2024-05-18 14:52:30,2.0382525069069,4.882835521177319
2024-05-18 14:52:33,-0.10907208952517,4.89203689474194
2024-05-18 14:52:42,1.9455145938683,4.890669048913259
2024-05-18 14:53:18,2.5473083913755,4.913930761811956
2024-05-18 14:53:24,0.26058830039828,4.881973923262657
2024-05-18 14:53:27,2.616654999273,4.885828560225204
2024-05-18 14:53:36,0.43208003243919,4.877807820038537
2024-05-18 14:53:39,4.2577078727107,4.91547166325389
2024-05-18 14:53:54,-11.302222285371,4.838251161447142
2024-05-18 14:56:33,-31.363885934074,5.110283853625205
2024-05-18 14:57:18,-28.408252178758,5.0060833000793785
2024-05-18 14:57:45,-20.091737065232,4.969678715313695
2024-05-18 14:57:57,-16.479700587504,4.987729370551884
2024-05-18 14:58:09,-14.066092071309,4.96019146744565
2024-05-18 14:58:39,-5.0407869521129,4.938547391128459
2024-05-18 14:58:45,-1.0994452285521,4.947707310826651
2024-05-18 14:59:00,-0.89595688710691,4.899621685446456
2024-05-18 14:59:09,-0.86455746706845,4.903874876908927
2024-05-18 14:59:15,3.611023228573,4.900375292721639
2024-05-18 14:59:27,3.6924227917926,4.900067686415975
2024-05-18 14:59:30,3.9175988515353,4.923562948404355
2024-05-18 14:59:33,-0.15701056502538,4.885973633615859
2024-05-18 14:59:42,2.3041079395213,4.866803232140799
