TS,xPositionVeloC,1_comp_Cx
2024-05-18 14:41:18,0.50239643405115,10.665600635135108
2024-05-18 14:41:30,0.4936610526993,10.693003271937544
2024-05-18 14:41:42,0.42059100729906,10.77290144619941
2024-05-18 14:41:48,0.32449583538497,10.799120352386414
2024-05-18 14:41:51,0.30018145070342,10.837762123113157
2024-05-18 14:41:54,0.27780650805549,10.878673078983176
2024-05-18 14:42:03,0.19051816538271,10.924215843910217
2024-05-18 14:42:06,0.17344597884597,10.946898366038344
2024-05-18 14:42:09,0.17060717064168,10.92559262239248
2024-05-18 14:42:18,0.15524378197434,10.959404503104794
2024-05-18 14:42:21,0.16027590341504,10.961546785465684
2024-05-18 14:42:30,0.15872481160633,10.911620035495162
2024-05-18 14:42:33,0.15502443334812,10.93003073860063
2024-05-18 14:42:54,0.30884535015838,10.78924851558316
2024-05-18 14:42:57,0.32322878933654,10.80802350577887
2024-05-18 14:43:00,0.32652006515472,10.80276073526776
2024-05-18 14:43:03,0.33324516751084,10.790558353551845
2024-05-18 14:43:18,0.33269450394397,10.792034750423367
2024-05-18 14:43:33,0.41744447991916,10.720597115503155
2024-05-18 14:43:57,0.43136633288349,10.69076699960541
2024-05-18 14:44:00,0.44422923837823,10.675678663053354
2024-05-18 14:44:24,0.55185497881873,10.620816290310232
2024-05-18 14:44:27,0.57466406437103,10.609808885487762
2024-05-18 14:44:57,0.63587157790386,10.564146531932238
2024-05-18 14:45:03,0.68235601834284,10.53603732550062
2024-05-18 14:45:30,0.70352725268213,10.502810336809198
2024-05-18 14:45:33,0.72929339345948,10.51238599630371
2024-05-18 14:45:36,0.75788681026659,10.458842470279547
2024-05-18 14:45:42,0.80718893980222,10.449968376663662
2024-05-18 14:46:24,0.80775450720305,10.457118429028036
2024-05-18 14:46:48,0.56571466938122,10.665051753530609
2024-05-18 14:47:00,0.50658301345472,10.679631680754328
2024-05-18 14:47:24,0.50729654771913,10.661931489376434
2024-05-18 14:48:09,0.50299832699048,10.68746434204946
2024-05-18 14:48:12,0.49716800944955,10.660229694292555
2024-05-18 14:48:39,0.50657230723992,10.684188485001044
2024-05-18 14:49:09,0.51046659717341,10.659650322417455
2024-05-18 14:50:12,0.50652702767959,10.68331924990972
2024-05-18 14:51:54,0.51494585461698,10.66118516535669
