TS,yPositionVeloA,yVeloA
2024-04-06 13:33:03,-0.17669574146355,-0.1781978632865014
2024-04-06 13:33:09,-0.17596662528199,-0.1756875943518869
2024-04-06 13:33:15,-0.17170682015602,-0.1779699709602968
2024-04-06 13:33:21,-0.17477359337246,-0.1737212419895857
2024-04-06 13:33:24,-0.17333356668985,-0.1722469672092703
2024-04-06 13:33:30,-0.17601102341145,-0.1770771697360811
2024-04-06 13:33:36,-0.17325933047805,-0.1803728064003725
2024-04-06 13:33:42,-0.17353937823617,-0.1772427278162452
2024-04-06 13:33:48,-0.17538403549494,-0.2335243171127038
2024-04-06 13:33:57,-0.17293434806543,-0.1867655211850173
2024-04-06 13:34:03,-0.17546894544446,-0.179542768530636
2024-04-06 13:34:09,-0.17589614905557,-0.1722691503950665
2024-04-06 13:34:18,-0.17699273443765,-0.1802079614104179
2024-04-06 13:34:24,-0.17524911359519,-0.1790856288379563
2024-04-06 13:34:30,-0.17353680736037,-0.1791764861370127
2024-04-06 13:34:33,-0.17626454208809,-0.1740979116540657
2024-04-06 13:34:39,-0.17456022831792,-0.1811875823075789
2024-04-06 13:34:45,-0.17471753759905,-0.1840179419786171
2024-04-06 13:34:51,-0.17301174713681,-0.1788947369294811
2024-04-06 13:34:57,-0.17543288420848,-0.177095666752173
2024-04-06 13:35:03,-0.17678711780788,-0.1736538191194608
2024-04-06 13:35:09,-0.17397130612599,-0.1720861367925744
2024-04-06 13:35:15,-0.17526311909375,-0.1799255866255962
2024-04-06 13:35:18,-0.1758061401096,-0.1763976140647922
2024-04-06 13:35:24,-0.17604245155554,-0.177969089775185
2024-04-06 13:35:27,-0.1762582729639,-0.1779160050508165
2024-04-06 13:35:33,-0.17509963366932,-0.1785766460464803
2024-04-06 13:35:39,-0.17559079241572,-0.1795623835230231
2024-04-06 13:35:42,-0.17450493724128,-0.1757771815488935
2024-04-06 13:35:45,-0.17630258529499,-0.1860262914099321
2024-04-06 13:35:48,-0.17484324309689,-0.1778900551137637
2024-04-06 13:35:54,-0.17644524531035,-0.1820245279274655
2024-04-06 13:36:00,-0.17612932284619,-0.183606883462884
2024-04-06 13:36:03,-0.17548740697333,-0.1832034880600839
2024-04-06 13:36:09,-0.17526199227639,-0.1809671391939736
2024-04-06 13:36:15,-0.17543316405823,-0.1769707908052439
2024-04-06 13:36:21,-0.17772374672338,-0.1744821087093722
2024-04-06 13:36:27,-0.17477359111771,-0.1806569093133954
2024-04-06 13:36:33,-0.17578586558992,-0.1777897544947729
2024-04-06 13:36:45,-0.17381646711435,-0.1759494159221873
2024-04-06 13:36:51,-0.17438204505464,-0.1771618668200776
2024-04-06 13:37:00,-0.17415913158486,-0.1769759715061056
2024-04-06 13:37:06,-0.1753043958902,-0.174275502564896
2024-04-06 13:37:12,-0.17532255356961,-0.1828144281321783
2024-04-06 13:37:18,-0.17471362455961,-0.1754289177767101
2024-04-06 13:37:24,-0.17527901877063,-0.181528332399388
2024-04-06 13:37:33,-0.17605030027873,-0.1760525757180085
2024-04-06 13:37:39,-0.17687202617613,-0.1804306472830095
2024-04-06 13:37:45,-0.17561679113495,-0.1814314173459246
2024-04-06 13:37:51,-0.1756458372568,-0.1851647633551364
2024-04-06 13:38:00,-0.17500160805451,-0.1828000470295085
2024-04-06 13:38:06,-0.17426264819593,-0.1811840442285703
2024-04-06 13:38:12,-0.17365130644676,-0.1772176413342849
2024-04-06 13:38:15,-0.17572146994353,-0.1927142720200524
2024-04-06 13:38:21,-0.17306521076937,-0.1723283042912603
2024-04-06 13:38:27,-0.17459027475119,-0.1945374502425856
2024-04-06 13:38:33,-0.17756356112986,-0.1773018556582338
2024-04-06 13:38:39,-0.17459843831675,-0.1843250560048236
2024-04-06 13:38:45,-0.1751851595396,-0.1742013522593226
2024-04-06 13:38:48,-0.17581174924359,-0.1761235886251922
2024-04-06 13:38:54,-0.17702396645966,-0.1813693170950271
2024-04-06 13:39:00,-0.17429707144838,-0.1758448046503618
2024-04-06 13:39:12,-0.17593891718655,-0.1842594464689973
2024-04-06 13:39:18,-0.17357570087137,-0.173514815588868
2024-04-06 13:39:24,-0.17484201497597,-0.1802760637214255
2024-04-06 13:39:30,-0.17457295084539,-0.1795504557402379
2024-04-06 13:39:36,-0.17591334244299,-0.1803070464628695
2024-04-06 13:39:42,-0.17460584660618,-0.1779873669697839
2024-04-06 13:39:48,-0.17591473741015,-0.1823776034556725
2024-04-06 13:39:57,-0.17524641298103,-0.1633224552172204
2024-04-06 13:40:03,-0.17583403167791,-0.1717214967729652
2024-04-06 13:40:06,-0.17259777866695,-0.1750447593095603
2024-04-06 13:40:09,-0.17469546392375,-0.1697250813911247
2024-04-06 13:40:15,-0.17398002304488,-0.1743731051912113
2024-04-06 13:40:24,-0.1782011919847,-0.1700932364221068
2024-04-06 13:40:36,-0.17625116535228,-0.1701345337480345
2024-04-06 13:40:42,-0.17466600932013,-0.1789191226156521
2024-04-06 13:40:48,-0.17421200430711,-0.1736971639437066
2024-04-06 13:40:54,-0.17501544243521,-0.1721645458630727
2024-04-06 13:41:00,-0.17355627187086,-0.1846808733440875
2024-04-06 13:41:09,-0.1759567225724,-0.1813811331126099
2024-04-06 13:41:15,-0.17384084321964,-0.1843280330905813
2024-04-06 13:41:21,-0.17383495454836,-0.1984442352047867
2024-04-06 13:41:27,-0.17409193084922,-0.1810349474296644
2024-04-06 13:41:33,-0.17653273116979,-0.1701323660001204
2024-04-06 13:41:42,-0.17412543925035,-0.1809036555388684
2024-04-06 13:41:45,-0.17501608597317,-0.1842803529776847
2024-04-06 13:41:51,-0.1755986578585,-0.1725439481793926
2024-04-06 13:41:54,-0.17572240056579,-0.1704842172826411
2024-04-06 13:42:00,-0.1771342860289,-0.164785818165224
2024-04-06 13:42:06,-0.17516453124378,-0.1741247338526215
2024-04-06 13:42:12,-0.17496908882467,-0.1746152984615231
2024-04-06 13:42:18,-0.17435736255984,-0.1704780687043545
2024-04-06 13:42:24,-0.17635974665137,-0.178326325778757
2024-04-06 13:42:30,-0.17496010289178,-0.1730149461903067
2024-04-06 13:42:33,-0.17621327553537,-0.1703869557324492
2024-04-06 13:42:39,-0.17571439955269,-0.1786299497556978
2024-04-06 13:42:45,-0.1744754776935,-0.1724557464018012
2024-04-06 13:42:51,-0.17253563323448,-0.1727174213702247
2024-04-06 13:42:57,-0.17582065460046,-0.1816759958785473
2024-04-06 13:43:06,-0.17410673839919,-0.1858513387599913
2024-04-06 13:43:12,-0.17162361431499,-0.1743067127508156
2024-04-06 13:43:18,-0.17223955957773,-0.1720191388615477
2024-04-06 13:43:24,-0.17542293903751,-0.1783368054442159
2024-04-06 13:43:30,-0.17479520565029,-0.1786031883499603
2024-04-06 13:43:39,-0.17439280954581,-0.1815325168232044
2024-04-06 13:43:45,-0.17537489706631,-0.1695273241910222
2024-04-06 13:43:51,-0.17658447382726,-0.1671443390332486
2024-04-06 13:43:57,-0.17353448955594,-0.1796123752351661
2024-04-06 13:44:03,-0.17499228663537,-0.1807642514855751
2024-04-06 13:44:06,-0.17418641548357,-0.1848770283155574
2024-04-06 13:44:12,-0.17433232482451,-0.1837040598029615
2024-04-06 13:44:18,-0.17249853268352,-0.1920116446900757
2024-04-06 13:44:27,-0.17619368531723,-0.1863846242608748
2024-04-06 13:44:39,-0.17504553583806,-0.1837552717802751
2024-04-06 13:44:45,-0.17394504914312,-0.1840016903242895
2024-04-06 13:44:51,-0.17344275054608,-0.1725824508760849
2024-04-06 13:44:57,-0.17414289602595,-0.1754888018220794
2024-04-06 13:45:03,-0.17460967987142,-0.1822520031183254
2024-04-06 13:45:09,-0.17693788233166,-0.1844930415053476
2024-04-06 13:45:15,-0.17253563904926,-0.1773516152760728
2024-04-06 13:45:21,-0.17329520558918,-0.1888782299512584
2024-04-06 13:45:27,-0.17602103398243,-0.1822618823880081
2024-04-06 13:45:36,-0.17413846248572,-0.1814499615320311
2024-04-06 13:45:42,-0.17351830256027,-0.1792671857642672
2024-04-06 13:45:48,-0.17484956551322,-0.1860864323277983
2024-04-06 13:45:54,-0.1751437227738,-0.1806253857634303
2024-04-06 13:46:00,-0.17463772298758,-0.1897733753874525
2024-04-06 13:46:06,-0.17451643532898,-0.1810743070329324
2024-04-06 13:46:09,-0.17438244372898,-0.1722927790087194
2024-04-06 13:46:15,-0.17483679818323,-0.1713410774926094
2024-04-06 13:46:21,-0.17478816981441,-0.1717764206443799
2024-04-06 13:46:24,-0.17338609109408,-0.1759082325689969
2024-04-06 13:46:30,-0.1751551388957,-0.1751599191346486
2024-04-06 13:46:36,-0.17555242127288,-0.1834885749147764
2024-04-06 13:46:42,-0.17320166134318,-0.1901037327474934
2024-04-06 13:46:48,-0.17777916100464,-0.1860013448395952
2024-04-06 13:46:54,-0.17444602688096,-0.170229258352465
2024-04-06 13:47:00,-0.17302618299161,-0.1880390371469736
2024-04-06 13:47:06,-0.17501174791557,-0.1854127351000155
2024-04-06 13:47:09,-0.17339865095587,-0.1730126341784505
2024-04-06 13:47:15,-0.17284067357883,-0.1400861880571511
2024-04-06 13:47:21,-0.1736780187523,-0.1776732973348133
2024-04-06 13:47:27,-0.17464665773787,-0.1581975891901169
2024-04-06 13:47:33,-0.17561346095171,-0.1708368460050146
2024-04-06 13:47:39,-0.17369324180136,-0.1682435008957324
2024-04-06 13:47:45,-0.1750507569156,-0.1792939800749347
2024-04-06 13:47:51,-0.17387784514321,-0.1724908589057377
2024-04-06 13:47:57,-0.17423610717576,-0.1856316967196644