TS,xPositionVeloA,1_comp_Ax
2024-05-18 14:41:06,-0.49928710101342,10.073606560435088
2024-05-18 14:41:12,-0.49859221936939,10.061224417835891
2024-05-18 14:41:21,-0.50197925622508,10.078458324865151
2024-05-18 14:41:33,-0.53021599646616,10.02903037435966
2024-05-18 14:41:45,-0.62346837806205,9.966933271635236
2024-05-18 14:41:48,-0.68173674171808,9.952486046384724
2024-05-18 14:41:51,-0.70338642832199,9.914074285449017
2024-05-18 14:42:03,-0.81865117540195,9.828674452176037
2024-05-18 14:42:09,-0.83981027199702,9.828767927417156
2024-05-18 14:42:15,-0.84352224694358,9.823460342165935
2024-05-18 14:42:18,-0.85135360249641,9.793661464551503
2024-05-18 14:42:21,-0.846709300823,9.792733997893343
2024-05-18 14:42:24,-0.8452928198384,9.81178892926228
2024-05-18 14:42:27,-0.84831755352502,9.822301159139467
2024-05-18 14:42:33,-0.84629502989125,9.82596448312151
2024-05-18 14:42:39,-0.82588084237503,9.852766850412111
2024-05-18 14:42:42,-0.81416215116399,9.869563890009909
2024-05-18 14:42:45,-0.79582250521712,9.867512049316206
2024-05-18 14:42:48,-0.7644664330867,9.89952837014306
2024-05-18 14:42:54,-0.69980955861508,9.963411560261097
2024-05-18 14:43:09,-0.67870612779634,9.953183728397478
2024-05-18 14:43:12,-0.68125929116415,9.943606172354196
2024-05-18 14:43:15,-0.67534437559057,9.964707239191448
2024-05-18 14:43:39,-0.58877734097544,10.039765387489114
2024-05-18 14:43:54,-0.58346419006767,9.993637603918184
2024-05-18 14:43:57,-0.57456011206506,10.06190694531647
2024-05-18 14:44:00,-0.55663310550134,10.074910637044624
2024-05-18 14:44:15,-0.49935136920493,10.062614647301292
2024-05-18 14:44:18,-0.4977288806273,10.076934261088276
2024-05-18 14:44:48,-0.41325539830021,10.148072566578293
2024-05-18 14:44:57,-0.3640892490162,10.18717881423914
2024-05-18 14:45:09,-0.31410221625162,10.240854370917848
2024-05-18 14:45:12,-0.31661442149318,10.219189346367733
2024-05-18 14:45:15,-0.31853750931492,10.225161907952147
2024-05-18 14:45:24,-0.31549142901752,10.252253368442071
2024-05-18 14:45:27,-0.3150941991739,10.216823117744562
2024-05-18 14:45:39,-0.21681641353567,10.294326430187208
2024-05-18 14:45:42,-0.20709630872479,10.300643486837473
2024-05-18 14:45:48,-0.15259301443417,10.341307761445956
2024-05-18 14:45:51,-0.15891331091571,10.337934288631311
2024-05-18 14:46:00,-0.15895391967651,10.352289985109568
2024-05-18 14:46:03,-0.15484881822591,10.33925818807221
2024-05-18 14:46:09,-0.15941059979515,10.352691449523256
2024-05-18 14:46:18,-0.16781808790871,10.325831696388546
2024-05-18 14:46:21,-0.18768199609354,10.305238933188413
2024-05-18 14:46:24,-0.19601476157836,10.294015244710508
2024-05-18 14:46:27,-0.21825121781418,10.259201979749468
2024-05-18 14:46:42,-0.3556448007337,10.16303642129276
2024-05-18 14:46:48,-0.43061310506112,10.087441630949362
2024-05-18 14:46:51,-0.45397953065049,10.112110093308829
2024-05-18 14:46:54,-0.47709252952873,10.078592569627691
2024-05-18 14:47:00,-0.49619222918679,10.071559239635162
2024-05-18 14:47:03,-0.49890194054956,10.065866583685985
2024-05-18 14:47:15,-0.50106150005178,10.100176497678266
2024-05-18 14:47:21,-0.50317035149842,10.058207192701085
2024-05-18 14:47:24,-0.50148710861901,10.090537532271837
2024-05-18 14:47:30,-0.49480996864484,10.08395921560827
2024-05-18 14:47:33,-0.49839255271838,10.092355938677512
2024-05-18 14:47:36,-0.49476337858832,10.092217068785729
2024-05-18 14:47:42,-0.49463287443332,10.08553097181134
2024-05-18 14:47:51,-0.50088458686694,10.063654124826432
2024-05-18 14:48:18,-0.5000385720973,10.083862639981916
2024-05-18 14:48:21,-0.50463717567944,10.090886199022131
2024-05-18 14:48:30,-0.50214149466511,10.090415212288006
2024-05-18 14:48:51,-0.50173543288388,10.094665946037344
2024-05-18 14:48:57,-0.49468502010842,10.1062418037977
2024-05-18 14:49:00,-0.49573929529831,10.064541300450864
2024-05-18 14:49:06,-0.5037777268222,10.090858652028318
2024-05-18 14:49:09,-0.50679748944728,10.090072897618784
2024-05-18 14:49:27,-0.50162445985426,10.07602678804355
2024-05-18 14:49:30,-0.4987676014101,10.088813382463243
2024-05-18 14:49:33,-0.49827514504247,10.088453525873792
2024-05-18 14:49:45,-0.49816956173941,10.06659394920445
2024-05-18 14:50:03,-0.50003033340054,10.075412274581067
2024-05-18 14:50:06,-0.50346389397474,10.075649676465138
2024-05-18 14:50:24,-0.49905326950601,10.055689526587116
2024-05-18 14:50:27,-0.49546733817539,10.090337888445593
2024-05-18 14:50:30,-0.4974417777363,10.062188161381496
2024-05-18 14:50:33,-0.49495356952811,10.0945003581376
2024-05-18 14:50:36,-0.49736118909643,10.093707438064603
2024-05-18 14:50:39,-0.49377111490603,10.095698595106066
2024-05-18 14:50:42,-0.49761034653425,10.075839665500348
2024-05-18 14:50:54,-0.49830456521096,10.054541488338437
2024-05-18 14:51:03,-0.48884548186149,10.088113956284968
2024-05-18 14:51:24,-0.49830314324885,10.109650512323675
2024-05-18 14:51:27,-0.4897396814718,10.069652289254964
2024-05-18 14:51:30,-0.49215155674609,10.069655089510825
2024-05-18 14:51:39,-0.49031390611078,10.082346498858453
2024-05-18 14:51:42,-0.49709188529356,10.071013862943468
2024-05-18 14:51:57,-0.48914336203263,10.078905105877068
