TS,VeloBeamPositionx,1_comp_x
2024-10-28 15:05:00,-0.20331449069388,-0.0065791938221170295
2024-10-28 15:05:00,-0.20331449069388,-0.005303306233359408
2024-10-28 15:05:00,-0.20331449069388,-0.005303306233359408
2024-10-28 15:05:07,-0.20511901379958,-0.0029785027381560875
2024-10-28 15:05:07,-0.20511901379958,-0.0029785027381560875
2024-10-28 15:05:07,-0.20511901379958,-0.006483500922524274
2024-10-28 15:05:07,-0.20511901379958,-0.006483500922524274
2024-10-28 15:05:07,-0.20511901379958,-0.006483500922524274
2024-10-28 15:05:07,-0.20511901379958,-0.006483500922524274
2024-10-28 15:05:07,-0.20511901379958,-0.006483500922524274
2024-10-28 15:05:16,-0.18890827475888,0.0037049087842654944
2024-10-28 15:05:16,-0.18890827475888,0.0037049087842654944
2024-10-28 15:05:16,-0.18890827475888,0.0032415503079841045
2024-10-28 15:05:16,-0.18890827475888,0.0032415503079841045
2024-10-28 15:05:16,-0.18890827475888,0.0032415503079841045
2024-10-28 15:05:16,-0.18890827475888,0.0032415503079841045
2024-10-28 15:05:16,-0.1896935003934,0.0037049087842654944
2024-10-28 15:05:16,-0.1896935003934,0.0037049087842654944
2024-10-28 15:05:16,-0.1896935003934,0.0032415503079841045
2024-10-28 15:05:16,-0.1896935003934,0.0032415503079841045
2024-10-28 15:05:16,-0.1896935003934,0.0032415503079841045
2024-10-28 15:05:16,-0.1896935003934,0.0032415503079841045
2024-10-28 15:05:16,-0.18934081270605,0.0037049087842654944
2024-10-28 15:05:16,-0.18934081270605,0.0037049087842654944
2024-10-28 15:05:16,-0.18934081270605,0.0032415503079841045
2024-10-28 15:05:16,-0.18934081270605,0.0032415503079841045
2024-10-28 15:05:16,-0.18934081270605,0.0032415503079841045
2024-10-28 15:05:16,-0.18934081270605,0.0032415503079841045
2024-10-28 15:05:22,-0.18389781554341,0.00282336398851021
2024-10-28 15:05:22,-0.18389781554341,0.00282336398851021
2024-10-28 15:05:22,-0.18389781554341,0.004504389761799236
2024-10-28 15:05:22,-0.18389781554341,0.004504389761799236
2024-10-28 15:05:22,-0.18389781554341,0.004504389761799236
2024-10-28 15:05:22,-0.18216813888877,0.00282336398851021
2024-10-28 15:05:22,-0.18216813888877,0.00282336398851021
2024-10-28 15:05:22,-0.18216813888877,0.004504389761799236
2024-10-28 15:05:22,-0.18216813888877,0.004504389761799236
2024-10-28 15:05:22,-0.18216813888877,0.004504389761799236
2024-10-28 15:05:39,-0.17925048617651,0.012486215002114031
2024-10-28 15:05:39,-0.17925048617651,0.009529400852067384
2024-10-28 15:05:39,-0.17925048617651,0.009529400852067384
2024-10-28 15:05:39,-0.17925048617651,0.009529400852067384
2024-10-28 15:05:39,-0.17703882798837,0.012486215002114031
2024-10-28 15:05:39,-0.17703882798837,0.009529400852067384
2024-10-28 15:05:39,-0.17703882798837,0.009529400852067384
2024-10-28 15:05:39,-0.17703882798837,0.009529400852067384
2024-10-28 15:05:49,-0.16015298444163,0.007176104833487669
2024-10-28 15:05:49,-0.16015298444163,0.007176104833487669
2024-10-28 15:05:49,-0.16015298444163,0.0136966153560948
2024-10-28 15:05:49,-0.16015298444163,0.0136966153560948
2024-10-28 15:05:49,-0.16015298444163,0.0136966153560948
2024-10-28 15:05:49,-0.15861392465716,0.007176104833487669
2024-10-28 15:05:49,-0.15861392465716,0.007176104833487669
2024-10-28 15:05:49,-0.15861392465716,0.0136966153560948
2024-10-28 15:05:49,-0.15861392465716,0.0136966153560948
2024-10-28 15:05:49,-0.15861392465716,0.0136966153560948
2024-10-28 15:05:51,-0.15784584619477,0.0136966153560948
2024-10-28 15:05:51,-0.15784584619477,0.0136966153560948
2024-10-28 15:05:51,-0.15784584619477,0.008446779922284752
2024-10-28 15:05:51,-0.15784584619477,0.008446779922284752
2024-10-28 15:05:51,-0.15784584619477,0.008446779922284752
2024-10-28 15:05:51,-0.15708534184113,0.0136966153560948
2024-10-28 15:05:51,-0.15708534184113,0.0136966153560948
2024-10-28 15:05:51,-0.15708534184113,0.008446779922284752
2024-10-28 15:05:51,-0.15708534184113,0.008446779922284752
2024-10-28 15:05:51,-0.15708534184113,0.008446779922284752
2024-10-28 15:06:16,-0.13622083452989,0.014545578325600836
2024-10-28 15:06:16,-0.13622083452989,0.014545578325600836
2024-10-28 15:06:16,-0.13622083452989,0.012467866219893065
2024-10-28 15:06:16,-0.13622083452989,0.012467866219893065
2024-10-28 15:06:16,-0.13622083452989,0.012467866219893065
2024-10-28 15:06:16,-0.13622083452989,0.012467866219893065
2024-10-28 15:06:16,-0.13453589947949,0.014545578325600836
2024-10-28 15:06:16,-0.13453589947949,0.014545578325600836
2024-10-28 15:06:16,-0.13453589947949,0.012467866219893065
2024-10-28 15:06:16,-0.13453589947949,0.012467866219893065
2024-10-28 15:06:16,-0.13453589947949,0.012467866219893065
2024-10-28 15:06:16,-0.13453589947949,0.012467866219893065
2024-10-28 15:06:34,-0.12453106945769,0.021446848105193213
2024-10-28 15:06:34,-0.12453106945769,0.021446848105193213
2024-10-28 15:06:34,-0.12453106945769,0.021487286966995138
2024-10-28 15:06:34,-0.12453106945769,0.021487286966995138
2024-10-28 15:07:02,-0.087723397550526,0.025824721222032034
2024-10-28 15:07:02,-0.087723397550526,0.028203605213568912
2024-10-28 15:07:02,-0.087723397550526,0.028203605213568912
2024-10-28 15:07:02,-0.087723397550526,0.028203605213568912
2024-10-28 15:07:02,-0.087723397550526,0.028203605213568912
2024-10-28 15:07:02,-0.087723397550526,0.028203605213568912
2024-10-28 15:07:02,-0.087723397550526,0.028203605213568912
2024-10-28 15:07:02,-0.087723397550526,0.028203605213568912
2024-10-28 15:07:02,-0.087723397550526,0.028203605213568912
2024-10-28 15:07:02,-0.087723397550526,0.028203605213568912
2024-10-28 15:07:02,-0.086805916012223,0.025824721222032034
2024-10-28 15:07:02,-0.086805916012223,0.028203605213568912
2024-10-28 15:07:02,-0.086805916012223,0.028203605213568912
2024-10-28 15:07:02,-0.086805916012223,0.028203605213568912
2024-10-28 15:07:02,-0.086805916012223,0.028203605213568912
2024-10-28 15:07:02,-0.086805916012223,0.028203605213568912
2024-10-28 15:07:02,-0.086805916012223,0.028203605213568912
2024-10-28 15:07:02,-0.086805916012223,0.028203605213568912
2024-10-28 15:07:02,-0.086805916012223,0.028203605213568912
2024-10-28 15:07:02,-0.086805916012223,0.028203605213568912
2024-10-28 15:07:19,-0.085289452154329,0.0319911128359241
2024-10-28 15:07:19,-0.085289452154329,0.033931835767137694
2024-10-28 15:07:19,-0.085289452154329,0.033931835767137694
2024-10-28 15:07:19,-0.085289452154329,0.033931835767137694
2024-10-28 15:07:19,-0.085289452154329,0.033931835767137694
2024-10-28 15:07:19,-0.080707325093362,0.0319911128359241
2024-10-28 15:07:19,-0.080707325093362,0.033931835767137694
2024-10-28 15:07:19,-0.080707325093362,0.033931835767137694
2024-10-28 15:07:19,-0.080707325093362,0.033931835767137694
2024-10-28 15:07:19,-0.080707325093362,0.033931835767137694
2024-10-28 15:07:19,-0.076146658090778,0.0319911128359241
2024-10-28 15:07:19,-0.076146658090778,0.033931835767137694
2024-10-28 15:07:19,-0.076146658090778,0.033931835767137694
2024-10-28 15:07:19,-0.076146658090778,0.033931835767137694
2024-10-28 15:07:19,-0.076146658090778,0.033931835767137694
2024-10-28 15:07:27,-0.073718519786957,0.0323203185083223
2024-10-28 15:07:27,-0.073718519786957,0.0339839589288666
2024-10-28 15:07:28,-0.069217611263395,0.0339839589288666
2024-10-28 15:07:28,-0.069217611263395,0.0339839589288666
2024-10-28 15:07:28,-0.066204052607193,0.0339839589288666
2024-10-28 15:07:28,-0.066204052607193,0.0339839589288666
2024-10-28 15:07:36,-0.064632514982947,0.037103469092515565
2024-10-28 15:07:36,-0.064632514982947,0.03528459469470039
2024-10-28 15:07:36,-0.064632514982947,0.03528459469470039
2024-10-28 15:07:36,-0.064632514982947,0.03528459469470039
2024-10-28 15:07:36,-0.064632514982947,0.03528459469470039
2024-10-28 15:07:36,-0.063913390991244,0.037103469092515565
2024-10-28 15:07:36,-0.063913390991244,0.03528459469470039
2024-10-28 15:07:36,-0.063913390991244,0.03528459469470039
2024-10-28 15:07:36,-0.063913390991244,0.03528459469470039
2024-10-28 15:07:36,-0.063913390991244,0.03528459469470039
2024-10-28 15:07:45,-0.064282117473605,0.04502160737734487
2024-10-28 15:07:45,-0.064282117473605,0.04502160737734487
2024-10-28 15:07:45,-0.064282117473605,0.04144834768298916
2024-10-28 15:07:45,-0.064282117473605,0.04144834768298916
2024-10-28 15:07:45,-0.064282117473605,0.04144834768298916
2024-10-28 15:07:45,-0.064282117473605,0.04144834768298916
2024-10-28 15:07:45,-0.062161737059298,0.04502160737734487
2024-10-28 15:07:45,-0.062161737059298,0.04502160737734487
2024-10-28 15:07:45,-0.062161737059298,0.04144834768298916
2024-10-28 15:07:45,-0.062161737059298,0.04144834768298916
2024-10-28 15:07:45,-0.062161737059298,0.04144834768298916
2024-10-28 15:07:45,-0.062161737059298,0.04144834768298916
2024-10-28 15:07:45,-0.057212187777572,0.04502160737734487
2024-10-28 15:07:45,-0.057212187777572,0.04502160737734487
2024-10-28 15:07:45,-0.057212187777572,0.04144834768298916
2024-10-28 15:07:45,-0.057212187777572,0.04144834768298916
2024-10-28 15:07:45,-0.057212187777572,0.04144834768298916
2024-10-28 15:07:45,-0.057212187777572,0.04144834768298916
2024-10-28 15:08:13,-0.027759219858511,0.04958421970141552
2024-10-28 15:08:13,-0.027759219858511,0.04958421970141552
2024-10-28 15:08:13,-0.027759219858511,0.04803237657504799
2024-10-28 15:08:13,-0.027759219858511,0.04803237657504799
2024-10-28 15:08:13,-0.027759219858511,0.04803237657504799
2024-10-28 15:08:13,-0.027759219858511,0.04803237657504799
2024-10-28 15:08:13,-0.019026680027415,0.04958421970141552
2024-10-28 15:08:13,-0.019026680027415,0.04958421970141552
2024-10-28 15:08:13,-0.019026680027415,0.04803237657504799
2024-10-28 15:08:13,-0.019026680027415,0.04803237657504799
2024-10-28 15:08:13,-0.019026680027415,0.04803237657504799
2024-10-28 15:08:13,-0.019026680027415,0.04803237657504799
2024-10-28 15:08:22,-0.018303448537318,0.04878897403201856
2024-10-28 15:08:22,-0.018303448537318,0.04878897403201856
2024-10-28 15:08:22,-0.018303448537318,0.050114350834882825
2024-10-28 15:08:22,-0.018303448537318,0.050114350834882825
2024-10-28 15:08:22,-0.018303448537318,0.050114350834882825
2024-10-28 15:08:22,-0.018214274921368,0.04878897403201856
2024-10-28 15:08:22,-0.018214274921368,0.04878897403201856
2024-10-28 15:08:22,-0.018214274921368,0.050114350834882825
2024-10-28 15:08:22,-0.018214274921368,0.050114350834882825
2024-10-28 15:08:22,-0.018214274921368,0.050114350834882825
2024-10-28 15:08:39,-0.012800484601949,0.053766063793976214
2024-10-28 15:08:39,-0.012800484601949,0.053766063793976214
2024-10-28 15:08:39,-0.012800484601949,0.053766063793976214
2024-10-28 15:08:39,-0.012800484601949,0.05169991449473236
2024-10-28 15:08:39,-0.012800484601949,0.05169991449473236
2024-10-28 15:08:49,0.0028419627017872,0.05578223543739976
2024-10-28 15:08:49,0.0028419627017872,0.05221600063869865
2024-10-28 15:08:49,0.0028419627017872,0.05221600063869865
2024-10-28 15:08:49,0.0028419627017872,0.05221600063869865
2024-10-28 15:08:49,0.0028419627017872,0.05221600063869865
2024-10-28 15:08:49,0.0042450232621253,0.05578223543739976
2024-10-28 15:08:49,0.0042450232621253,0.05221600063869865
2024-10-28 15:08:49,0.0042450232621253,0.05221600063869865
2024-10-28 15:08:49,0.0042450232621253,0.05221600063869865
2024-10-28 15:08:49,0.0042450232621253,0.05221600063869865
2024-10-28 15:08:57,0.0035929738688673,0.05381535679241994
2024-10-28 15:08:57,0.0035929738688673,0.05381535679241994
2024-10-28 15:08:57,0.0035929738688673,0.06202786436673797
2024-10-28 15:08:57,0.0035929738688673,0.06202786436673797
2024-10-28 15:08:57,0.0035929738688673,0.06202786436673797
2024-10-28 15:09:01,0.017235546735537,0.06202786436673797
2024-10-28 15:09:01,0.017235546735537,0.06113665320756636
2024-10-28 15:09:01,0.017235546735537,0.06113665320756636
2024-10-28 15:09:01,0.017235546735537,0.06113665320756636
2024-10-28 15:09:16,0.028267946087783,0.06177703114842945
2024-10-28 15:09:16,0.028267946087783,0.06177703114842945
2024-10-28 15:09:16,0.028267946087783,0.06177703114842945
2024-10-28 15:09:16,0.028267946087783,0.05656020907876435
2024-10-28 15:09:16,0.028267946087783,0.05656020907876435
2024-10-28 15:09:16,0.028267946087783,0.05656020907876435
2024-10-28 15:09:16,0.027490659457446,0.06177703114842945
2024-10-28 15:09:16,0.027490659457446,0.06177703114842945
2024-10-28 15:09:16,0.027490659457446,0.06177703114842945
2024-10-28 15:09:16,0.027490659457446,0.05656020907876435
2024-10-28 15:09:16,0.027490659457446,0.05656020907876435
2024-10-28 15:09:16,0.027490659457446,0.05656020907876435
2024-10-28 15:09:16,0.02683158248565,0.06177703114842945
2024-10-28 15:09:16,0.02683158248565,0.06177703114842945
2024-10-28 15:09:16,0.02683158248565,0.06177703114842945
2024-10-28 15:09:16,0.02683158248565,0.05656020907876435
2024-10-28 15:09:16,0.02683158248565,0.05656020907876435
2024-10-28 15:09:16,0.02683158248565,0.05656020907876435
2024-10-28 15:09:34,0.045046064425692,0.06880914052730186
2024-10-28 15:09:34,0.045046064425692,0.06880914052730186
2024-10-28 15:09:34,0.045046064425692,0.06375959469318312
2024-10-28 15:09:34,0.045046064425692,0.06375959469318312
2024-10-28 15:09:34,0.045046064425692,0.06375959469318312
2024-10-28 15:09:34,0.045046064425692,0.06375959469318312
2024-10-28 15:09:43,0.050534839727383,0.06966145801992171
2024-10-28 15:09:52,0.056909779159775,0.0748005269291433
2024-10-28 15:09:52,0.056909779159775,0.07110252982186197
2024-10-28 15:09:52,0.056909779159775,0.07110252982186197
2024-10-28 15:09:52,0.056909779159775,0.07110252982186197
2024-10-28 15:09:52,0.064284133881982,0.0748005269291433
2024-10-28 15:09:52,0.064284133881982,0.07110252982186197
2024-10-28 15:09:52,0.064284133881982,0.07110252982186197
2024-10-28 15:09:52,0.064284133881982,0.07110252982186197
2024-10-28 15:10:18,0.076165309482415,0.07722769436920575
2024-10-28 15:10:18,0.076165309482415,0.07722769436920575
2024-10-28 15:10:18,0.076165309482415,0.07982950897449782
2024-10-28 15:10:18,0.076165309482415,0.07982950897449782
2024-10-28 15:10:18,0.076165309482415,0.07982950897449782
2024-10-28 15:10:46,0.10531050543507,0.08454137483865133
2024-10-28 15:10:46,0.10531050543507,0.08469834897858905
2024-10-28 15:10:46,0.10531050543507,0.08469834897858905
2024-10-28 15:10:46,0.10531050543507,0.08469834897858905
2024-10-28 15:10:55,0.12027003500561,0.08709681255919112
2024-10-28 15:10:55,0.12027003500561,0.08709681255919112
2024-10-28 15:10:55,0.12027003500561,0.08709681255919112
2024-10-28 15:10:55,0.12027003500561,0.08731758303220633
2024-10-28 15:10:55,0.12027003500561,0.08731758303220633
2024-10-28 15:10:55,0.12027003500561,0.08731758303220633
2024-10-28 15:10:55,0.12167982194359,0.08709681255919112
2024-10-28 15:10:55,0.12167982194359,0.08709681255919112
2024-10-28 15:10:55,0.12167982194359,0.08709681255919112
2024-10-28 15:10:55,0.12167982194359,0.08731758303220633
2024-10-28 15:10:55,0.12167982194359,0.08731758303220633
2024-10-28 15:10:55,0.12167982194359,0.08731758303220633
2024-10-28 15:11:12,0.13059093966912,0.09435337429724414
2024-10-28 15:11:12,0.13059093966912,0.09435337429724414
2024-10-28 15:11:12,0.13480641933165,0.09435337429724414
2024-10-28 15:11:12,0.13480641933165,0.09435337429724414
2024-10-28 15:11:13,0.137005681168,0.09195903818267658
2024-10-28 15:11:13,0.137005681168,0.09195903818267658
2024-10-28 15:11:13,0.137005681168,0.09195903818267658
2024-10-28 15:11:13,0.137005681168,0.09195903818267658
2024-10-28 15:11:21,0.14284716136524,0.09104469012746312
2024-10-28 15:11:22,0.14127176271037,0.0953479243222172
2024-10-28 15:11:22,0.14127176271037,0.0953479243222172
2024-10-28 15:11:22,0.14127176271037,0.0953479243222172
2024-10-28 15:11:22,0.14127176271037,0.0953479243222172
2024-10-28 15:11:22,0.14127176271037,0.0953479243222172
2024-10-28 15:11:30,0.14274460957582,0.09510950195055265
2024-10-28 15:11:30,0.14274460957582,0.0946802544332981
2024-10-28 15:11:30,0.14274460957582,0.0946802544332981
2024-10-28 15:11:30,0.14274460957582,0.0946802544332981
2024-10-28 15:11:30,0.14274460957582,0.0946802544332981
2024-10-28 15:11:30,0.14274460957582,0.0946802544332981
2024-10-28 15:11:39,0.16177504101447,0.09991997844047575
2024-10-28 15:11:39,0.16177504101447,0.09997405448755378
2024-10-28 15:11:39,0.16177504101447,0.09997405448755378
2024-10-28 15:11:39,0.16177504101447,0.09997405448755378
2024-10-28 15:11:39,0.16177504101447,0.09997405448755378
2024-10-28 15:12:06,0.18700080877483,0.10771337801510504
2024-10-28 15:12:06,0.18700080877483,0.10771337801510504
2024-10-28 15:12:06,0.18700080877483,0.10771337801510504
2024-10-28 15:12:06,0.18700080877483,0.1027482594606697
2024-10-28 15:12:06,0.18700080877483,0.1027482594606697
2024-10-28 15:12:06,0.18700080877483,0.1027482594606697
2024-10-28 15:12:06,0.18700080877483,0.1027482594606697
2024-10-28 15:12:24,0.19807545289099,0.11118094022793384
2024-10-28 15:12:24,0.19807545289099,0.1117961020505836
2024-10-28 15:12:24,0.19807545289099,0.1117961020505836
2024-10-28 15:12:24,0.19807545289099,0.1117961020505836
2024-10-28 15:12:24,0.19807545289099,0.1117961020505836
2024-10-28 15:12:24,0.19807545289099,0.1117961020505836
2024-10-28 15:12:33,0.21374054322307,0.10898162896031316
2024-10-28 15:12:33,0.21374054322307,0.11413004460840996
2024-10-28 15:12:33,0.21374054322307,0.11413004460840996
2024-10-28 15:12:33,0.21374054322307,0.11413004460840996
2024-10-28 15:12:52,0.22665192051073,0.11570614914362025
2024-10-28 15:12:52,0.22665192051073,0.11570614914362025
2024-10-28 15:12:52,0.22665192051073,0.1199316902329514
2024-10-28 15:12:52,0.22665192051073,0.1199316902329514
2024-10-28 15:12:52,0.22665192051073,0.1199316902329514
2024-10-28 15:12:52,0.22665192051073,0.1199316902329514
2024-10-28 15:12:52,0.22665192051073,0.1199316902329514
2024-10-28 15:13:01,0.23441638941256,0.11663436087645666
2024-10-28 15:13:01,0.23441638941256,0.11814838208536783
2024-10-28 15:13:01,0.23441638941256,0.11814838208536783
2024-10-28 15:13:01,0.23441638941256,0.11814838208536783
2024-10-28 15:13:01,0.23441638941256,0.11814838208536783
2024-10-28 15:13:01,0.23441638941256,0.11814838208536783
2024-10-28 15:13:01,0.23441638941256,0.11814838208536783
2024-10-28 15:13:01,0.23441638941256,0.11814838208536783
2024-10-28 15:13:01,0.23441638941256,0.11814838208536783
2024-10-28 15:13:01,0.23441638941256,0.11814838208536783
2024-10-28 15:13:28,0.26103879379446,0.12533504128943304
2024-10-28 15:13:28,0.26103879379446,0.12533504128943304
2024-10-28 15:13:28,0.26103879379446,0.12210276711176267
2024-10-28 15:13:28,0.26103879379446,0.12210276711176267
2024-10-28 15:13:28,0.26103879379446,0.12210276711176267
2024-10-28 15:13:28,0.26103879379446,0.12210276711176267
2024-10-28 15:13:28,0.26103879379446,0.12210276711176267
2024-10-28 15:13:37,0.26883176295512,0.12492750485567967
2024-10-28 15:13:37,0.26883176295512,0.12492750485567967
2024-10-28 15:13:37,0.26883176295512,0.12492750485567967
2024-10-28 15:13:37,0.26883176295512,0.12492750485567967
2024-10-28 15:13:37,0.27176124989879,0.12492750485567967
2024-10-28 15:13:37,0.27176124989879,0.12492750485567967
2024-10-28 15:13:37,0.27176124989879,0.12492750485567967
2024-10-28 15:13:37,0.27176124989879,0.12492750485567967
2024-10-28 15:13:55,0.28467175631868,0.12469597870988754
2024-10-28 15:14:06,0.29675327515613,0.1354686554855828
2024-10-28 15:14:06,0.29675327515613,0.1354686554855828
2024-10-28 15:14:06,0.29675327515613,0.1373699948369553
2024-10-28 15:14:06,0.29675327515613,0.1373699948369553
2024-10-28 15:14:06,0.29675327515613,0.1373699948369553