TS,Nominal_Displacement_B1_sepPlane,Nominal_Displacement_B2_sepPlane,Nominal_Displacement_B1_xingPlane,Nominal_Displacement_B2_xingPlane,y_pos,x_pos,1_comp_x,1_comp_decouple_x
2022-11-10 10:08:06,0.0,0.0,-0.403756157097888,-0.403750219376356,0.0,-0.40375318823712203,-6.366414359900948,-0.38031660882162943
2022-11-10 10:08:09,0.0,0.0,-0.403756157097888,-0.403750219376356,0.0,-0.40375318823712203,-3.4702275862381495,-0.20165757894100342
2022-11-10 10:08:12,0.0,0.0,-0.403756157097888,-0.403750219376356,0.0,-0.40375318823712203,0.6146983832272296,0.037297052932942165
2022-11-10 10:08:15,0.0,0.0,-0.403756157097888,-0.403750219376356,0.0,-0.40375318823712203,-6.751575642197454,-0.39193410232404785
2022-11-10 10:08:18,0.0,0.0,-0.403756157097888,-0.403750219376356,0.0,-0.40375318823712203,-4.030755133052529,-0.24065158828617475
2022-11-10 10:08:21,0.0,0.0,-0.403756157097888,-0.403750219376356,0.0,-0.40375318823712203,-5.8683541525535805,-0.3440118839857505
2022-11-10 10:08:24,0.0,0.0,-0.403756157097888,-0.403750219376356,0.0,-0.40375318823712203,-3.5456046462178645,-0.20470106612798636
2022-11-10 10:08:27,0.0,0.0,-0.403756157097888,-0.403750219376356,0.0,-0.40375318823712203,-1.7739662955309488,-0.11061771979391666
2022-11-10 10:08:30,0.0,0.0,-0.403756157097888,-0.403750219376356,0.0,-0.40375318823712203,-5.36255863287048,-0.3221929009956459
2022-11-10 10:08:33,0.0,0.0,-0.403756157097888,-0.403750219376356,0.0,-0.40375318823712203,-5.921661015984125,-0.3374391271679845
2022-11-10 10:08:36,0.0,0.0,-0.403756157097888,-0.403750219376356,0.0,-0.40375318823712203,-0.41823958353658425,-0.022848751333082826
2022-11-10 10:09:12,0.0,0.0,-0.323006113222617,-0.323000175501085,0.0,-0.323003144361851,-5.466033032785624,-0.30927979024572816
2022-11-10 10:09:15,0.0,0.0,-0.323006113222617,-0.323000175501085,0.0,-0.323003144361851,0.11967023481823022,0.006906224544855426
2022-11-10 10:09:18,0.0,0.0,-0.323006113222617,-0.323000175501085,0.0,-0.323003144361851,-1.1666534305519078,-0.06822842609914699
2022-11-10 10:09:21,0.0,0.0,-0.323006113222617,-0.323000175501085,0.0,-0.323003144361851,-4.958824135462101,-0.27939755759706725
2022-11-10 10:09:24,0.0,0.0,-0.323006113222617,-0.323000175501085,0.0,-0.323003144361851,-5.498869172742631,-0.31468552110043757
2022-11-10 10:09:27,0.0,0.0,-0.323006113222617,-0.323000175501085,0.0,-0.323003144361851,-0.2992978356370045,-0.017536052314122454
2022-11-10 10:09:30,0.0,0.0,-0.323006113222617,-0.323000175501085,0.0,-0.323003144361851,-8.281720811111965,-0.49680157544219655
2022-11-10 10:09:33,0.0,0.0,-0.323006113222617,-0.323000175501085,0.0,-0.323003144361851,-5.275413641824572,-0.319581399858618
2022-11-10 10:09:36,0.0,0.0,-0.323006113222617,-0.323000175501085,0.0,-0.323003144361851,-7.746791766424317,-0.4376340092234373
2022-11-10 10:09:39,0.0,0.0,-0.323006113222617,-0.323000175501085,0.0,-0.323003144361851,4.993435848285733,0.28901352425852617
2022-11-10 10:09:42,0.0,0.0,-0.323006113222617,-0.323000175501085,0.0,-0.323003144361851,-1.692274675391646,-0.10098508721687513
2022-11-10 10:10:18,0.0,0.0,-0.242262007068879,-0.242250131625813,0.0,-0.242256069347346,-0.507963232015712,-0.032989138828101644
2022-11-10 10:10:21,0.0,0.0,-0.242262007068879,-0.242250131625813,0.0,-0.242256069347346,0.9689039113732996,0.050584967668470315
2022-11-10 10:10:24,0.0,0.0,-0.242262007068879,-0.242250131625813,0.0,-0.242256069347346,-1.9050984481355548,-0.11139350421533685
2022-11-10 10:10:27,0.0,0.0,-0.242262007068879,-0.242250131625813,0.0,-0.242256069347346,-4.669034378894689,-0.26182530305566426
2022-11-10 10:10:30,0.0,0.0,-0.242262007068879,-0.242250131625813,0.0,-0.242256069347346,-2.4945157137089997,-0.14570497217792536
2022-11-10 10:10:33,0.0,0.0,-0.242262007068879,-0.242250131625813,0.0,-0.242256069347346,-0.7119899765591352,-0.04327033850661339
2022-11-10 10:10:36,0.0,0.0,-0.242262007068879,-0.242250131625813,0.0,-0.242256069347346,-4.680781489228708,-0.285716563595014
2022-11-10 10:10:39,0.0,0.0,-0.242262007068879,-0.242250131625813,0.0,-0.242256069347346,-8.308808079736256,-0.4748403457183532
2022-11-10 10:10:42,0.0,0.0,-0.242262007068879,-0.242250131625813,0.0,-0.242256069347346,-3.525032147477408,-0.20390797278922593
2022-11-10 10:10:45,0.0,0.0,-0.242262007068879,-0.242250131625813,0.0,-0.242256069347346,-3.796561609989174,-0.2228490441843122
2022-11-10 10:10:48,0.0,0.0,-0.242262007068879,-0.242250131625813,0.0,-0.242256069347346,0.9149150903609996,0.05625047472066551
2022-11-10 10:11:24,0.0,0.0,-0.16151790091514,-0.161500087750542,0.0,-0.161508994332841,3.4505773508912148,0.21659521479929855
2022-11-10 10:11:27,0.0,0.0,-0.16151790091514,-0.161500087750542,0.0,-0.161508994332841,-9.372824618123717,-0.5687587304448398
2022-11-10 10:11:30,0.0,0.0,-0.16151790091514,-0.161500087750542,0.0,-0.161508994332841,-5.971034963053205,-0.32399243774862224
2022-11-10 10:11:33,0.0,0.0,-0.16151790091514,-0.161500087750542,0.0,-0.161508994332841,0.12736898328649693,0.007352221415244707
2022-11-10 10:11:36,0.0,0.0,-0.16151790091514,-0.161500087750542,0.0,-0.161508994332841,-3.1350413139695563,-0.1867782171430128
2022-11-10 10:11:39,0.0,0.0,-0.16151790091514,-0.161500087750542,0.0,-0.161508994332841,0.8622314323759592,0.0518023311776449
2022-11-10 10:11:42,0.0,0.0,-0.16151790091514,-0.161500087750542,0.0,-0.161508994332841,0.19242296414726956,0.011358667571142688
2022-11-10 10:11:45,0.0,0.0,-0.16151790091514,-0.161500087750542,0.0,-0.161508994332841,-10.079536779604183,-0.5710579045810181
2022-11-10 10:11:48,0.0,0.0,-0.16151790091514,-0.161500087750542,0.0,-0.161508994332841,-1.1302444230669446,-0.06451716230264969
2022-11-10 10:11:51,0.0,0.0,-0.16151790091514,-0.161500087750542,0.0,-0.161508994332841,-0.16021016793003812,-0.00889211723507098
2022-11-10 10:11:54,0.0,0.0,-0.16151790091514,-0.161500087750542,0.0,-0.161508994332841,1.1909319338256323,0.07306971639785723
2022-11-10 10:12:30,0.0,0.0,-0.080767857039869,-0.080750043875271,0.0,-0.08075895045757,-1.4632447503736956,-0.08804643141313298
2022-11-10 10:12:33,0.0,0.0,-0.080767857039869,-0.080750043875271,0.0,-0.08075895045757,0.8019860202415687,0.04643954670263915
2022-11-10 10:12:36,0.0,0.0,-0.080767857039869,-0.080750043875271,0.0,-0.08075895045757,0.3406006194536817,0.01931668393781917
2022-11-10 10:12:39,0.0,0.0,-0.080767857039869,-0.080750043875271,0.0,-0.08075895045757,-2.5482368484915123,-0.14782490552617025
2022-11-10 10:12:42,0.0,0.0,-0.080767857039869,-0.080750043875271,0.0,-0.08075895045757,-1.6493134504436104,-0.10251336984121287
2022-11-10 10:12:45,0.0,0.0,-0.080767857039869,-0.080750043875271,0.0,-0.08075895045757,-1.75854870174576,-0.0954037319975787
2022-11-10 10:12:48,0.0,0.0,-0.080767857039869,-0.080750043875271,0.0,-0.08075895045757,0.688058022306543,0.039862866551631244
2022-11-10 10:12:51,0.0,0.0,-0.080767857039869,-0.080750043875271,0.0,-0.08075895045757,-1.0230559034124858,-0.0606585597639711
2022-11-10 10:12:54,0.0,0.0,-0.080767857039869,-0.080750043875271,0.0,-0.08075895045757,-0.494443642319397,-0.02911820573792421
2022-11-10 10:12:57,0.0,0.0,-0.080767857039869,-0.080750043875271,0.0,-0.08075895045757,1.244833463335818,0.07256183357131636
2022-11-10 10:13:00,0.0,0.0,-0.080767857039869,-0.080750043875271,0.0,-0.08075895045757,0.7530944154007958,0.04246724741312601
2022-11-10 10:13:36,0.0,0.0,-1.78131645982293e-05,-5.9377215327755e-06,0.0,-1.18754430655024e-05,-4.469608844515764,-0.26747718556536343
2022-11-10 10:13:39,0.0,0.0,-1.78131645982293e-05,-5.9377215327755e-06,0.0,-1.18754430655024e-05,-3.3007850120949667,-0.18911219597664045
2022-11-10 10:13:42,0.0,0.0,-1.78131645982293e-05,-5.9377215327755e-06,0.0,-1.18754430655024e-05,2.8719024313317143,0.16472913796843355
2022-11-10 10:13:45,0.0,0.0,-1.78131645982293e-05,-5.9377215327755e-06,0.0,-1.18754430655024e-05,1.091210389816586,0.06264585118506313
2022-11-10 10:13:48,0.0,0.0,-1.78131645982293e-05,-5.9377215327755e-06,0.0,-1.18754430655024e-05,4.161208238318295,0.24969390431082586
2022-11-10 10:13:51,0.0,0.0,-1.78131645982293e-05,-5.9377215327755e-06,0.0,-1.18754430655024e-05,5.632124345813761,0.3286429119754424
2022-11-10 10:13:54,0.0,0.0,-1.78131645982293e-05,-5.9377215327755e-06,0.0,-1.18754430655024e-05,6.012897161664808,0.34692197625166304
2022-11-10 10:13:57,0.0,0.0,-1.78131645982293e-05,-5.9377215327755e-06,0.0,-1.18754430655024e-05,0.8345636030892474,0.05028347058819132
2022-11-10 10:14:00,0.0,0.0,-1.78131645982293e-05,-5.9377215327755e-06,0.0,-1.18754430655024e-05,-7.329104568852112,-0.4113722362188247
2022-11-10 10:14:03,0.0,0.0,-1.78131645982293e-05,-5.9377215327755e-06,0.0,-1.18754430655024e-05,-3.426365911625318,-0.2123130364558041
2022-11-10 10:14:06,0.0,0.0,-1.78131645982293e-05,-5.9377215327755e-06,0.0,-1.18754430655024e-05,-3.4756545139255706,-0.20883554732377788
2022-11-10 10:14:42,0.0,0.0,0.08072629298914,0.080744106153738,0.0,0.080735199571439,-2.4085266852014433,-0.13861650826668329
2022-11-10 10:14:45,0.0,0.0,0.08072629298914,0.080744106153738,0.0,0.080735199571439,-3.0821657881126843,-0.1811552386328394
2022-11-10 10:14:48,0.0,0.0,0.08072629298914,0.080744106153738,0.0,0.080735199571439,-6.136702084858152,-0.36353487784063926
2022-11-10 10:14:51,0.0,0.0,0.08072629298914,0.080744106153738,0.0,0.080735199571439,2.7875985085596517,0.15924033327304526
2022-11-10 10:14:54,0.0,0.0,0.08072629298914,0.080744106153738,0.0,0.080735199571439,3.0427539696563173,0.1764034134064069
2022-11-10 10:14:57,0.0,0.0,0.08072629298914,0.080744106153738,0.0,0.080735199571439,1.2735550644682931,0.07250328023256934
2022-11-10 10:15:00,0.0,0.0,0.08072629298914,0.080744106153738,0.0,0.080735199571439,-6.505192321095059,-0.3688968701555004
2022-11-10 10:15:03,0.0,0.0,0.08072629298914,0.080744106153738,0.0,0.080735199571439,-3.5382903917833293,-0.21953857578070018
2022-11-10 10:15:06,0.0,0.0,0.08072629298914,0.080744106153738,0.0,0.080735199571439,7.051286873207137,0.42010613214510445
2022-11-10 10:15:09,0.0,0.0,0.08072629298914,0.080744106153738,0.0,0.080735199571439,7.611244816211746,0.439707076979789
2022-11-10 10:15:12,0.0,0.0,0.08072629298914,0.080744106153738,0.0,0.080735199571439,-1.8624570353352836,-0.1106810535028048
2022-11-10 10:15:48,0.0,0.0,0.161470399142879,0.161488212307477,0.0,0.161479305725178,-2.952294696536976,-0.18176330249425418
2022-11-10 10:15:51,0.0,0.0,0.161470399142879,0.161488212307477,0.0,0.161479305725178,-4.703313488627934,-0.2942869530574111
2022-11-10 10:15:54,0.0,0.0,0.161470399142879,0.161488212307477,0.0,0.161479305725178,4.93008409464332,0.28231734593278185
2022-11-10 10:15:57,0.0,0.0,0.161470399142879,0.161488212307477,0.0,0.161479305725178,0.8009435406311882,0.042886088397918326
2022-11-10 10:16:00,0.0,0.0,0.161470399142879,0.161488212307477,0.0,0.161479305725178,6.204399930620968,0.37506381592245697
2022-11-10 10:16:03,0.0,0.0,0.161470399142879,0.161488212307477,0.0,0.161479305725178,0.3693481452622256,0.022214493687475273
2022-11-10 10:16:06,0.0,0.0,0.161470399142879,0.161488212307477,0.0,0.161479305725178,-9.566276282609763,-0.6041264554525311
2022-11-10 10:16:09,0.0,0.0,0.161470399142879,0.161488212307477,0.0,0.161479305725178,7.325795735942646,0.3895880798029946
2022-11-10 10:16:12,0.0,0.0,0.161470399142879,0.161488212307477,0.0,0.161479305725178,2.3934743895510064,0.1322057105607093
2022-11-10 10:16:15,0.0,0.0,0.161470399142879,0.161488212307477,0.0,0.161479305725178,-1.501397745785474,-0.08699910811082073
2022-11-10 10:16:18,0.0,0.0,0.161470399142879,0.161488212307477,0.0,0.161479305725178,2.7932531620453234,0.16965004937474484
2022-11-10 10:16:57,0.0,0.0,0.24222044301815,0.242232318461215,0.0,0.2422263807396825,7.07331470297883,0.42787908085727816
2022-11-10 10:17:00,0.0,0.0,0.24222044301815,0.242232318461215,0.0,0.2422263807396825,0.6362346529740821,0.03687110307005307
2022-11-10 10:17:03,0.0,0.0,0.24222044301815,0.242232318461215,0.0,0.2422263807396825,-7.443803059267673,-0.43152218458752406
2022-11-10 10:17:06,0.0,0.0,0.24222044301815,0.242232318461215,0.0,0.2422263807396825,0.16042480097400927,0.009391703777004084
2022-11-10 10:17:09,0.0,0.0,0.24222044301815,0.242232318461215,0.0,0.2422263807396825,9.431240434685838,0.543764755888612
2022-11-10 10:17:12,0.0,0.0,0.24222044301815,0.242232318461215,0.0,0.2422263807396825,13.4479430170297,0.869233102045111
2022-11-10 10:17:15,0.0,0.0,0.24222044301815,0.242232318461215,0.0,0.2422263807396825,3.128714578541336,0.18192759827959948
2022-11-10 10:17:18,0.0,0.0,0.24222044301815,0.242232318461215,0.0,0.2422263807396825,0.1296105020289207,0.007080876519235868
2022-11-10 10:17:21,0.0,0.0,0.24222044301815,0.242232318461215,0.0,0.2422263807396825,-1.047347980065688,-0.05892258773093525
2022-11-10 10:17:24,0.0,0.0,0.24222044301815,0.242232318461215,0.0,0.2422263807396825,-1.9151760640876858,-0.11343340752479811
2022-11-10 10:17:27,0.0,0.0,0.24222044301815,0.242232318461215,0.0,0.2422263807396825,5.112399786692855,0.29793749582659185
2022-11-10 10:18:03,0.0,0.0,0.322964549171888,0.322976424614954,0.0,0.322970486893421,2.048851525246386,0.1193216258894769
2022-11-10 10:18:06,0.0,0.0,0.322964549171888,0.322976424614954,0.0,0.322970486893421,-5.7967063847341205,-0.3489076165436864
2022-11-10 10:18:09,0.0,0.0,0.322964549171888,0.322976424614954,0.0,0.322970486893421,-0.1315931625509117,-0.007662662882234097
2022-11-10 10:18:12,0.0,0.0,0.322964549171888,0.322976424614954,0.0,0.322970486893421,6.735525082664901,0.39313553335476104
2022-11-10 10:18:15,0.0,0.0,0.322964549171888,0.322976424614954,0.0,0.322970486893421,6.724689207694308,0.3950850977135892
2022-11-10 10:18:18,0.0,0.0,0.322964549171888,0.322976424614954,0.0,0.322970486893421,3.2762966716976214,0.18654227929222955
2022-11-10 10:18:21,0.0,0.0,0.322964549171888,0.322976424614954,0.0,0.322970486893421,-2.4583213190706896,-0.13909327706104457
2022-11-10 10:18:24,0.0,0.0,0.322964549171888,0.322976424614954,0.0,0.322970486893421,2.1731712723819534,0.12170308753101099
2022-11-10 10:18:27,0.0,0.0,0.322964549171888,0.322976424614954,0.0,0.322970486893421,6.069567369207323,0.34824742182418345
2022-11-10 10:18:30,0.0,0.0,0.322964549171888,0.322976424614954,0.0,0.322970486893421,7.6926402702437215,0.4616347987207465
2022-11-10 10:18:33,0.0,0.0,0.322964549171888,0.322976424614954,0.0,0.322970486893421,0.12267333894051925,0.007174716679226219
2022-11-10 10:19:12,0.0,0.0,0.403714593047159,0.403726468490225,0.0,0.40372053076869197,4.704384360731351,0.2806939983091245
2022-11-10 10:19:15,0.0,0.0,0.403714593047159,0.403726468490225,0.0,0.40372053076869197,4.317693005590168,0.24538153437482244
2022-11-10 10:19:18,0.0,0.0,0.403714593047159,0.403726468490225,0.0,0.40372053076869197,1.7593302460073603,0.10295962326593026
2022-11-10 10:19:21,0.0,0.0,0.403714593047159,0.403726468490225,0.0,0.40372053076869197,2.3113720238897604,0.13307262601433664
2022-11-10 10:19:24,0.0,0.0,0.403714593047159,0.403726468490225,0.0,0.40372053076869197,3.789769752735713,0.21923189902999507
2022-11-10 10:19:27,0.0,0.0,0.403714593047159,0.403726468490225,0.0,0.40372053076869197,5.9443657083946855,0.34624378653383125
2022-11-10 10:19:30,0.0,0.0,0.403714593047159,0.403726468490225,0.0,0.40372053076869197,3.174989651381759,0.18528069299886815
2022-11-10 10:19:33,0.0,0.0,0.403714593047159,0.403726468490225,0.0,0.40372053076869197,-1.100774552132147,-0.0625470889394585
2022-11-10 10:19:36,0.0,0.0,0.403714593047159,0.403726468490225,0.0,0.40372053076869197,8.551598947620207,0.5155613425597175
2022-11-10 10:19:39,0.0,0.0,0.403714593047159,0.403726468490225,0.0,0.40372053076869197,7.250694885018883,0.42413950274800644
2022-11-10 10:19:42,0.0,0.0,0.403714593047159,0.403726468490225,0.0,0.40372053076869197,1.9052692326326357,0.1097258573587227
