TS,1_comp_x,1_comp_y,1_comp_decouple_x,1_comp_decouple_y,y_pos,x_pos
2022-11-10 10:07:33,-0.015862813930024564,0.0013297327187594713,-0.00101629732687853,8.519319545066858e-05,0.0,-0.44412821017475745
2022-11-10 10:07:36,-0.01864155122740313,0.0003117568556905558,-0.001210892531990605,2.0250677840459693e-05,0.0,-0.44412821017475745
2022-11-10 10:07:39,-0.012625742493744123,0.0013144292140433247,-0.000851238419437566,8.861994826674133e-05,0.0,-0.44412821017475745
2022-11-10 10:07:42,-0.010514001800641423,0.0008986961272021669,-0.000767057313801733,6.556508647484345e-05,0.0,-0.44412821017475745
2022-11-10 10:07:45,-0.01360684154943817,0.0012081122096641072,-0.0009271914280415103,8.232265223659485e-05,0.0,-0.44412821017475745
2022-11-10 10:07:48,-0.016760314606183588,0.0009749075296514923,-0.001139891507819573,6.630477052913393e-05,0.0,-0.44412821017475745
2022-11-10 10:07:51,-0.01515473126841026,0.0011552478016149475,-0.0010732106882053577,8.181103750769199e-05,0.0,-0.44412821017475745
2022-11-10 10:07:54,-0.011925622252550597,0.0006100690904022494,-0.0008150662432916488,4.169566259372049e-05,0.0,-0.44412821017475745
2022-11-10 10:07:57,-0.017142633088565045,0.0009011528728630931,-0.0011415438796815677,6.000860785852796e-05,0.0,-0.44412821017475745
2022-11-10 10:08:00,-0.010754443763177638,0.0010086170408034364,-0.0007515014393823752,7.048036836127481e-05,0.0,-0.44412821017475745
2022-11-10 10:08:03,-0.01929264708296507,0.0012596628259766928,-0.00122520755079911,7.999671580632022e-05,0.0,-0.44412821017475745
2022-11-10 10:08:06,-0.01945756311663067,0.0008718304714516635,-0.001162355134635774,5.2081374165381504e-05,0.0,-0.40375318823712203
2022-11-10 10:08:09,-0.015964962586124665,0.0011908797233138205,-0.0009277361853063953,6.920293146356091e-05,0.0,-0.40375318823712203
2022-11-10 10:08:12,-0.011784338291332314,0.0012691141308324245,-0.0007150191069707842,7.700397171551409e-05,0.0,-0.40375318823712203
2022-11-10 10:08:15,-0.020393512346483948,0.00111085623914628,-0.001183858906178543,6.448604977180703e-05,0.0,-0.40375318823712203
2022-11-10 10:08:18,-0.01666124262855489,0.001067456746769397,-0.000994740282907382,6.373127442805162e-05,0.0,-0.40375318823712203
2022-11-10 10:08:21,-0.020412788210381987,0.0015858970266510544,-0.0011966288242164008,9.29677060659723e-05,0.0,-0.40375318823712203
2022-11-10 10:08:24,-0.01634936760358792,0.0011784956354990526,-0.000943910365906928,6.803897701092182e-05,0.0,-0.40375318823712203
2022-11-10 10:08:27,-0.015018892604489777,0.0009726479374301812,-0.0009365204163820558,6.0650586920300206e-05,0.0,-0.40375318823712203
2022-11-10 10:08:30,-0.01762992629459344,0.001409123114545986,-0.0010592400915445004,8.466284384336289e-05,0.0,-0.40375318823712203
2022-11-10 10:08:33,-0.01901524340010896,0.0015088240046497326,-0.001083562047624772,8.597862218131292e-05,0.0,-0.40375318823712203
2022-11-10 10:08:36,-0.014930773957906455,0.0010105664367888688,-0.0008156797080036124,5.520802460757205e-05,0.0,-0.40375318823712203
2022-11-10 10:08:39,-0.01602855466649521,0.0011005894038809368,-0.0009567959319664678,6.569771799823402e-05,0.0,-0.3633781662994865
2022-11-10 10:08:42,-0.0192218948487185,0.0010709758547945277,-0.001218150215408858,6.787101263862217e-05,0.0,-0.3633781662994865
2022-11-10 10:08:45,-0.02093860540726538,0.0006960228874816086,-0.0013595709059255696,4.519367213204907e-05,0.0,-0.3633781662994865
2022-11-10 10:08:48,-0.010148298215550397,0.0013767614674593072,-0.0006909244755428352,9.373376448420769e-05,0.0,-0.3633781662994865
2022-11-10 10:08:51,-0.008339681811899317,0.0005160876826030269,-0.0005875037902533541,3.6356719173593435e-05,0.0,-0.3633781662994865
2022-11-10 10:08:54,-0.010009735151264536,0.001531300876935455,-0.0007155168239116482,0.00010946059244929787,0.0,-0.3633781662994865
2022-11-10 10:08:57,-0.022408106299760446,0.000566145591038883,-0.00131405118464539,3.3199783802987485e-05,0.0,-0.3633781662994865
2022-11-10 10:09:00,-0.015773361786483038,0.001176041815176923,-0.0010610805286669531,7.911281614371753e-05,0.0,-0.3633781662994865
2022-11-10 10:09:03,-0.01269145244304682,0.001271244203452137,-0.0008288982008080642,8.302690631807536e-05,0.0,-0.3633781662994865
2022-11-10 10:09:06,-0.01657515941512123,0.0012785219559263887,-0.0011190708633807365,8.631933082734138e-05,0.0,-0.3633781662994865
2022-11-10 10:09:09,-0.01094987903029882,0.001212191901633047,-0.0007056775921006688,7.812110617307843e-05,0.0,-0.3633781662994865
2022-11-10 10:09:12,-0.018218412420482374,0.0011656697711025972,-0.0010308365753043086,6.595607822711388e-05,0.0,-0.323003144361851
2022-11-10 10:09:15,-0.011785913248316123,0.0012564357670212325,-0.0006801704992280829,7.25094886495069e-05,0.0,-0.323003144361851
2022-11-10 10:09:18,-0.014237870393614094,0.0015317449316475426,-0.0008326615792835578,8.957976990837591e-05,0.0,-0.323003144361851
2022-11-10 10:09:21,-0.018154737885146145,0.001528813426646786,-0.0010229016567961215,8.613871469489214e-05,0.0,-0.323003144361851
2022-11-10 10:09:24,-0.019404606627547907,0.0010379778556211454,-0.0011104735458351154,5.9400686236719604e-05,0.0,-0.323003144361851
2022-11-10 10:09:27,-0.012392071111273627,0.0013010557677331875,-0.0007260594010815907,7.622969260035332e-05,0.0,-0.323003144361851
2022-11-10 10:09:30,-0.022203865407093182,0.0014869172226838067,-0.0013319593314893804,8.919677874075387e-05,0.0,-0.323003144361851
2022-11-10 10:09:33,-0.018306902107023255,0.0011430578261668353,-0.0011090211687009412,6.924575872298844e-05,0.0,-0.323003144361851
2022-11-10 10:09:36,-0.021090172144875,0.0012759375032281852,-0.0011914321269066836,7.208063181412074e-05,0.0,-0.323003144361851
2022-11-10 10:09:39,-0.006107523619553937,0.001580915316010873,-0.0003534954647280507,9.150130709928749e-05,0.0,-0.323003144361851
2022-11-10 10:09:42,-0.015601471972142546,0.0015510405698605989,-0.0009310048957943683,9.255705914764379e-05,0.0,-0.323003144361851
2022-11-10 10:09:45,-0.01851960849362541,0.0009205140315001125,-0.001169942094664192,5.815177543044257e-05,0.0,-0.282631091284982
2022-11-10 10:09:48,-0.011584681907400245,0.0011214908572799091,-0.0007746210883581454,7.498958326123149e-05,0.0,-0.282631091284982
2022-11-10 10:09:51,-0.010467756609534142,0.0010508408834971855,-0.0007197273223252239,7.225224310053586e-05,0.0,-0.282631091284982
2022-11-10 10:09:54,-0.010666126121254775,0.0011958063017826741,-0.0007794459416463354,8.738565045300337e-05,0.0,-0.282631091284982
2022-11-10 10:09:57,-0.008787807722557116,0.0011053180306068418,-0.000626794732620984,7.88373552685984e-05,0.0,-0.282631091284982
2022-11-10 10:10:00,-0.015120006708772636,0.0013643802170409448,-0.0009908768556215564,8.941350393379098e-05,0.0,-0.282631091284982
2022-11-10 10:10:03,-0.024587583658300348,0.001007119734086491,-0.0016089475538400289,6.590329717232948e-05,0.0,-0.282631091284982
2022-11-10 10:10:06,-0.012392602077454127,0.0011024254272611407,-0.0008485500056244541,7.548560799873266e-05,0.0,-0.282631091284982
2022-11-10 10:10:09,-0.010088665249690707,0.001215514415762669,-0.0006983050275693587,8.41340064917037e-05,0.0,-0.282631091284982
2022-11-10 10:10:12,-0.012551407519159015,0.0010092677340980604,-0.0008561795995068671,6.884601930550488e-05,0.0,-0.282631091284982
2022-11-10 10:10:15,-0.012889321803942075,0.0011985163297891003,-0.0008973726769863228,8.344238926098744e-05,0.0,-0.282631091284982
2022-11-10 10:10:18,-0.01100520170633105,0.00130945536616433,-0.0007147212712241865,8.504120404970883e-05,0.0,-0.242256069347346
2022-11-10 10:10:21,-0.010890456425836097,0.001084804598430583,-0.0005685738077112121,5.6635962445894997e-05,0.0,-0.242256069347346
2022-11-10 10:10:24,-0.015308712012400786,0.0016119448146608207,-0.000895119660484552,9.425244227275448e-05,0.0,-0.242256069347346
2022-11-10 10:10:27,-0.01715834519890361,0.0011577818354187013,-0.000962188017279101,6.492489781208397e-05,0.0,-0.242256069347346
2022-11-10 10:10:30,-0.01601702578182331,0.0013865633762656679,-0.0009355564621574182,8.098933875278339e-05,0.0,-0.242256069347346
2022-11-10 10:10:33,-0.012533663243369903,0.0013387293450445497,-0.0007617183796455723,8.135967336051854e-05,0.0,-0.242256069347346
2022-11-10 10:10:36,-0.018106876904964597,0.000828988195929691,-0.0011052501935049479,5.060173373760504e-05,0.0,-0.242256069347346
2022-11-10 10:10:39,-0.02146041493832468,0.0016281049617079845,-0.0012264419578333634,9.304462390563793e-05,0.0,-0.242256069347346
2022-11-10 10:10:42,-0.016441574393443587,0.0012194359411919894,-0.0009510744764213006,7.053913278286604e-05,0.0,-0.242256069347346
2022-11-10 10:10:45,-0.017149029661161923,0.001645627545757848,-0.0010066068356755185,9.659438284647188e-05,0.0,-0.242256069347346
2022-11-10 10:10:48,-0.010331362219988819,0.0010465883903878273,-0.0006351890306631807,6.434596435962557e-05,0.0,-0.242256069347346
2022-11-10 10:10:51,-0.007151034818948321,0.0013328505848152566,-0.00042550032329081544,7.93071728911886e-05,0.0,-0.2018810474097105
2022-11-10 10:10:54,-0.017174250149386876,0.0011328758174717277,-0.0010442035291676015,6.887945129615113e-05,0.0,-0.2018810474097105
2022-11-10 10:10:57,-0.018304173801072902,0.0011280724071105796,-0.0011704135493671274,7.213170309123826e-05,0.0,-0.2018810474097105
2022-11-10 10:11:00,-0.005665831399010857,0.0010539964121759685,-0.00040259030957693747,7.489258186274021e-05,0.0,-0.2018810474097105
2022-11-10 10:11:03,-0.017392422490405287,0.002076959684156998,-0.0011034725763291256,0.00013177394091437133,0.0,-0.2018810474097105
2022-11-10 10:11:06,-0.017562463557875656,0.0005084100101742201,-0.0012425603272227515,3.597047228161281e-05,0.0,-0.2018810474097105
2022-11-10 10:11:09,-0.006733051422044321,0.0014007082657929311,-0.0004215760984544016,8.770245298178977e-05,0.0,-0.2018810474097105
2022-11-10 10:11:12,-0.01659417398651706,0.001141110062667437,-0.001073472821649873,7.381811470579749e-05,0.0,-0.2018810474097105
2022-11-10 10:11:15,-0.013903703820132118,0.0006943382379871136,-0.0009170459598589668,4.579643555120162e-05,0.0,-0.2018810474097105
2022-11-10 10:11:18,-0.010430456207465123,0.001136409987664495,-0.0006762051215785113,7.367331194216837e-05,0.0,-0.2018810474097105
2022-11-10 10:11:21,-0.009311153355752652,0.0012959236663771297,-0.0005802009815790417,8.075220700977735e-05,0.0,-0.2018810474097105
2022-11-10 10:11:24,-0.007124848808098558,0.0012602576539088746,-0.0004472318690679558,7.910727669395708e-05,0.0,-0.161508994332841
2022-11-10 10:11:27,-0.023929319429736064,0.0007511566541719837,-0.001452071269204034,4.5581446618124675e-05,0.0,-0.161508994332841
2022-11-10 10:11:30,-0.01897212255771669,0.001466421539496024,-0.0010294403356829725,7.956903489733776e-05,0.0,-0.161508994332841
2022-11-10 10:11:33,-0.011952185601882652,0.0012790432990396497,-0.00068992554288888,7.383123655051975e-05,0.0,-0.161508994332841
2022-11-10 10:11:36,-0.015448427179495261,0.001600628780170627,-0.0009203801153727974,9.536161087763203e-05,0.0,-0.161508994332841
2022-11-10 10:11:39,-0.01206960003666179,0.0013388067787659338,-0.0007251341053039321,8.04346832327828e-05,0.0,-0.161508994332841
2022-11-10 10:11:42,-0.010675881553469612,0.0013043239131638094,-0.0006301939590845681,7.699383387203642e-05,0.0,-0.161508994332841
2022-11-10 10:11:45,-0.023995190026103654,0.0010996101245909717,-0.0013594516529824292,6.229860234010191e-05,0.0,-0.161508994332841
2022-11-10 10:11:48,-0.013324603430490047,0.0019534183495956495,-0.0007606014987542664,0.00011150597705570088,0.0,-0.161508994332841
2022-11-10 10:11:51,-0.011956241116149726,0.0011754788945722897,-0.000663605182300329,6.524240173353368e-05,0.0,-0.161508994332841
2022-11-10 10:11:54,-0.010300026464674058,0.0018612737527719469,-0.0006319588813497637,0.00011419858800573076,0.0,-0.161508994332841
2022-11-10 10:11:57,-0.015693511652966643,0.0007650550404441396,-0.001013529371724346,4.940932097433484e-05,0.0,-0.1211339723952055
2022-11-10 10:12:00,-0.014740728343981989,0.00040359072983050864,-0.0010176553343955507,2.7862684227017084e-05,0.0,-0.1211339723952055
2022-11-10 10:12:03,-0.009786393646890674,0.0013024112134501261,-0.000703181450280889,9.358211400242717e-05,0.0,-0.1211339723952055
2022-11-10 10:12:06,-0.013605811411639577,0.0007065936455754585,-0.0009660716851042163,5.0171216784692666e-05,0.0,-0.1211339723952055
2022-11-10 10:12:09,-0.005172161912313325,0.0013316353583521837,-0.0003382117435654518,8.707668552863625e-05,0.0,-0.1211339723952055
2022-11-10 10:12:12,-0.01096758722997927,0.0014723705946333293,-0.0007381506307392566,9.909483830132988e-05,0.0,-0.1211339723952055
2022-11-10 10:12:15,-0.010302566798666235,0.0010159385908866012,-0.0007320449600035023,7.21871296411179e-05,0.0,-0.1211339723952055
2022-11-10 10:12:18,-0.01585066183000483,0.0011725381097767466,-0.0010998593713082198,8.136108397775262e-05,0.0,-0.1211339723952055
2022-11-10 10:12:21,-0.016836239479122595,0.0011429086655604858,-0.0011852799196055267,8.046135794824116e-05,0.0,-0.1211339723952055
2022-11-10 10:12:24,-0.0033671770511781423,0.0012713499346568853,-0.00023367569381611415,8.822927144863749e-05,0.0,-0.1211339723952055
2022-11-10 10:12:27,-0.013595526130051074,0.0010614582965986074,-0.0008647349051909471,6.75133886466145e-05,0.0,-0.1211339723952055
2022-11-10 10:12:30,-0.013157247105204743,0.0009327440115466624,-0.0007916984868991995,5.612511619650781e-05,0.0,-0.08075895045757
2022-11-10 10:12:33,-0.008912562649492074,0.0013791644867586056,-0.000516088010208225,7.986145889944016e-05,0.0,-0.08075895045757
2022-11-10 10:12:36,-0.013091993423034892,0.0018555794389842916,-0.0007424939492899642,0.00010523657180033331,0.0,-0.08075895045757
2022-11-10 10:12:39,-0.015588245899348872,0.0020542447880848805,-0.0009042844579985019,0.00011916809927069326,0.0,-0.08075895045757
2022-11-10 10:12:42,-0.0131590829918506,0.0009755390814433465,-0.0008179051357108398,6.063480451436362e-05,0.0,-0.08075895045757
2022-11-10 10:12:45,-0.014244101539507666,0.0015230763914923055,-0.0007727624742336848,8.262902910878768e-05,0.0,-0.08075895045757
2022-11-10 10:12:48,-0.012101745343072142,0.0014237801229899604,-0.0007011185743253883,8.248716707255837e-05,0.0,-0.08075895045757
2022-11-10 10:12:51,-0.01311195287955509,0.0012050637206546344,-0.0007774278753623373,7.145008349485119e-05,0.0,-0.08075895045757
2022-11-10 10:12:54,-0.01198631234632786,0.0017649373998789896,-0.0007058841070383071,0.00010393866140771556,0.0,-0.08075895045757
2022-11-10 10:12:57,-0.009509082195078275,0.0016691180777020594,-0.0005542881517711076,9.729355109119476e-05,0.0,-0.08075895045757
2022-11-10 10:13:00,-0.01128300734410565,0.0014638659079145874,-0.0006362525795537139,8.254789096791306e-05,0.0,-0.08075895045757
2022-11-10 10:13:03,-0.01620185238429756,0.0012579225793317142,-0.0009896222880831614,7.683493168942948e-05,0.0,-0.040386897380700885
2022-11-10 10:13:06,-0.01289788365091598,0.001611683216251769,-0.0008265190965454457,0.00010327949854930412,0.0,-0.040386897380700885
2022-11-10 10:13:09,-0.01027850524886327,0.00074188111936852,-0.0006803635037247914,4.910722186736812e-05,0.0,-0.040386897380700885
2022-11-10 10:13:12,-0.013571630222815163,0.0013876221037546308,-0.0008775475873509257,8.972425635776744e-05,0.0,-0.040386897380700885
2022-11-10 10:13:15,-0.012276049315734342,0.0009366611285514242,-0.0007939116547000416,6.0575366499086635e-05,0.0,-0.040386897380700885
2022-11-10 10:13:18,-0.006793693248869026,0.0012816509068754858,-0.00045957240871300533,8.669973353595701e-05,0.0,-0.040386897380700885
2022-11-10 10:13:21,-0.013473770830807483,0.0013509760336738756,-0.0008685868867405483,8.709069509085316e-05,0.0,-0.040386897380700885
2022-11-10 10:13:24,-0.010569206743789087,0.000950581408298851,-0.0006951075669702838,6.251711655825908e-05,0.0,-0.040386897380700885
2022-11-10 10:13:27,-0.009948317013522816,0.0016087615908600313,-0.000647561064235128,0.00010471835250744748,0.0,-0.040386897380700885
2022-11-10 10:13:30,-0.013845115721341884,0.0013273803661379,-0.000891122700292915,8.543509494581239e-05,0.0,-0.040386897380700885
2022-11-10 10:13:33,-0.016066837937120916,0.0010214422052203063,-0.0010198775012399042,6.483826674533186e-05,0.0,-0.040386897380700885
2022-11-10 10:13:36,-0.01670993256161655,0.001271932057108403,-0.0009999814050959631,7.611690836954599e-05,0.0,-1.18754430655024e-05
2022-11-10 10:13:39,-0.016692025128864092,0.0013866467211368781,-0.000956337815352978,7.944528514190264e-05,0.0,-1.18754430655024e-05
2022-11-10 10:13:42,-0.008262445187407897,0.0007580826006858216,-0.0004739246913071496,4.348277711577304e-05,0.0,-1.18754430655024e-05
2022-11-10 10:13:45,-0.01072538297726584,0.001119350047379248,-0.0006157389557201158,6.426133507022432e-05,0.0,-1.18754430655024e-05
2022-11-10 10:13:48,-0.005692811775466414,0.0016063924168109184,-0.0003415979968590374,9.639181012746536e-05,0.0,-1.18754430655024e-05
2022-11-10 10:13:51,-0.0049255432879254935,0.0013676536405545303,-0.0002874128463459987,7.980464340062681e-05,0.0,-1.18754430655024e-05
2022-11-10 10:13:54,-0.0050345714729652345,0.0017693751143708857,-0.0002904761944236808,0.00010208641440295408,0.0,-1.18754430655024e-05
2022-11-10 10:13:57,-0.010636216342869825,0.0008321033783703802,-0.000640844951381304,5.013523906115902e-05,0.0,-1.18754430655024e-05
2022-11-10 10:14:00,-0.021216243158429893,0.00159620590855897,-0.0011908376132792158,8.959277192745072e-05,0.0,-1.18754430655024e-05
2022-11-10 10:14:03,-0.015733671803339615,0.001135625990839853,-0.0009749290418259884,7.036849204437981e-05,0.0,-1.18754430655024e-05
2022-11-10 10:14:06,-0.014590292421281641,0.0019301863819986167,-0.000876661270907195,0.00011597571850325045,0.0,-1.18754430655024e-05
2022-11-10 10:14:09,-0.007889504737189499,0.0013998001370025116,-0.00047370940253240037,8.404817648926964e-05,0.0,0.04036017763380361
2022-11-10 10:14:12,-0.01427454477925616,0.0012933869609598777,-0.0009489538888201573,8.59827479847745e-05,0.0,0.04036017763380361
2022-11-10 10:14:15,-0.006662473057324754,0.0011432119349742888,-0.00045344734545431185,7.780690634626465e-05,0.0,0.04036017763380361
2022-11-10 10:14:18,-0.009600754303720217,0.0006537639751882641,-0.0006508961907630448,4.432281752520803e-05,0.0,0.04036017763380361
2022-11-10 10:14:21,-0.007752232833312823,0.000904668116840153,-0.0005512918159853646,6.433451364537242e-05,0.0,0.04036017763380361
2022-11-10 10:14:24,-0.01376218495869214,0.0015521738335473926,-0.0009395323176496146,0.0001059655486105643,0.0,0.04036017763380361
2022-11-10 10:14:27,-0.008878410079652399,0.0009931316488058658,-0.0006049841411699185,6.767302841738135e-05,0.0,0.04036017763380361
2022-11-10 10:14:30,-0.00873936756330785,0.0008584796406594435,-0.0006089437674278844,5.981735209743611e-05,0.0,0.04036017763380361
2022-11-10 10:14:33,-0.012462560743640431,0.0011507958617754045,-0.0008654999114754728,7.992047035768414e-05,0.0,0.04036017763380361
2022-11-10 10:14:36,-0.007235365674063384,0.001349646637021569,-0.0005244863174089091,9.783488856579389e-05,0.0,0.04036017763380361
2022-11-10 10:14:39,-0.0017049099176783826,0.0012013522243537718,-0.00011321342425937817,7.977500608707719e-05,0.0,0.04036017763380361
2022-11-10 10:14:42,-0.015391496369634557,0.0016712028787388377,-0.0008858176647437195,9.618174840219046e-05,0.0,0.080735199571439
2022-11-10 10:14:45,-0.014433549334735157,0.0018823354597395279,-0.0008483362848738536,0.0001106348434309799,0.0,0.080735199571439
2022-11-10 10:14:48,-0.018898739713388273,0.0009960036721770452,-0.001119551012587154,5.9002713230469566e-05,0.0,0.080735199571439
2022-11-10 10:14:51,-0.00900642325300302,0.0022023776038665767,-0.0005144879493953193,0.00012580984763620588,0.0,0.080735199571439
2022-11-10 10:14:54,-0.008251989566458645,0.0012844042574624412,-0.00047840842257837284,7.446323214745089e-05,0.0,0.080735199571439
2022-11-10 10:14:57,-0.010505987043673393,0.0016096578079453567,-0.0005981041134371451,9.163755410664539e-05,0.0,0.080735199571439
2022-11-10 10:15:00,-0.020705498424413403,0.0014397791016564879,-0.0011741687542436816,8.164708714207054e-05,0.0,0.080735199571439
2022-11-10 10:15:03,-0.01563706774315711,0.0014670303879038265,-0.0009702255048627616,9.10241179568894e-05,0.0,0.080735199571439
2022-11-10 10:15:06,-0.0011343836797739677,0.0018684658015288478,-6.758504492125673e-05,0.0001113206645879472,0.0,0.080735199571439
2022-11-10 10:15:09,-0.003752176104736783,0.0016670210427099528,-0.00021676590717632254,9.630500235553074e-05,0.0,0.080735199571439
2022-11-10 10:15:12,-0.013286830118967871,0.0014362921797217618,-0.0007896022981359248,8.535516716541397e-05,0.0,0.080735199571439
2022-11-10 10:15:15,-0.010232608431181092,0.0008672352141044518,-0.0006193417492627778,5.2490523617518573e-05,0.0,0.1211072526483085
2022-11-10 10:15:18,-0.009560149502437686,0.0014162663729568726,-0.0005767745176718549,8.544493513922347e-05,0.0,0.1211072526483085
2022-11-10 10:15:21,-0.010959690221683095,0.0013086128197483562,-0.0006845795045617225,8.174040485506274e-05,0.0,0.1211072526483085
2022-11-10 10:15:24,-0.007674592587694635,0.0017914278704761445,-0.0005106825061012106,0.00011920513876673729,0.0,0.1211072526483085
2022-11-10 10:15:27,-0.013857686283318158,0.0014192128441307679,-0.0009299757696795966,9.52419855721869e-05,0.0,0.1211072526483085
2022-11-10 10:15:30,-0.010075800752911838,0.0013563915614532578,-0.000675863389412695,9.098387518526964e-05,0.0,0.1211072526483085
2022-11-10 10:15:33,-0.013292124517532417,0.00098167838739218,-0.0008579959973252132,6.336655407735547e-05,0.0,0.1211072526483085
2022-11-10 10:15:36,-0.012219792721653099,0.0007256866634894161,-0.0007878041861384981,4.678467174887578e-05,0.0,0.1211072526483085
2022-11-10 10:15:39,-0.0012942704337985912,0.001405023465174317,-8.79752861887505e-05,9.55034884694397e-05,0.0,0.1211072526483085
2022-11-10 10:15:42,-0.007459796724813602,0.0015866468045799532,-0.00046239013391464285,9.83471608555522e-05,0.0,0.1211072526483085
2022-11-10 10:15:45,-0.013183386455037631,0.0012428663177266224,-0.0008234869515976571,7.763439224957318e-05,0.0,0.1211072526483085
2022-11-10 10:15:48,-0.015198848583230633,0.0006660113400667535,-0.0009357442926814255,4.100417915974153e-05,0.0,0.161479305725178
2022-11-10 10:15:51,-0.0166425104177823,0.0011083919151545175,-0.0010413240992584018,6.935223014433752e-05,0.0,0.161479305725178
2022-11-10 10:15:54,-0.006421985067655377,0.0010522210243203915,-0.0003677498689911478,6.0254600371537406e-05,0.0,0.161479305725178
2022-11-10 10:15:57,-0.010590102163158435,0.0014562275435422499,-0.0005670412887708526,7.797291568219752e-05,0.0,0.161479305725178
2022-11-10 10:16:00,-0.002639002621385454,0.002116120541141974,-0.00015953104320712795,0.00012792216072266764,0.0,0.161479305725178
2022-11-10 10:16:03,-0.01291420321977508,0.0012007065723906895,-0.0007767264830876266,7.221665768470554e-05,0.0,0.161479305725178
2022-11-10 10:16:06,-0.023614039848628636,0.0004602991822226911,-0.0014912663790194222,2.9068668433652088e-05,0.0,0.161479305725178
2022-11-10 10:16:09,-0.004646777158996111,0.0015094815936513156,-0.00024711704446844855,8.027469735243849e-05,0.0,0.161479305725178
2022-11-10 10:16:12,-0.008327602664325558,0.0013346052909011096,-0.00045998262288110195,7.371812356628653e-05,0.0,0.161479305725178
2022-11-10 10:16:15,-0.01264539938063766,0.0013974555724391518,-0.0007327428530572696,8.09761362490244e-05,0.0,0.161479305725178
2022-11-10 10:16:18,-0.007611672719671221,0.0012999257318903547,-0.00046229989829173527,7.895183565717972e-05,0.0,0.161479305725178
2022-11-10 10:16:21,-0.008219108779050504,0.001285886377597573,-0.0005111171500711417,7.996470156328817e-05,0.0,0.2018543276628135
2022-11-10 10:16:24,-0.009220489417876496,0.001701852849813335,-0.0005956753208458234,0.00010994554588170733,0.0,0.2018543276628135
2022-11-10 10:16:27,-0.011872789241166108,0.0008426381510014363,-0.0008477822390124548,6.016898336377352e-05,0.0,0.2018543276628135
2022-11-10 10:16:30,-0.010255367126868543,0.001648927583732819,-0.0006756175615474087,0.00010863038051276466,0.0,0.2018543276628135
2022-11-10 10:16:33,-0.006045145374531104,0.00149219004647265,-0.0004267043257576627,0.00010532814485570505,0.0,0.2018543276628135
2022-11-10 10:16:36,-0.0046454424648813535,0.0009153627910281154,-0.0003357943123965431,6.616670453468138e-05,0.0,0.2018543276628135
2022-11-10 10:16:39,-0.00798933960469329,0.0012364413868567784,-0.000568006471394392,8.790547704618053e-05,0.0,0.2018543276628135
2022-11-10 10:16:42,-0.011637088034497534,0.000942533753356428,-0.0008084440341432629,6.547907755108452e-05,0.0,0.2018543276628135
2022-11-10 10:16:45,-0.004664746686667659,0.0009966153887344474,-0.00031537462212529555,6.737926467147813e-05,0.0,0.2018543276628135
2022-11-10 10:16:48,-0.012851316756385608,0.0013556526795116053,-0.0008813817235620004,9.297471363202395e-05,0.0,0.2018543276628135
2022-11-10 10:16:51,-0.0075093376982798225,0.0010986054306696925,-0.0005022432961572866,7.347748028461099e-05,0.0,0.2018543276628135
2022-11-10 10:16:54,-0.0055452480543908,0.0016972244727786853,-0.00036226144596913977,0.0001108767336667978,0.0,0.2018543276628135
2022-11-10 10:16:57,-0.002896176463764309,0.0013232958459932402,-0.00017519555899217617,8.00488362333702e-05,0.0,0.2422263807396825
2022-11-10 10:17:00,-0.011009491525055624,0.0011040573586957691,-0.0006380226145678643,6.398238838050298e-05,0.0,0.2422263807396825
2022-11-10 10:17:03,-0.02072533979388741,0.0009584776700333533,-0.0012014616497735369,5.556358419990807e-05,0.0,0.2422263807396825
2022-11-10 10:17:06,-0.00928405862538053,0.0018204227876069284,-0.000543514019830637,0.00010657249668573495,0.0,0.2422263807396825
2022-11-10 10:17:09,-0.0005445725948607001,0.0014015759279230227,-3.139771339292767e-05,8.080883925973246e-05,0.0,0.2422263807396825
2022-11-10 10:17:12,0.0029722810326948393,0.0013426975870532638,0.0001921189775215029,8.678778510771676e-05,0.0,0.2422263807396825
2022-11-10 10:17:15,-0.0077811650604945465,0.001179421982868968,-0.0004524569550006348,6.85806913079142e-05,0.0,0.2422263807396825
2022-11-10 10:17:18,-0.01080046975546133,0.0014989398132449925,-0.0005900508947268687,8.18900286721052e-05,0.0,0.2422263807396825
2022-11-10 10:17:21,-0.01605638514053788,0.0014372952996678013,-0.0009033136837917914,8.086057356469558e-05,0.0,0.2422263807396825
2022-11-10 10:17:24,-0.013527246129417808,0.0015346930940145099,-0.0008012013368689657,9.089789206496199e-05,0.0,0.2422263807396825
2022-11-10 10:17:27,-0.0050215642636909,0.0016993028373411176,-0.00029264383543529287,9.903099388397885e-05,0.0,0.2422263807396825
2022-11-10 10:17:30,-0.014028874335976242,0.0004957442582935616,-0.0008540254785420281,3.0179059080876686e-05,0.0,0.28259843381655203
2022-11-10 10:17:33,-0.010265257627554817,0.000825474769837638,-0.0006571474477945055,5.284413288970461e-05,0.0,0.28259843381655203
2022-11-10 10:17:36,-0.007131052982763525,0.0013296771849041933,-0.0004367972551246955,8.144650530180248e-05,0.0,0.28259843381655203
2022-11-10 10:17:39,-0.0052015786309925595,0.0016440139536314027,-0.00033518838714489453,0.00010593983570258164,0.0,0.28259843381655203
2022-11-10 10:17:42,-0.014248796713306408,0.0012577742378191154,-0.000936790931485645,8.269270195600962e-05,0.0,0.28259843381655203
2022-11-10 10:17:45,-0.00678868689517982,0.0014253298840394217,-0.0004375704753852797,9.187082635712795e-05,0.0,0.28259843381655203
2022-11-10 10:17:48,-0.00924816518121884,0.0008371905161202282,-0.0005933505358194823,5.371308055047722e-05,0.0,0.28259843381655203
2022-11-10 10:17:51,-0.00561396127408261,0.0013465172680354766,-0.00037073488088373895,8.892133283455995e-05,0.0,0.28259843381655203
2022-11-10 10:17:54,-0.006322172008645964,0.001249974126846428,-0.0004179993139554825,8.264380133431592e-05,0.0,0.28259843381655203
2022-11-10 10:17:57,-0.005037770136980532,0.001293852116066314,-0.0003219546115631238,8.268770589400666e-05,0.0,0.28259843381655203
2022-11-10 10:18:00,-0.005106597645606295,0.0015375164299893083,-0.0003067087474547961,9.234519168333693e-05,0.0,0.28259843381655203
2022-11-10 10:18:03,-0.010258596905747418,0.0013836989604056867,-0.0005974432246823435,8.05842725364546e-05,0.0,0.322970486893421
2022-11-10 10:18:06,-0.017969480358948634,0.001147583137859271,-0.001081594986263381,6.90737930888953e-05,0.0,0.322970486893421
2022-11-10 10:18:09,-0.011270415484984262,0.0017812882718249545,-0.0006562756964727038,0.00010372432167812077,0.0,0.322970486893421
2022-11-10 10:18:12,-0.0031281513183790497,0.0014879544291351498,-0.0001825822666937175,8.684813001604686e-05,0.0,0.322970486893421
2022-11-10 10:18:15,-0.003032816983653732,0.0011323493122129902,-0.00017818233041361643,6.652713974494234e-05,0.0,0.322970486893421
2022-11-10 10:18:18,-0.007427543380121516,0.0015757405604163196,-0.0004229015289240738,8.971783240892178e-05,0.0,0.322970486893421
2022-11-10 10:18:21,-0.014689369150486395,0.0014967952421561228,-0.000831133211614886,8.468956181837848e-05,0.0,0.322970486893421
2022-11-10 10:18:24,-0.00894058142622313,0.0014234697043638608,-0.0005006951719461725,7.971790361376026e-05,0.0,0.322970486893421
2022-11-10 10:18:27,-0.00484430627503215,0.0005667169395211905,-0.0002779468565363304,3.251594406771054e-05,0.0,0.322970486893421
2022-11-10 10:18:30,-0.002083650033316735,0.001647723421581583,-0.00012503969117799043,9.887976602930046e-05,0.0,0.322970486893421
2022-11-10 10:18:33,-0.009856020841518973,0.001208183851417871,-0.0005764427522163936,7.066227189383517e-05,0.0,0.322970486893421
2022-11-10 10:18:36,-0.005966739715811272,0.0013166500456132145,-0.0003670691130297367,8.099927052844345e-05,0.0,0.36334550883105654
2022-11-10 10:18:39,-0.006385090107717231,0.0014098840820042941,-0.0004153780684617958,9.171913267600688e-05,0.0,0.36334550883105654
2022-11-10 10:18:42,-0.013120151124747978,0.0009471004310222324,-0.0008928312941802693,6.445054599662727e-05,0.0,0.36334550883105654
2022-11-10 10:18:45,-0.013265488558691895,0.0013131268780278357,-0.0009322920871721221,9.228591863932852e-05,0.0,0.36334550883105654
2022-11-10 10:18:48,-0.009917997828847105,0.0012136530439352373,-0.0006493830737069789,7.946419808564421e-05,0.0,0.36334550883105654
2022-11-10 10:18:51,-0.004203298493277705,0.0013254558169841077,-0.00030416030334443604,9.591301783784545e-05,0.0,0.36334550883105654
2022-11-10 10:18:54,-0.004584578743879555,0.0012104929888549659,-0.00033775575046780527,8.917961512440911e-05,0.0,0.36334550883105654
2022-11-10 10:18:57,-0.003648970874008446,0.0005173995818713661,-0.000246842128398793,3.500055726163572e-05,0.0,0.36334550883105654
2022-11-10 10:19:00,-0.00939526799139839,0.0015021522578091827,-0.0006169790548238345,9.864502865411658e-05,0.0,0.36334550883105654
2022-11-10 10:19:03,-0.009129219816352665,0.0015291941803886734,-0.0006132115925216553,0.0001027162909311594,0.0,0.36334550883105654
2022-11-10 10:19:06,-0.006173769308352093,0.001165903540886115,-0.00043580776161944456,8.230139272135962e-05,0.0,0.36334550883105654
2022-11-10 10:19:09,-0.007579008164941501,0.0014971011104888301,-0.0005012319073571512,9.900963672106262e-05,0.0,0.36334550883105654
2022-11-10 10:19:12,-0.006666024962436925,0.0020429271971698624,-0.0003977381642438684,0.00012189424997130004,0.0,0.40372053076869197
2022-11-10 10:19:15,-0.005957934740116872,0.0014870745591980625,-0.0003385991468921276,8.451287217348296e-05,0.0,0.40372053076869197
2022-11-10 10:19:18,-0.010131349905893608,0.0014356286004388649,-0.0005929074270469627,8.401593742074612e-05,0.0,0.40372053076869197
2022-11-10 10:19:21,-0.009050311285409195,0.001568636927080379,-0.0005210535891880418,9.031113684518724e-05,0.0,0.40372053076869197
2022-11-10 10:19:24,-0.0065826164564863855,0.0011125206189173016,-0.0003807934519768293,6.435747391228765e-05,0.0,0.40372053076869197
2022-11-10 10:19:27,-0.00445389633567216,0.0016678086648690784,-0.0002594278359950952,9.714550141534821e-05,0.0,0.40372053076869197
2022-11-10 10:19:30,-0.006620525995133214,0.001586462946382236,-0.00038634949372558155,9.258012982650306e-05,0.0,0.40372053076869197
2022-11-10 10:19:33,-0.01268165842424704,0.0009697676694333052,-0.0007205842611684847,5.510314946250194e-05,0.0,0.40372053076869197
2022-11-10 10:19:36,-0.0006870217075341988,0.0019503600570650583,-4.141936918154594e-05,0.00011758388760445017,0.0,0.40372053076869197
2022-11-10 10:19:39,-0.003180320309231546,0.0010675348820106526,-0.00018603726896906117,6.244694076945299e-05,0.0,0.40372053076869197
2022-11-10 10:19:42,-0.009524688076739831,0.001464614676547673,-0.0005485337963761646,8.43482371582223e-05,0.0,0.40372053076869197
2022-11-10 10:19:45,-0.016158152389980397,0.001193084334182401,-0.0009780424819744765,7.221662076489656e-05,0.0,0.4440955527063275
2022-11-10 10:19:48,-0.005390924058221802,0.0019819053310843803,-0.00033956358008356086,0.00012483627339979463,0.0,0.4440955527063275
2022-11-10 10:19:51,-0.005062440197676096,0.0006931270953359096,-0.0003139330568888703,4.298233645331601e-05,0.0,0.4440955527063275
2022-11-10 10:19:54,-0.009218136123957396,0.0009268821529780821,-0.0005610900848339373,5.641752072785274e-05,0.0,0.4440955527063275
2022-11-10 10:19:57,-0.006081144691937841,0.000880450191764954,-0.00040393494517389146,5.8483166896262065e-05,0.0,0.4440955527063275
2022-11-10 10:20:00,-0.005763072883802651,0.0013331527514605058,-0.000386718531609636,8.94583297575744e-05,0.0,0.4440955527063275
2022-11-10 10:20:03,-0.013006285839761456,0.0009846352789303122,-0.0008251223493484118,6.246553279019806e-05,0.0,0.4440955527063275
2022-11-10 10:20:06,-0.0037275739131091322,0.0017641955369258663,-0.00023062492393960572,0.00010915074281619158,0.0,0.4440955527063275
2022-11-10 10:20:09,-0.009718012100050914,0.0006176522465489913,-0.0006472586764606899,4.1138122848414375e-05,0.0,0.4440955527063275
2022-11-10 10:20:12,-0.01100956904458008,0.001659186652526093,-0.0007158265556014834,0.00010787796159581727,0.0,0.4440955527063275
2022-11-10 10:20:15,-0.0037735496999083684,0.0010865066257321786,-0.00023709755200674416,6.82667731145724e-05,0.0,0.4440955527063275
2022-11-10 10:21:57,-0.010944303179178634,0.0017802470643430025,-0.0006185868603206257,0.00010062197876809881,0.0,2.96886076631141e-06
2022-11-10 10:22:00,-0.014413285419291504,0.0007212451900213124,-0.000818030399469187,4.093449021127938e-05,0.0,2.96886076631141e-06
2022-11-10 10:22:03,-0.011448961209190102,0.0014546743377533262,-0.0006857898924705212,8.713462640319752e-05,0.0,2.96886076631141e-06
2022-11-10 10:22:06,-0.011092755153888181,0.0013846848587448753,-0.000649083952735348,8.10237591056786e-05,0.0,2.96886076631141e-06
2022-11-10 10:22:09,-0.01605646732866126,0.0009815969182189643,-0.0009091235129916744,5.5578404661907114e-05,0.0,2.96886076631141e-06
2022-11-10 10:22:12,-0.009969028977502953,0.0018947012951354362,-0.0005722659227420662,0.0001087641521985883,0.0,2.96886076631141e-06
2022-11-10 10:22:15,-0.008060877929322046,0.0013983308675700474,-0.0004854647483097421,8.421419461139634e-05,0.0,2.96886076631141e-06
2022-11-10 10:22:18,-0.01763969453863616,0.0013987467678839346,-0.000999849311765684,7.928345868688477e-05,0.0,2.96886076631141e-06
2022-11-10 10:22:21,-0.014568510581131172,0.0012647308096388745,-0.000862023447696716,7.483452799527781e-05,0.0,2.96886076631141e-06
2022-11-10 10:22:24,-0.012198148975108127,0.001134182688845303,-0.0007174807336709049,6.671128786589969e-05,0.0,2.96886076631141e-06
2022-11-10 10:22:27,-0.015788607472359783,0.0013259497391471596,-0.0009088351852094851,7.632527307211383e-05,0.0,2.96886076631141e-06
2022-11-10 10:22:30,-0.010900815106370636,0.0011467559013763372,-0.0006355517005566329,6.685946474013198e-05,0.0,2.96886076631141e-06
2022-11-10 10:22:33,-0.008267187478377118,0.0010349143752194962,-0.00047991769431790775,6.007771349940375e-05,0.0,2.96886076631141e-06
2022-11-10 10:22:36,-0.011660987899528243,0.00122436661266305,-0.0007040383816296342,7.392178912521846e-05,0.0,2.96886076631141e-06
2022-11-10 10:22:39,-0.016611324206100855,0.0010848106922223344,-0.0009255967633123582,6.0446551585505505e-05,0.0,2.96886076631141e-06
2022-11-10 10:22:42,-0.010663193361004018,0.0019648620436819846,-0.000617126824391906,0.00011371537890516892,-0.484500263251627,2.96886076631141e-06
2022-11-10 10:22:45,-0.011311899845350889,0.0011005617844704477,-0.0006620674035127748,6.441412079414792e-05,-0.484500263251627,2.96886076631141e-06
2022-11-10 10:22:48,-0.005673493386955884,0.00045775888767662747,-0.0005820218970501868,4.695972622611709e-05,-0.484500263251627,2.96886076631141e-06
2022-11-10 10:22:51,-0.017540269746689863,0.0017711788710673367,-0.0010353505467888444,0.00010454748068891482,-0.484500263251627,2.96886076631141e-06
2022-11-10 10:22:54,-0.011362539064472366,0.0016479054728920466,-0.0006593157174210268,9.562035148455691e-05,-0.484500263251627,2.96886076631141e-06
2022-11-10 10:22:57,-0.013747685734027197,0.0012920314163138726,-0.0008292216580112344,7.793169366583611e-05,-0.484500263251627,2.96886076631141e-06
2022-11-10 10:23:00,-0.01429703193730991,0.001775064120453295,-0.0008746115314790692,0.0001085883808381081,-0.484500263251627,2.96886076631141e-06
2022-11-10 10:23:03,-0.0038263794436871773,0.0022820301322406507,-0.0002190723061467146,0.00013065343129810175,-0.484500263251627,2.96886076631141e-06
2022-11-10 10:23:06,-0.01665256626476763,0.0025335764757744603,-0.0009174969280234424,0.00013959101537122537,-0.484500263251627,2.96886076631141e-06
2022-11-10 10:23:09,-0.012847329761205537,0.0028730843332365943,-0.0007395347497009655,0.00016538422713067446,-0.484500263251627,2.96886076631141e-06
2022-11-10 10:23:12,-0.009788916659611105,0.003131632106317484,-0.0005666875138442409,0.00018129246313088564,-0.484500263251627,2.96886076631141e-06
2022-11-10 10:23:15,-0.011017925504657829,0.0033365047855186463,-0.0006556779032101079,0.00019855574998165653,-0.484500263251627,2.96886076631141e-06
2022-11-10 10:23:18,-0.019090999463102033,0.0035783960005485995,-0.0011239618511937762,0.00021067417663776366,-0.484500263251627,2.96886076631141e-06
2022-11-10 10:23:21,-0.011585547495526663,0.004013024480481932,-0.0006658628995800677,0.00023064288655251186,-0.484500263251627,2.96886076631141e-06
2022-11-10 10:23:24,-0.011356719315888551,0.0040182899055021355,-0.0006689143772036845,0.00023667855256423692,-0.484500263251627,2.96886076631141e-06
2022-11-10 10:23:27,-0.011787910867617914,0.004452074709259811,-0.0007222444054432593,0.0002727782800098577,-0.484500263251627,2.96886076631141e-06
2022-11-10 10:23:30,-0.009322348971689449,0.005302699452120813,-0.0005250663499539774,0.0002986660395017856,-0.484500263251627,2.96886076631141e-06
2022-11-10 10:23:33,-0.014871250999263105,0.005314597926851912,-0.000836922437071342,0.00029909428932479217,-0.484500263251627,2.96886076631141e-06
2022-11-10 10:23:36,-0.01137481577537011,0.00559829428018976,-0.0006481427042997844,0.00031899361412823785,-0.484500263251627,2.96886076631141e-06
2022-11-10 10:23:39,-0.014939299546293904,0.005594553329081462,-0.0008775331069221017,0.00032862355758360526,-0.484500263251627,2.96886076631141e-06
2022-11-10 10:23:42,-0.009147781316668043,0.006068438866657915,-0.0005482564247382921,0.00036370136993924104,-0.484500263251627,2.96886076631141e-06
2022-11-10 10:23:45,-0.014997480168604277,0.006206556938088197,-0.000853594546434282,0.0003532515525892495,-0.484500263251627,2.96886076631141e-06
2022-11-10 10:23:48,-0.012339558617097917,0.006368510612339307,-0.0007028091810782685,0.0003627234868793957,-0.484500263251627,2.96886076631141e-06
2022-11-10 10:23:51,-0.009077682321828172,0.006124655876427869,-0.0005377707559238639,0.0003628305886536943,-0.484500263251627,2.96886076631141e-06
2022-11-10 10:23:54,-0.013474941589086116,0.006448631932607175,-0.0007740236014784897,0.0003704204044289531,-0.484500263251627,2.96886076631141e-06
2022-11-10 10:23:57,-0.013592220681018046,0.006591650401371367,-0.0007745000835735375,0.00037559968356600345,-0.484500263251627,2.96886076631141e-06
2022-11-10 10:24:00,-0.010490367201582126,0.006164681275142411,-0.0006131047863625671,0.00036029202062817,-0.484500263251627,2.96886076631141e-06
2022-11-10 10:24:03,-0.014405618136512813,0.00628000783968383,-0.0008406434389537276,0.0003664714236473673,-0.484500263251627,2.96886076631141e-06
2022-11-10 10:24:06,-0.010845965975729916,0.00670985195585345,-0.000611672556693201,0.00037841095113647056,-0.484500263251627,2.96886076631141e-06
2022-11-10 10:24:09,-0.013940561497222712,0.006358463746438226,-0.000795197304100622,0.0003626993956015717,-0.484500263251627,2.96886076631141e-06
2022-11-10 10:24:12,-0.010150656439141946,0.006221050895942965,-0.0005950781950764628,0.0003647066335888607,-0.484500263251627,2.96886076631141e-06
2022-11-10 10:24:15,-0.012028931006437746,0.006223026065222851,-0.0007167421748733756,0.00037079813941026234,-0.484500263251627,2.96886076631141e-06
2022-11-10 10:24:18,-0.014004757712161134,0.006045053664020587,-0.0008235320556459978,0.00035547173130302036,-0.484500263251627,2.96886076631141e-06
2022-11-10 10:24:21,-0.011228959760542981,0.005526421147098009,-0.0006756025202123565,0.0003325031110943917,-0.4441252413139915,2.96886076631141e-06
2022-11-10 10:24:24,-0.015641605105623405,0.005285597786483974,-0.0009829817134156722,0.00033216833780800307,-0.4441252413139915,2.96886076631141e-06
2022-11-10 10:24:27,-0.01056072587305067,0.0054362558424793875,-0.0006992950751583808,0.00035997023155839755,-0.4441252413139915,2.96886076631141e-06
2022-11-10 10:24:30,-0.004630673410652782,0.005220319011526218,-0.0003043122681616524,0.0003430617921078986,-0.4441252413139915,2.96886076631141e-06
2022-11-10 10:24:33,-0.011319703223137842,0.0047406735549055485,-0.000765330176050987,0.0003205190502662652,-0.4441252413139915,2.96886076631141e-06
2022-11-10 10:24:36,-0.011008804175754911,0.005144177905115428,-0.0007360264885293653,0.0003439293804690479,-0.4441252413139915,2.96886076631141e-06
2022-11-10 10:24:39,-0.010737283261776212,0.005062036097600518,-0.0007585984618056026,0.0003576372815751671,-0.4441252413139915,2.96886076631141e-06
2022-11-10 10:24:42,-0.010668547010374566,0.004919123405392668,-0.0007428185114277977,0.00034250361571918784,-0.4441252413139915,2.96886076631141e-06
2022-11-10 10:24:45,-0.013754880043302564,0.004500988517335727,-0.0009022252352393091,0.00029523379419364444,-0.4441252413139915,2.96886076631141e-06
2022-11-10 10:24:48,-0.00735651950210965,0.004872321914456836,-0.0004939187917771559,0.0003271290659187068,-0.4441252413139915,2.96886076631141e-06
2022-11-10 10:24:51,-0.006321072303822516,0.005566124365824472,-0.000391135992443524,0.0003444212426702159,-0.4441252413139915,2.96886076631141e-06
2022-11-10 10:24:54,-0.016575570828284193,0.005333501659725107,-0.0009639345896890018,0.00031016408347156227,-0.403750219376356,2.96886076631141e-06
2022-11-10 10:24:57,-0.011489262403831142,0.005648006805261046,-0.0006456691931145731,0.0003174045355115656,-0.403750219376356,2.96886076631141e-06
2022-11-10 10:25:00,-0.011396311912188069,0.0052884272593498585,-0.0006725672838927512,0.0003121030018563626,-0.403750219376356,2.96886076631141e-06
2022-11-10 10:25:03,-0.011440105996862062,0.005180432675512917,-0.000679798503793663,0.00030783371961618595,-0.403750219376356,2.96886076631141e-06
2022-11-10 10:25:06,-0.01659681076300698,0.005541173599229766,-0.0010001901817703492,0.00033393327842165196,-0.403750219376356,2.96886076631141e-06
2022-11-10 10:25:09,-0.014737989565627756,0.005876209223405202,-0.000833392374678211,0.00033228331021627194,-0.403750219376356,2.96886076631141e-06
2022-11-10 10:25:12,-0.002857167427613193,0.005335030601309322,-0.00016840850012914577,0.0003144598713489299,-0.403750219376356,2.96886076631141e-06
2022-11-10 10:25:15,-0.01661998863903633,0.005047819976071987,-0.0009302884588837434,0.0002825470443001979,-0.403750219376356,2.96886076631141e-06
2022-11-10 10:25:18,-0.01257401623357858,0.005311803369528821,-0.0007521180203775175,0.00031772688699540773,-0.403750219376356,2.96886076631141e-06
2022-11-10 10:25:21,-0.011859711336194859,0.004785093333566472,-0.0007116388377942673,0.0002871282581932474,-0.403750219376356,2.96886076631141e-06
2022-11-10 10:25:24,-0.014622232323704002,0.005221423490796988,-0.0008548793246105163,0.0003052671362690607,-0.403750219376356,2.96886076631141e-06
2022-11-10 10:25:27,-0.012287814268400457,0.005197933321017931,-0.0007589147626548388,0.00032103254870644347,-0.3633751974387205,2.96886076631141e-06
2022-11-10 10:25:30,-0.008076661551120955,0.004064006906393257,-0.0005673688967156703,0.00028548814384888856,-0.3633751974387205,2.96886076631141e-06
2022-11-10 10:25:33,-0.008015652374552889,0.004163718653333543,-0.0006042084983872601,0.0003138552020075612,-0.3633751974387205,2.96886076631141e-06
2022-11-10 10:25:36,-0.01023261624541838,0.0038143115621454807,-0.000771022551838577,0.0002874064817460134,-0.3633751974387205,2.96886076631141e-06
2022-11-10 10:25:39,-0.010185908589535617,0.003854628325206792,-0.0007702514989032386,0.000291484379533468,-0.3633751974387205,2.96886076631141e-06
2022-11-10 10:25:42,-0.010447762080731195,0.0038880946910971603,-0.0007871072403796206,0.0002929189484787692,-0.3633751974387205,2.96886076631141e-06
2022-11-10 10:25:45,-0.007270285780271694,0.003881149496841776,-0.0005624595624853255,0.0003002618760678466,-0.3633751974387205,2.96886076631141e-06
2022-11-10 10:25:48,-0.007725656511350541,0.00357804493166437,-0.0005811312550311774,0.00026914395412753973,-0.3633751974387205,2.96886076631141e-06
2022-11-10 10:25:51,-0.011768349713453894,0.003920247284303254,-0.0008583279609237034,0.00028592435981112134,-0.3633751974387205,2.96886076631141e-06
2022-11-10 10:25:54,-0.007000592993892412,0.0038362577306062457,-0.0005160652723188655,0.00028279881320880727,-0.3633751974387205,2.96886076631141e-06
2022-11-10 10:25:57,-0.008414765892580637,0.004072330944015877,-0.0005828561263036069,0.00028207356798223116,-0.3633751974387205,2.96886076631141e-06
2022-11-10 10:26:00,-0.01586734767261859,0.0045291296225906065,-0.0009576538525317091,0.0002733499335351482,-0.323000175501085,2.96886076631141e-06
2022-11-10 10:26:03,-0.012978922022405599,0.00449122228803527,-0.0007940488143436139,0.00027477241381153057,-0.323000175501085,2.96886076631141e-06
2022-11-10 10:26:06,-0.012407746494809841,0.0045763097990187,-0.0007220145271332471,0.00026629832878483306,-0.323000175501085,2.96886076631141e-06
2022-11-10 10:26:09,-0.011017542269339575,0.004796608196027409,-0.0006671730294794561,0.0002904611158402592,-0.323000175501085,2.96886076631141e-06
2022-11-10 10:26:12,-0.012271674103288683,0.0048394755497822356,-0.0007440554520098193,0.00029342680854918584,-0.323000175501085,2.96886076631141e-06
2022-11-10 10:26:15,-0.008210833743623074,0.004419547896497106,-0.00046490023650443916,0.0002502363251381067,-0.323000175501085,2.96886076631141e-06
2022-11-10 10:26:18,-0.016754239233750048,0.0045483782763140095,-0.0009300230330527284,0.00025247917861215155,-0.323000175501085,2.96886076631141e-06
2022-11-10 10:26:21,-0.010049988979086797,0.005063689451931419,-0.0005673283058252842,0.0002858485082886779,-0.323000175501085,2.96886076631141e-06
2022-11-10 10:26:24,-0.014925691703190101,0.004455232399536453,-0.0008741379320316366,0.0002609251024271635,-0.323000175501085,2.96886076631141e-06
2022-11-10 10:26:27,-0.013178052858261704,0.004219566784245642,-0.0007584191589239483,0.00024284318221752389,-0.323000175501085,2.96886076631141e-06
2022-11-10 10:26:30,-0.011254491236054499,0.00447220346996891,-0.0006593152466587302,0.0002619924679015764,-0.323000175501085,2.96886076631141e-06
2022-11-10 10:26:33,-0.013424046656492876,0.004316169559574172,-0.0008074883968188227,0.00025962788473869166,-0.28262812242421553,2.96886076631141e-06
2022-11-10 10:26:36,-0.0074767117155721645,0.003745428008884613,-0.000485382332061702,0.00024315028460108397,-0.28262812242421553,2.96886076631141e-06
2022-11-10 10:26:39,-0.009527685507444445,0.003514506440102154,-0.0006453574026686849,0.00023805495532724133,-0.28262812242421553,2.96886076631141e-06
2022-11-10 10:26:42,-0.011222016302463299,0.003375897563400914,-0.0007680277665076708,0.00023104431464855037,-0.28262812242421553,2.96886076631141e-06
2022-11-10 10:26:45,-0.015454564305710423,0.0034556466034073147,-0.0010474580344049364,0.0002342120248233508,-0.28262812242421553,2.96886076631141e-06
2022-11-10 10:26:48,-0.010322983145152946,0.0035696264357232056,-0.0007051241100212199,0.00024382774128420338,-0.28262812242421553,2.96886076631141e-06
2022-11-10 10:26:51,-0.0073844087366859434,0.003557465311916667,-0.00048632624082486963,0.00023428940538112105,-0.28262812242421553,2.96886076631141e-06
2022-11-10 10:26:54,-0.009321709516865354,0.003403016997295451,-0.0006438956896469613,0.000235062889740285,-0.28262812242421553,2.96886076631141e-06
2022-11-10 10:26:57,-0.012476116323500833,0.003329078101455062,-0.0008507007216725434,0.00022699765455676683,-0.28262812242421553,2.96886076631141e-06
2022-11-10 10:27:00,-0.00667164584913651,0.0032228617887294763,-0.00044545673833117934,0.00021518610744085496,-0.28262812242421553,2.96886076631141e-06
2022-11-10 10:27:03,-0.014420962597645325,0.0034486434729902355,-0.0009040885141194763,0.0002162046348925878,-0.28262812242421553,2.96886076631141e-06
2022-11-10 10:27:06,-0.011078670141741818,0.003571497182182402,-0.000693663691260292,0.00022362051464859935,-0.2422531004865795,2.96886076631141e-06
2022-11-10 10:27:09,-0.011027035543838373,0.00361211207981838,-0.0006281589670390497,0.0002057652379796523,-0.2422531004865795,2.96886076631141e-06
2022-11-10 10:27:12,-0.013138578068141529,0.003585021569670675,-0.0007561397306283998,0.0002063219649743445,-0.2422531004865795,2.96886076631141e-06
2022-11-10 10:27:15,-0.010877371884474244,0.0037115452201159273,-0.0006394005687426172,0.00021817440369427735,-0.2422531004865795,2.96886076631141e-06
2022-11-10 10:27:18,-0.011980605858949346,0.0037181105483682928,-0.0006941886812331193,0.0002154373734215379,-0.2422531004865795,2.96886076631141e-06
2022-11-10 10:27:21,-0.014724927727230669,0.0038743336652405673,-0.0008529811114870729,0.000224431216048502,-0.2422531004865795,2.96886076631141e-06
2022-11-10 10:27:24,-0.011698215372647341,0.003671935009834858,-0.0006688358078904203,0.00020993985326739912,-0.2422531004865795,2.96886076631141e-06
2022-11-10 10:27:27,-0.010617449137664214,0.0039127186199077665,-0.0006167883214241035,0.00022729745332301772,-0.2422531004865795,2.96886076631141e-06
2022-11-10 10:27:30,-0.009164958976443592,0.0038051702937904877,-0.0005474471745779197,0.00022729285875448417,-0.2422531004865795,2.96886076631141e-06
2022-11-10 10:27:33,-0.010817911259494143,0.003942335465321575,-0.0006344313713033748,0.00023120371718771625,-0.2422531004865795,2.96886076631141e-06
2022-11-10 10:27:36,-0.015164332539143881,0.0035331605537098016,-0.0009183720261869894,0.00021397287405684932,-0.2422531004865795,2.96886076631141e-06
2022-11-10 10:27:39,-0.01538945741274829,0.0029193553806655978,-0.0009916887477933217,0.0001881217644111177,-0.2018810474097105,2.96886076631141e-06
2022-11-10 10:27:42,-0.011556805886962467,0.0029265929673463927,-0.0008006896297249131,0.0002027630006335615,-0.2018810474097105,2.96886076631141e-06
2022-11-10 10:27:45,-0.007810805392119298,0.0023552825802048466,-0.0005785625335875075,0.0001744606591136825,-0.2018810474097105,2.96886076631141e-06
2022-11-10 10:27:48,-0.010176708258997733,0.002637729221069356,-0.0007598919726761522,0.00019695850663811095,-0.2018810474097105,2.96886076631141e-06
2022-11-10 10:27:51,-0.007050563036150558,0.002789428450752733,-0.0005132731476285625,0.00020306728890466253,-0.2018810474097105,2.96886076631141e-06
2022-11-10 10:27:54,-0.008412019680801894,0.0024955761835088923,-0.0006334025412360781,0.00018791019950776928,-0.2018810474097105,2.96886076631141e-06
2022-11-10 10:27:57,-0.00978536759890302,0.0022738138079562826,-0.000767477438070497,0.00017833778632651896,-0.2018810474097105,2.96886076631141e-06
2022-11-10 10:28:00,-0.011486544023410754,0.002291178225607301,-0.0008694591948087044,0.00017342779265370722,-0.2018810474097105,2.96886076631141e-06
2022-11-10 10:28:03,-0.009485313604422533,0.002462163788272733,-0.0006840621921229528,0.00017756641779205972,-0.2018810474097105,2.96886076631141e-06
2022-11-10 10:28:06,-0.008453635377660418,0.002999162228208592,-0.0006123916596011159,0.00021726297057940354,-0.2018810474097105,2.96886076631141e-06
2022-11-10 10:28:09,-0.010495746477094855,0.0028768956122802664,-0.0007148250063913988,0.0001959343176708329,-0.2018810474097105,2.96886076631141e-06
2022-11-10 10:28:12,-0.011215840390177782,0.003215369742916494,-0.0006839440079911887,0.00019607383777231574,-0.161506025472075,2.96886076631141e-06
2022-11-10 10:28:15,-0.0113938973985282,0.002994965167478874,-0.000678250638708027,0.00017828289712466924,-0.161506025472075,2.96886076631141e-06
2022-11-10 10:28:18,-0.00801276402037757,0.0029457447395302497,-0.00047150694718221727,0.00017334082293971457,-0.161506025472075,2.96886076631141e-06
2022-11-10 10:28:21,-0.016606420963569596,0.0027149968842073513,-0.000933757724399583,0.0001526607881319466,-0.161506025472075,2.96886076631141e-06
2022-11-10 10:28:24,-0.012757122717846594,0.002999359512860165,-0.000738253519988486,0.00017357265952943187,-0.161506025472075,2.96886076631141e-06
2022-11-10 10:28:27,-0.012159911154976399,0.0030578674293594878,-0.000724756543714915,0.00018225539652351973,-0.161506025472075,2.96886076631141e-06
2022-11-10 10:28:30,-0.018093467775213014,0.002336545711125027,-0.0012692834279348657,0.00016391212489438704,-0.161506025472075,2.96886076631141e-06
2022-11-10 10:28:33,-0.005098405331321281,0.0015538594471912943,-0.0004177996410377993,0.00012733430888114023,-0.161506025472075,2.96886076631141e-06
2022-11-10 10:28:36,-0.008577562990285146,0.002317373297795113,-0.0005210403804174926,0.0001407678458345388,-0.161506025472075,2.96886076631141e-06
2022-11-10 10:28:39,-0.01807277668070595,0.0030931415893105806,-0.001061600336638547,0.00018169206705178725,-0.161506025472075,2.96886076631141e-06
2022-11-10 10:28:42,-0.015060150537980491,0.002638464439704481,-0.0008604378553803262,0.00015074448812920082,-0.161506025472075,2.96886076631141e-06
2022-11-10 10:28:45,-0.01319289237105974,0.0032276977247192194,-0.0007608263591179762,0.0001861394332010487,-0.161506025472075,2.96886076631141e-06
2022-11-10 10:28:48,-0.008649631608057998,0.003118215941005349,-0.0005099223894728744,0.0001838284213224256,-0.161506025472075,2.96886076631141e-06
2022-11-10 10:28:51,-0.009835445182139163,0.0026319966206841817,-0.0005643859214516795,0.00015103147956333458,-0.161506025472075,2.96886076631141e-06
2022-11-10 10:28:54,-0.013154349415123705,0.0031442064119827353,-0.00075121090630675,0.0001795575040484686,-0.161506025472075,2.96886076631141e-06
2022-11-10 10:28:57,-0.016595654793671782,0.002834457231889939,-0.0009723597470181726,0.00016607432193547946,-0.161506025472075,2.96886076631141e-06
2022-11-10 10:29:00,-0.012814767296478312,0.0026202325607598293,-0.0007840279675338569,0.00016031002058407444,-0.12113397239520599,2.96886076631141e-06
2022-11-10 10:29:03,-0.0072080656125107275,0.00242064410772254,-0.00047607756525243176,0.00015987844937856788,-0.12113397239520599,2.96886076631141e-06
2022-11-10 10:29:06,-0.012917821176218619,0.0018809241899685944,-0.0008722251703562615,0.00012700202299152847,-0.12113397239520599,2.96886076631141e-06
2022-11-10 10:29:09,-0.010012336076978578,0.0021004423078910418,-0.0006563032123523579,0.00013768285677099337,-0.12113397239520599,2.96886076631141e-06
2022-11-10 10:29:12,-0.00770658509347088,0.0019673619268185767,-0.0005167312812745843,0.00013191282998186485,-0.12113397239520599,2.96886076631141e-06
2022-11-10 10:29:15,-0.013682594474972538,0.0017656067669172102,-0.0009235204158780729,0.00011917139681681564,-0.12113397239520599,2.96886076631141e-06
2022-11-10 10:29:18,-0.010605079190305323,0.002003151584417549,-0.0007237109809410285,0.00013669891305080037,-0.12113397239520599,2.96886076631141e-06
2022-11-10 10:29:21,-0.008508641887084828,0.0025966547026438306,-0.0005755221772261815,0.00017563700386057644,-0.12113397239520599,2.96886076631141e-06
2022-11-10 10:29:24,-0.0038758224180989397,0.0019391468301240104,-0.00027942188880485054,0.00013980002474131876,-0.12113397239520599,2.96886076631141e-06
2022-11-10 10:29:27,-0.015037185925605023,0.002316058360226185,-0.0009610006678867689,0.00014801530299975632,-0.12113397239520599,2.96886076631141e-06
2022-11-10 10:29:30,-0.01151842077148588,0.0022485310441190116,-0.0007582879906433377,0.00014802672355615132,-0.12113397239520599,2.96886076631141e-06
2022-11-10 10:29:33,-0.01368365117241737,0.0022155554335376686,-0.0008263482110969216,0.00013379618100616065,-0.080761919318337,2.96886076631141e-06
2022-11-10 10:29:36,-0.012513636482806732,0.002347078881981643,-0.0007139175582955247,0.00013390358804601403,-0.080761919318337,2.96886076631141e-06
2022-11-10 10:29:39,-0.009055224645316166,0.002299359567033078,-0.0005159496732227225,0.00013101318450955287,-0.080761919318337,2.96886076631141e-06
2022-11-10 10:29:42,-0.010274449509290986,0.0018512197377564639,-0.0006098292944467899,0.00010987722753624201,-0.080761919318337,2.96886076631141e-06
2022-11-10 10:32:03,-0.009750412576881756,0.0012028408766372204,-0.0005384055830173034,6.641936824277632e-05,-0.080761919318337,2.96886076631141e-06
2022-11-10 10:32:06,-0.010737861432764801,0.002964322447303312,-0.0006024072924384339,0.00016630215155744173,-0.080761919318337,2.96886076631141e-06
2022-11-10 10:32:09,-0.012042842683739384,0.002249527422670524,-0.0006843066582830607,0.0001278241885034563,-0.080761919318337,2.96886076631141e-06
2022-11-10 10:32:12,-0.003700747648553866,0.0020990457385117764,-0.00022084987407726655,0.0001252649548298433,-0.080761919318337,2.96886076631141e-06
2022-11-10 10:32:15,-0.011549431389709977,0.002646043763054111,-0.0006956144859708733,0.0001593694364670832,-0.080761919318337,2.96886076631141e-06
2022-11-10 10:32:18,-0.01872166255073886,0.0019602811016861364,-0.0012223419027970926,0.00012798723005279507,-0.04038689738070125,2.96886076631141e-06
2022-11-10 10:32:21,-0.014168415496224213,0.00107205424261136,-0.0010038912289751136,7.595950665266062e-05,-0.04038689738070125,2.96886076631141e-06
2022-11-10 10:32:24,-0.0200994711270611,0.0012970285077372927,-0.0013394821751692599,8.643742692619391e-05,-0.04038689738070125,2.96886076631141e-06
2022-11-10 10:32:27,-0.004509512574645112,0.0011828182331864025,-0.00034627743179492515,9.082650359395695e-05,-0.04038689738070125,2.96886076631141e-06
2022-11-10 10:32:30,-0.010331455347763092,0.0009220906861417478,-0.0007484830483226052,6.680271310882542e-05,-0.04038689738070125,2.96886076631141e-06
2022-11-10 10:32:33,-0.011006548170263716,0.0015983530747995347,-0.0008021986476060822,0.0001164939865947535,-0.04038689738070125,2.96886076631141e-06
2022-11-10 10:32:36,-0.010601781423812719,0.001629431680296664,-0.0008058977402838864,0.00012386176026498455,-0.04038689738070125,2.96886076631141e-06
2022-11-10 10:32:39,-0.0075210024123097225,0.0016323508445389963,-0.0005619137939456057,0.00012195720807162109,-0.04038689738070125,2.96886076631141e-06
2022-11-10 10:32:42,-0.012230417051525373,0.0013406184020733933,-0.0009265416946398721,0.00010156144642406614,-0.04038689738070125,2.96886076631141e-06
2022-11-10 10:32:45,-0.012805666014051888,0.0012454331957943926,-0.0009532326181726084,9.270798915756864e-05,-0.04038689738070125,2.96886076631141e-06
2022-11-10 10:32:48,-0.00915677068291179,0.0013842740328123583,-0.0006279011947812439,9.492290996536511e-05,-0.04038689738070125,2.96886076631141e-06
2022-11-10 10:32:51,-0.00793883100926158,0.001416556558738787,-0.0004828770338152666,8.616163116677433e-05,-1.18754430655094e-05,2.96886076631141e-06
2022-11-10 10:32:54,-0.010692186604302064,0.0015746170521832093,-0.000605414605852797,8.915820470557693e-05,-1.18754430655094e-05,2.96886076631141e-06
2022-11-10 10:32:57,-0.016893447958736898,0.0013782673888363438,-0.0009679764004876606,7.89732391643205e-05,-1.18754430655094e-05,2.96886076631141e-06
2022-11-10 10:33:00,-0.01666826745428127,0.001239925769128574,-0.0009914057512619304,7.374908892142844e-05,-1.18754430655094e-05,2.96886076631141e-06
2022-11-10 10:33:03,-0.00841065018750334,0.0017080448821172873,-0.0005026893055544926,0.00010208674436646857,-1.18754430655094e-05,2.96886076631141e-06
2022-11-10 10:33:06,-0.008920187028662449,0.001443284709931971,-0.0005041440530557797,8.157042010896535e-05,-1.18754430655094e-05,2.96886076631141e-06
2022-11-10 10:33:09,-0.014714715503598224,0.0015774455885977437,-0.0008202011289258386,8.792712657411364e-05,-1.18754430655094e-05,2.96886076631141e-06
2022-11-10 10:33:12,-0.019638532848389997,0.0010660122119441912,-0.0011082990862214385,6.016031694014758e-05,-1.18754430655094e-05,2.96886076631141e-06
2022-11-10 10:33:15,-0.006591684974531249,0.0017136175644600975,-0.000416464103517112,0.0001082667338490037,-1.18754430655094e-05,2.96886076631141e-06
2022-11-10 10:33:18,-0.018168007001760005,0.001364834554674369,-0.0009768532709602835,7.338411411466997e-05,-1.18754430655094e-05,2.96886076631141e-06
2022-11-10 10:33:21,-0.01073533665279746,0.0009616613670859594,-0.0006809557808387716,6.0999378809034064e-05,-1.18754430655094e-05,2.96886076631141e-06
2022-11-10 10:33:24,-0.0046443899250399375,0.0010159894792811366,-0.0003177666895226899,6.951346003065669e-05,0.04036314649457025,2.96886076631141e-06
2022-11-10 10:33:27,-0.01391959935020189,0.0007095639836945376,-0.0008394338447670735,4.279088844121851e-05,0.04036314649457025,2.96886076631141e-06
2022-11-10 10:33:30,-0.010934328498275768,0.0010822219075476002,-0.0006373785636731978,6.308435356749431e-05,0.04036314649457025,2.96886076631141e-06
2022-11-10 10:33:33,-0.009905330968191375,0.0009701364854520243,-0.0006845986131946792,6.70501666913291e-05,0.04036314649457025,2.96886076631141e-06
2022-11-10 10:33:36,-0.013655638944867684,0.0012998784794590913,-0.0009080191104666759,8.643421998769431e-05,0.04036314649457025,2.96886076631141e-06
2022-11-10 10:33:39,-0.0117965526443527,0.0009952112622486427,-0.0007963028550693704,6.717975949568371e-05,0.04036314649457025,2.96886076631141e-06
2022-11-10 10:33:42,-0.005063976536914168,0.0008666612244348957,-0.00034625127336641306,5.925828256714997e-05,0.04036314649457025,2.96886076631141e-06
2022-11-10 10:33:45,-0.00949833166907135,0.0009562253331064107,-0.000632340767413021,6.365962802975031e-05,0.04036314649457025,2.96886076631141e-06
2022-11-10 10:33:48,-0.007068584882621678,0.001361731938883609,-0.0004965282412749042,9.565399240858657e-05,0.04036314649457025,2.96886076631141e-06
2022-11-10 10:33:51,-0.013795274125529444,0.0007647921712914486,-0.0008683372121138038,4.813949297583762e-05,0.04036314649457025,2.96886076631141e-06
2022-11-10 10:33:54,-0.009759764701989766,0.00113577440760921,-0.0005967728864764631,6.944833121610577e-05,0.04036314649457025,2.96886076631141e-06
2022-11-10 10:33:57,-0.005927021870165162,0.0013654261383693718,-0.0003802002954615812,8.758790377544783e-05,0.0807351995714395,2.96886076631141e-06
2022-11-10 10:34:00,-0.020000124777625982,0.0005809392252418521,-0.0011273549194723708,3.274603037594695e-05,0.0807351995714395,2.96886076631141e-06
2022-11-10 10:34:03,-0.014142400841382671,0.0010216548716322103,-0.0007958237315646724,5.7490747252365474e-05,0.0807351995714395,2.96886076631141e-06
2022-11-10 10:34:06,-0.012922459144816498,0.0004669158912694422,-0.0007394938764710562,2.6719484159427854e-05,0.0807351995714395,2.96886076631141e-06
2022-11-10 10:34:09,-0.015367361021839344,0.0008991040112357153,-0.0009138384807093916,5.346629408001133e-05,0.0807351995714395,2.96886076631141e-06
2022-11-10 10:34:12,-0.01319377762723831,0.0006141488683854048,-0.0007676293422086785,3.573189613895085e-05,0.0807351995714395,2.96886076631141e-06
2022-11-10 10:34:15,-0.012407652644613774,0.0005416980804011525,-0.0007151468191466567,3.122215540946045e-05,0.0807351995714395,2.96886076631141e-06
2022-11-10 10:34:18,-0.011313278242194623,-0.00018909652501332094,-0.0006507970599689545,-1.0877789787758503e-05,0.0807351995714395,2.96886076631141e-06
2022-11-10 10:34:21,-0.008841084399135836,0.0016302997707985495,-0.0005073462636999423,9.355486952554859e-05,0.0807351995714395,2.96886076631141e-06
2022-11-10 10:34:24,-0.009485246946115952,0.0004668528506614934,-0.0005784247854118222,2.8469396895707422e-05,0.0807351995714395,2.96886076631141e-06
2022-11-10 10:34:27,-0.01777771886990252,0.00015787139127864313,-0.0010714703271392438,9.5149727868423e-06,0.0807351995714395,2.96886076631141e-06
2022-11-10 10:34:30,-0.008739726520014384,0.00011966281003424268,-0.0005481235071288964,7.504811387251514e-06,0.12110725264830852,2.96886076631141e-06
2022-11-10 10:34:33,-0.007071691170030607,0.0006703481079721115,-0.0004999599453677385,4.739279408289731e-05,0.12110725264830852,2.96886076631141e-06
2022-11-10 10:34:36,-0.006751727983310255,4.1553214370369167e-05,-0.0005108372405026911,3.1439254388576474e-06,0.12110725264830852,2.96886076631141e-06
2022-11-10 10:34:39,-0.00765169907943899,-0.0004795399780056456,-0.0006165664205338463,-3.86408619408878e-05,0.12110725264830852,2.96886076631141e-06
2022-11-10 10:34:42,-0.011123578551655293,0.0006153814289457401,-0.0008197525510088471,4.5350558175064225e-05,0.12110725264830852,2.96886076631141e-06
2022-11-10 10:34:45,-0.009200180086542933,9.200587678627389e-05,-0.0006679115458774234,6.679411361089901e-06,0.12110725264830852,2.96886076631141e-06
2022-11-10 10:34:48,-0.007591404308226589,-7.275575861437713e-05,-0.0005748077629580934,-5.508937892575341e-06,0.12110725264830852,2.96886076631141e-06
2022-11-10 10:34:51,-0.013934479310541913,-0.00020160582602369984,-0.0010521095234666653,-1.5222054934297307e-05,0.12110725264830852,2.96886076631141e-06
2022-11-10 10:34:54,-0.008265914178041109,0.0005057609385289548,-0.0006061069014517415,3.708545585211434e-05,0.12110725264830852,2.96886076631141e-06
2022-11-10 10:34:57,-0.01107488708409645,0.0006191662577237472,-0.0007930360581058939,4.433644917631037e-05,0.12110725264830852,2.96886076631141e-06
2022-11-10 10:35:00,-0.00845858171302201,0.0006948406073044753,-0.0005889317165845035,4.8378520831980385e-05,0.12110725264830852,2.96886076631141e-06
2022-11-10 10:35:03,-0.012387616758790866,3.304231630169897e-05,-0.0007872132613360108,2.099786430630213e-06,0.161482274585944,2.96886076631141e-06
2022-11-10 10:35:06,-0.016060352954702803,-0.0002995524182615904,-0.0009441428015844839,-1.7609840842015214e-05,0.161482274585944,2.96886076631141e-06
2022-11-10 10:35:09,-0.014946987750106212,0.0005050145238670186,-0.0008314813736008496,2.8093297259198183e-05,0.161482274585944,2.96886076631141e-06
2022-11-10 10:35:12,-0.014318164745490811,-0.0007166278244782308,-0.0008374629681322259,-4.191523673609655e-05,0.161482274585944,2.96886076631141e-06
2022-11-10 10:35:15,-0.008643322541713688,-0.00040356160181963957,-0.0005000009689222709,-2.3345327095665326e-05,0.161482274585944,2.96886076631141e-06
2022-11-10 10:35:18,-0.007226279682842681,-0.0001068392526013325,-0.0004180958197658704,-6.1814719136299825e-06,0.161482274585944,2.96886076631141e-06
2022-11-10 10:35:21,-0.015421793535148422,-0.00010521192918314462,-0.0008916895783640026,-6.083363816170985e-06,0.161482274585944,2.96886076631141e-06
2022-11-10 10:35:24,-0.010087810932503058,0.0001389101543255466,-0.0006039172770134986,8.316000637909808e-06,0.161482274585944,2.96886076631141e-06
2022-11-10 10:35:27,-0.01370265617267118,-0.0006131849052910716,-0.0008023157648625499,-3.590310594466829e-05,0.161482274585944,2.96886076631141e-06
2022-11-10 10:35:30,-0.010123257530757546,-6.0941832028953884e-05,-0.0005471265820118085,-3.2936923868856844e-06,0.161482274585944,2.96886076631141e-06
2022-11-10 10:35:33,-0.010289600783294692,0.0003532281061848861,-0.0006099930086359163,2.0940236629617223e-05,0.161482274585944,2.96886076631141e-06
2022-11-10 10:35:36,-0.00453548285087571,-0.0008450098081079543,-0.00030415559983090003,-5.666749792658665e-05,0.2018572965235795,2.96886076631141e-06
2022-11-10 10:35:39,-0.020192412139458004,-0.0003768320164800699,-0.0012366438105743738,-2.3078321578812985e-05,0.2018572965235795,2.96886076631141e-06
2022-11-10 10:35:42,-0.007389089983211586,-3.758848760075e-05,-0.0004709545148010283,-2.395757526344469e-06,0.2018572965235795,2.96886076631141e-06
2022-11-10 10:35:45,-0.019392220528275186,-0.0006523373004090243,-0.0013169341653251417,-4.430051096892228e-05,0.2018572965235795,2.96886076631141e-06
2022-11-10 10:35:48,-0.010415709238142844,-0.0006173731178832926,-0.000687900432054342,-4.077410619100357e-05,0.2018572965235795,2.96886076631141e-06
2022-11-10 10:35:51,-0.004090018922791318,0.0005109424529140082,-0.00026874412123786747,3.357265164381774e-05,0.2018572965235795,2.96886076631141e-06
2022-11-10 10:35:54,-0.008759744354970447,-0.0009043570028032793,-0.0006045130474849375,-6.240999572878505e-05,0.2018572965235795,2.96886076631141e-06
2022-11-10 10:35:57,-0.01381629408815231,-0.0005626643096575822,-0.0009989234199334303,-4.068084776507535e-05,0.2018572965235795,2.96886076631141e-06
2022-11-10 10:36:00,-0.01746100063223658,-0.0005533169224330764,-0.0011773318120282734,-3.730814909377841e-05,0.2018572965235795,2.96886076631141e-06
2022-11-10 10:36:03,-0.004451146218612845,-4.143732623446497e-05,-0.00028540656226466184,-2.656952669980708e-06,0.2018572965235795,2.96886076631141e-06
2022-11-10 10:36:06,-0.005741551663224542,0.0003884452039902824,-0.0003656741138144258,2.4739715684250434e-05,0.2018572965235795,2.96886076631141e-06
2022-11-10 10:36:09,-0.012819800251459623,-0.00093757147146316,-0.0007702065281412578,-5.632877687292452e-05,0.242232318461215,2.96886076631141e-06
2022-11-10 10:36:12,-0.01402820026294301,-0.001285952407255702,-0.0008048027481292505,-7.377553869520336e-05,0.242232318461215,2.96886076631141e-06
2022-11-10 10:36:15,-0.012731816937167913,-0.0010353210042931015,-0.0007319094829640085,-5.951713449019317e-05,0.242232318461215,2.96886076631141e-06
2022-11-10 10:36:18,-0.011249456070786966,-0.0007722400846388246,-0.0006624886940780378,-4.5477783278396216e-05,0.242232318461215,2.96886076631141e-06
2022-11-10 10:36:21,-0.0061420982473167655,-0.0009071397696116144,-0.00035344297833833903,-5.220075762883646e-05,0.242232318461215,2.96886076631141e-06
2022-11-10 10:36:24,-0.01252789878470579,-0.0007217254780944096,-0.0007546159690969739,-4.347301813605608e-05,0.242232318461215,2.96886076631141e-06
2022-11-10 10:36:27,-0.012597128232359964,-0.001101235254661004,-0.0007232332079920193,-6.322472005456264e-05,0.242232318461215,2.96886076631141e-06
2022-11-10 10:36:30,-0.012896312293645167,-0.0007086873988195475,-0.0007274527124543829,-3.997550298216324e-05,0.242232318461215,2.96886076631141e-06
2022-11-10 10:36:33,-0.012126046813503013,-0.0010824362380288336,-0.0007102431285363325,-6.340012635301756e-05,0.242232318461215,2.96886076631141e-06
2022-11-10 10:36:36,-0.01594764557898121,-0.0011672020820257404,-0.0009563417237510285,-6.999428508503356e-05,0.242232318461215,2.96886076631141e-06
2022-11-10 10:36:39,-0.006270665277833294,-0.00015441302125658737,-0.00035317586651615246,-8.696836805570301e-06,0.242232318461215,2.96886076631141e-06
2022-11-10 10:36:42,-0.0036068200650722568,-0.0005812295485553578,-0.00022130252687235972,-3.566231901440992e-05,0.2826073403988505,2.96886076631141e-06
2022-11-10 10:36:45,-0.016016378527813745,-0.0013482623691337724,-0.0011146884543442388,-9.383472635154889e-05,0.2826073403988505,2.96886076631141e-06
2022-11-10 10:36:48,-0.015018011828863276,-0.0009375770056039734,-0.0011028184964603982,-6.884914430875627e-05,0.2826073403988505,2.96886076631141e-06
2022-11-10 10:36:51,-0.010121175436082824,-0.0009335278507760773,-0.000770314557219121,-7.105005713650659e-05,0.2826073403988505,2.96886076631141e-06
2022-11-10 10:36:54,-0.00597285451876611,-0.0013587774701881456,-0.0004473716186845075,-0.00010177352794383618,0.2826073403988505,2.96886076631141e-06
2022-11-10 10:36:57,-0.00791582981670402,-0.001264486654347363,-0.0005915785490233335,-9.44996541815058e-05,0.2826073403988505,2.96886076631141e-06
2022-11-10 10:37:00,-0.012739716450591286,-0.0006858604023071974,-0.0009538842985646838,-5.135369152880385e-05,0.2826073403988505,2.96886076631141e-06
2022-11-10 10:37:03,-0.010047579616087486,-0.0008006705644601192,-0.0007436426399699738,-5.925932364328208e-05,0.2826073403988505,2.96886076631141e-06
2022-11-10 10:37:06,-0.010082993922689997,-0.0007099325962375802,-0.0007638744012388152,-5.3783562801773606e-05,0.2826073403988505,2.96886076631141e-06
2022-11-10 10:37:09,-0.005806418803693246,-0.0011220730552366275,-0.0004236081840240179,-8.186101370585539e-05,0.2826073403988505,2.96886076631141e-06
2022-11-10 10:37:12,-0.009519822634081616,-0.0011413959977539794,-0.0006848133988892862,-8.210691551145022e-05,0.2826073403988505,2.96886076631141e-06
2022-11-10 10:37:15,-0.011973005107953115,-0.0012551484033724845,-0.0007935911809449881,-8.319337498920298e-05,0.32298236233648603,2.96886076631141e-06
2022-11-10 10:37:18,-0.016135748746315706,-0.0013333735825567447,-0.0009814664048957828,-8.11032321480456e-05,0.32298236233648603,2.96886076631141e-06
2022-11-10 10:37:21,-0.013558936709989668,-0.001593742912556621,-0.0008171742347408689,-9.605219589103994e-05,0.32298236233648603,2.96886076631141e-06
2022-11-10 10:37:24,-0.010934159089108081,-0.0017200803195662547,-0.0006154549383135119,-9.681877850373308e-05,0.32298236233648603,2.96886076631141e-06
2022-11-10 10:37:27,-0.01590321272450715,-0.0015110060510463907,-0.0009488952645580106,-9.015703376380849e-05,0.32298236233648603,2.96886076631141e-06
2022-11-10 10:37:30,-0.010378648405698779,-0.001493918248045289,-0.0006254439990548242,-9.002734911083185e-05,0.32298236233648603,2.96886076631141e-06
2022-11-10 10:37:33,-0.00730540570815162,-0.0017038832248342183,-0.0004134376094566742,-9.64285127221257e-05,0.32298236233648603,2.96886076631141e-06
2022-11-10 10:37:36,-0.00911068883433655,-0.001909364221349991,-0.0005119569065501887,-0.00010729289716885986,0.32298236233648603,2.96886076631141e-06
2022-11-10 10:37:39,-0.01541531781382769,-0.0016041755913356647,-0.0009327663612470162,-9.706715406082863e-05,0.32298236233648603,2.96886076631141e-06
2022-11-10 10:37:42,-0.01167763834900258,-0.001957555418546953,-0.000656193556946344,-0.00010999957479635685,0.32298236233648603,2.96886076631141e-06
2022-11-10 10:37:45,-0.009640850856547832,-0.001696585571575003,-0.000571253792030022,-0.00010052856907410809,0.32298236233648603,2.96886076631141e-06
2022-11-10 10:37:48,-0.011599328403215477,-0.001786863350055218,-0.0007347576046236938,-0.0001131885734446906,0.3633573842741215,2.96886076631141e-06
2022-11-10 10:37:51,-0.018182618341268726,-0.0025681278518684073,-0.0011197550272889346,-0.00015815511379477847,0.3633573842741215,2.96886076631141e-06
2022-11-10 10:37:54,-0.009736024096623568,-0.0024306193148331324,-0.0006188178676403045,-0.0001544892089956925,0.3633573842741215,2.96886076631141e-06
2022-11-10 10:37:57,-0.007669454181320935,-0.0017635104597667703,-0.00048796569323287413,-0.00011220258752172431,0.3633573842741215,2.96886076631141e-06
2022-11-10 10:38:00,-0.012670170537139746,-0.0020704286493046864,-0.0008438602635125864,-0.00013789494470219465,0.3633573842741215,2.96886076631141e-06
2022-11-10 10:38:03,-0.009437332653966986,-0.0021421775240044903,-0.0006828166992653543,-0.0001549923733552322,0.3633573842741215,2.96886076631141e-06
2022-11-10 10:38:06,-0.005200516729112427,-0.0023549317327251885,-0.0003536901829073449,-0.00016016028380780472,0.3633573842741215,2.96886076631141e-06
2022-11-10 10:38:09,-0.015544075428555109,-0.0021570759130182613,-0.0010266526320965477,-0.00014247020827395172,0.3633573842741215,2.96886076631141e-06
2022-11-10 10:38:12,-0.017040861900481395,-0.0020026566015249546,-0.0011005802607102716,-0.0001293411294270988,0.3633573842741215,2.96886076631141e-06
2022-11-10 10:38:15,-0.009098518016209698,-0.0019778589781949407,-0.0005960104979204963,-0.00012956227731926508,0.3633573842741215,2.96886076631141e-06
2022-11-10 10:38:18,-0.0059773866258465294,-0.0017751545513822837,-0.0003871855770084915,-0.00011498574247886476,0.3633573842741215,2.96886076631141e-06
2022-11-10 10:38:21,-0.005930964024986581,-0.0023985755841337327,-0.00036239208307647946,-0.00014655708560845193,0.4037324062117575,2.96886076631141e-06
2022-11-10 10:38:24,-0.005039071405129346,-0.0021571115510484575,-0.0002936915233142449,-0.0001257226434103117,0.4037324062117575,2.96886076631141e-06
2022-11-10 10:38:27,-0.013806096042731726,-0.002623684177508684,-0.0008104647818340437,-0.0001540191823919305,0.4037324062117575,2.96886076631141e-06
2022-11-10 10:38:30,-0.014689186373876461,-0.0026660826237182634,-0.0008724359874433124,-0.00015834685238698317,0.4037324062117575,2.96886076631141e-06
2022-11-10 10:38:33,-0.021147740092578002,-0.002421614729306406,-0.0012685101485537798,-0.00014525631800679176,0.4037324062117575,2.96886076631141e-06
2022-11-10 10:38:36,-0.011845549205781895,-0.0027844173931953543,-0.0006446307504315174,-0.0001515270455179889,0.4037324062117575,2.96886076631141e-06
2022-11-10 10:38:39,-0.010907375447561386,-0.002395884892798454,-0.0006170441682019944,-0.00013553827021834774,0.4037324062117575,2.96886076631141e-06
2022-11-10 10:38:42,-0.008513312074173166,-0.0018835064552743968,-0.0004942574837075665,-0.00010935076184450769,0.4037324062117575,2.96886076631141e-06
2022-11-10 10:38:45,-0.010322271595556019,-0.0023174176881512287,-0.0006244307635003242,-0.00014018880272288363,0.4037324062117575,2.96886076631141e-06
2022-11-10 10:38:48,-0.019219918401044055,-0.0031902187404502483,-0.0010854355881874218,-0.0001801660591232816,0.4037324062117575,2.96886076631141e-06
2022-11-10 10:38:51,-0.016003372331869926,-0.002118765537397604,-0.0009430325728956465,-0.00012485274195087257,0.4037324062117575,2.96886076631141e-06
2022-11-10 10:38:54,-0.018337607461240565,-0.0026707078377586884,-0.0012164134878292247,-0.00017715969996454024,0.4441044592886265,2.96886076631141e-06
2022-11-10 10:38:57,0.0014439785036073484,-0.0018703909547961354,9.254419820848253e-05,-0.00011987285878258109,0.4441044592886265,2.96886076631141e-06
2022-11-10 10:39:00,-0.008752975444421017,-0.001962206693119097,-0.0006885973399648043,-0.00015436697131421248,0.4441044592886265,2.96886076631141e-06
2022-11-10 10:39:03,-0.01215036523652278,-0.0022317923156003833,-0.000907158607121222,-0.00016662788064330584,0.4441044592886265,2.96886076631141e-06
2022-11-10 10:39:06,-0.01054033016632576,-0.002529758401329685,-0.0007307328481226523,-0.00017538137159798684,0.4441044592886265,2.96886076631141e-06
2022-11-10 10:39:09,-0.0058804257735251934,-0.002456318476978157,-0.0004295189551904351,-0.00017941478839790658,0.4441044592886265,2.96886076631141e-06
2022-11-10 10:39:12,-0.010095901915640203,-0.0021563494095580985,-0.0008223477636422415,-0.0001756424665570776,0.4441044592886265,2.96886076631141e-06
2022-11-10 10:39:15,-0.006501002970913568,-0.002636197311701202,-0.00047281590842363966,-0.00019172980419985907,0.4441044592886265,2.96886076631141e-06
2022-11-10 10:39:18,-0.013713256920939396,-0.0022632518750581834,-0.0009790196281480763,-0.00016157853833698266,0.4441044592886265,2.96886076631141e-06
2022-11-10 10:39:21,-0.007087639690933061,-0.002460027777343982,-0.0005326581025657101,-0.00018487871636805562,0.4441044592886265,2.96886076631141e-06
2022-11-10 10:39:24,-0.007504695936314831,-0.0020885725377490093,-0.0005621245542892856,-0.0001564404363409177,0.4441044592886265,2.96886076631141e-06
2022-11-10 10:39:27,-0.012078866162670046,-0.002852027026065817,-0.0008105011836963647,-0.00019137320088075154,0.484479481226262,2.96886076631141e-06
2022-11-10 10:39:30,-0.008978588636059125,-0.002943986617776769,-0.0005368607865609657,-0.00017603111527986315,0.484479481226262,2.96886076631141e-06
2022-11-10 10:39:33,-0.009344535437793944,-0.002788706122559715,-0.0005548546504026469,-0.00016558624781392925,0.484479481226262,2.96886076631141e-06
2022-11-10 10:39:36,-0.008979894189119571,-0.003952768296655247,-0.0005517253924428981,-0.00024285838939509615,0.484479481226262,2.96886076631141e-06
2022-11-10 10:39:39,-0.013343827569386088,-0.003375033090208119,-0.0007324310446591639,-0.00018525261954760913,0.484479481226262,2.96886076631141e-06
2022-11-10 10:39:42,-0.015595581438954058,-0.0033869614079636507,-0.0008836971909512629,-0.00019191642798272905,0.484479481226262,2.96886076631141e-06
2022-11-10 10:39:45,-0.010647243192858771,-0.0028694003614774793,-0.0006169073666532017,-0.00016625469981375833,0.484479481226262,2.96886076631141e-06
2022-11-10 10:39:48,-0.012338288325214813,-0.0035579776998454745,-0.000727289149718186,-0.00020972751712639443,0.484479481226262,2.96886076631141e-06
2022-11-10 10:39:51,-0.01293574507631854,-0.0029721168352108036,-0.000747918328624617,-0.00017184171787193095,0.484479481226262,2.96886076631141e-06
2022-11-10 10:39:54,-0.016723970439414693,-0.0037666763408898485,-0.0009826498434245103,-0.00022131849192240954,0.484479481226262,2.96886076631141e-06
2022-11-10 10:39:57,-0.003524911503714266,-0.0032763881225883335,-0.00019466276445915523,-0.00018093809410878382,0.484479481226262,2.96886076631141e-06
2022-11-10 10:40:00,-0.013055841975868235,-0.002666773162473728,-0.0007501444650942756,-0.00015322375463713362,0.484479481226262,2.96886076631141e-06
2022-11-10 10:40:03,-0.01557335847063728,-0.0029326090857383974,-0.0009229081910866222,-0.0001737922460069246,0.484479481226262,2.96886076631141e-06
2022-11-10 10:40:06,-0.012298890488529057,-0.002558833618792277,-0.0007548292154500773,-0.00015704525336994536,0.484479481226262,2.96886076631141e-06
2022-11-10 10:40:09,-0.01474881336214147,-0.0026636635305525447,-0.0008458595766117373,-0.00015276383603664788,0.484479481226262,2.96886076631141e-06
2022-11-10 10:40:12,-0.0034257455603394155,-0.0021054030050017313,-0.00019430596165715013,-0.00011941702860214261,0.484479481226262,2.96886076631141e-06
2022-11-10 10:40:15,-0.014425977004681005,-0.0021611555539691163,-0.0008702910828101819,-0.00013037830342962,0.484479481226262,2.96886076631141e-06
2022-11-10 10:40:18,-0.011547726344047488,-0.0018297744940733163,-0.0006340762953345797,-0.00010047143462988026,0.484479481226262,2.96886076631141e-06
2022-11-10 10:40:21,-0.0048694066499225495,-0.0012634980377808714,-0.0002976388854252064,-7.723038446748236e-05,0.484479481226262,2.96886076631141e-06
2022-11-10 10:40:24,-0.01719636791969732,-0.0017549506744948603,-0.0009916746103343424,-0.00010120393064469363,0.484479481226262,2.96886076631141e-06
2022-11-10 10:40:27,-0.021184818857702275,-0.0010297210665031308,-0.0012167383721953578,-5.9141460811535965e-05,0.484479481226262,2.96886076631141e-06
2022-11-10 10:40:30,-0.010394661337134454,-0.0015208607889307113,-0.0005992236315275538,-8.767344076282852e-05,0.484479481226262,2.96886076631141e-06
2022-11-10 10:40:33,-0.012399977915877311,-0.0009222601200075255,-0.0006789617330161423,-5.049842295043168e-05,0.484479481226262,2.96886076631141e-06
2022-11-10 10:40:36,-0.010036082894148802,-0.0007539644362291374,-0.0005773967264748428,-4.3377142451759e-05,0.484479481226262,2.96886076631141e-06
2022-11-10 10:40:39,-0.012862765808111173,-0.0003942437370011173,-0.0007358077681148891,-2.2552506089564204e-05,0.484479481226262,2.96886076631141e-06
2022-11-10 10:40:42,-0.013294986851866229,0.00011380657325433868,-0.0007886106154909697,6.750595001034093e-06,0.484479481226262,2.96886076631141e-06
2022-11-10 10:40:45,-0.012667153542110385,0.0002819020767975323,-0.0007133619000816851,1.587556355677972e-05,0.484479481226262,2.96886076631141e-06
2022-11-10 10:40:48,-0.011496095495175523,0.0005998363978807791,-0.0006827051705566518,3.562178223842534e-05,0.484479481226262,2.96886076631141e-06
2022-11-10 10:40:51,-0.02057405191871094,0.000708551968310851,-0.0012008264976137897,4.135539182295335e-05,0.484479481226262,2.96886076631141e-06
2022-11-10 10:40:54,-0.0066975872185092,0.0014633321171289783,-0.00038138488891446295,8.33274340039764e-05,0.484479481226262,2.96886076631141e-06
2022-11-10 10:40:57,-0.007427561238589257,0.001102270827956099,-0.0004298319801288458,6.378826608080867e-05,0.484479481226262,2.96886076631141e-06
2022-11-10 10:41:00,-0.012715944490184242,0.0017001319365783849,-0.0007332620987690363,9.803772837810414e-05,-2.078202536465175e-05,2.96886076631141e-06
2022-11-10 10:41:03,-0.013749590539560876,0.0015703484162632522,-0.0007848138651041641,8.963402994305649e-05,-2.078202536465175e-05,2.96886076631141e-06
2022-11-10 10:41:06,-0.010779307874773368,0.0016882326569974248,-0.0006363949047777204,9.967083911824001e-05,-2.078202536465175e-05,2.96886076631141e-06
2022-11-10 10:41:09,-0.01300713398717081,0.00123965426711189,-0.0007245433660502069,6.905312702380454e-05,-2.078202536465175e-05,2.96886076631141e-06
2022-11-10 10:41:12,-0.008735770808999468,0.002016745334605904,-0.0005189272480475613,0.00011979985846488382,-2.078202536465175e-05,2.96886076631141e-06
2022-11-10 10:41:15,-0.008667764387863099,0.001018429540585368,-0.0005404509384078883,6.350094168253829e-05,-2.078202536465175e-05,2.96886076631141e-06
2022-11-10 10:41:18,-0.012737554990534286,0.0013794806158640778,-0.0006714162282542963,7.271455728683159e-05,-2.078202536465175e-05,2.96886076631141e-06
