TS,Nominal_Displacement_B1_sepPlane,Nominal_Displacement_B2_sepPlane,Nominal_Displacement_B1_xingPlane,Nominal_Displacement_B2_xingPlane,y_pos,x_pos,1_comp_x,1_comp_y,1_comp_decouple_x,1_comp_decouple_y
2022-11-10 10:07:33,0.0,0.0,-0.403756157097888,-0.484500263251627,0.0,-0.44412821017475745,-0.002855445782078808,-0.000857101085226449,-0.00018294244187536606,-5.491267473872326e-05
2022-11-10 10:07:36,0.0,0.0,-0.403756157097888,-0.484500263251627,0.0,-0.44412821017475745,-0.0008805840372890514,-0.0008660379869251103,-5.719978029381996e-05,-5.625491773700852e-05
2022-11-10 10:07:39,0.0,0.0,-0.403756157097888,-0.484500263251627,0.0,-0.44412821017475745,-0.004309079754270569,-0.0010187569086503988,-0.00029052186365064576,-6.86854671034479e-05
2022-11-10 10:07:42,0.0,0.0,-0.403756157097888,-0.484500263251627,0.0,-0.44412821017475745,-3.9583004924148915e-05,-0.0006340849872765765,-2.887809418813884e-06,-4.626017155834085e-05
2022-11-10 10:07:45,0.0,0.0,-0.403756157097888,-0.484500263251627,0.0,-0.44412821017475745,-0.0020510220966336755,-0.0008096519445197105,-0.00013975984800094856,-5.51709476389701e-05
2022-11-10 10:07:48,0.0,0.0,-0.403756157097888,-0.484500263251627,0.0,-0.44412821017475745,-0.00266252491844578,-0.0009589433706722449,-0.0001810818958478625,-6.521902663485095e-05
2022-11-10 10:07:51,0.0,0.0,-0.403756157097888,-0.484500263251627,0.0,-0.44412821017475745,-0.00266252491844578,-0.0009589433706722449,-0.0001885516905235666,-6.790937144061174e-05
2022-11-10 10:07:54,0.0,0.0,-0.403756157097888,-0.484500263251627,0.0,-0.44412821017475745,-0.0022168059027540534,-0.0006516728987690174,-0.00015150938215220252,-4.453910833382641e-05
2022-11-10 10:07:57,0.0,0.0,-0.403756157097888,-0.484500263251627,0.0,-0.44412821017475745,-0.0016360917214665559,-0.0014176523098992522,-0.00010894886926581031,-9.440278570515635e-05
2022-11-10 10:08:00,0.0,0.0,-0.403756157097888,-0.484500263251627,0.0,-0.44412821017475745,-0.0003488963567099294,-7.192802730881728e-05,-2.4380258062301394e-05,-5.026202865050784e-06
2022-11-10 10:08:03,0.0,0.0,-0.403756157097888,-0.484500263251627,0.0,-0.44412821017475745,-0.004941093799040231,-0.0011497272182617573,-0.000313791332301733,-7.301509549808583e-05
2022-11-10 10:08:06,0.0,0.0,-0.403756157097888,-0.403750219376356,0.0,-0.40375318823712203,-0.0044275135880267194,-0.0008110393090766527,-0.00026449063132237045,-4.8449834115709205e-05
2022-11-10 10:08:09,0.0,0.0,-0.403756157097888,-0.403750219376356,0.0,-0.40375318823712203,-0.0014369775345890318,-0.0008580629717012105,-8.350386348347983e-05,-4.9862695501122695e-05
2022-11-10 10:08:12,0.0,0.0,-0.403756157097888,-0.403750219376356,0.0,-0.40375318823712203,-0.0023274463794347236,-0.0011638518661240878,-0.00014121867436289062,-7.061714467026232e-05
2022-11-10 10:08:15,0.0,0.0,-0.403756157097888,-0.403750219376356,0.0,-0.40375318823712203,-0.002358529725167341,-0.0008674556020949135,-0.0001369144448090908,-5.0356457622739504e-05
2022-11-10 10:08:18,0.0,0.0,-0.403756157097888,-0.403750219376356,0.0,-0.40375318823712203,-0.002679413468219126,-0.0008301395907923661,-0.0001599712921072394,-4.9562527226040404e-05
2022-11-10 10:08:21,0.0,0.0,-0.403756157097888,-0.403750219376356,0.0,-0.40375318823712203,-0.004005656506221832,-0.0013250630822090482,-0.0002348177027975596,-7.767722183439543e-05
2022-11-10 10:08:24,0.0,0.0,-0.403756157097888,-0.403750219376356,0.0,-0.40375318823712203,-0.0040008887919238175,-0.0009655616555268691,-0.00023098632895800675,-5.5745499010864235e-05
2022-11-10 10:08:27,0.0,0.0,-0.403756157097888,-0.403750219376356,0.0,-0.40375318823712203,-0.00048758338065611057,-0.0009648028804892551,-3.0403825548131605e-05,-6.016139932263001e-05
2022-11-10 10:08:30,0.0,0.0,-0.403756157097888,-0.403750219376356,0.0,-0.40375318823712203,-0.00336714280311791,-0.0010408742866826358,-0.00020230445615145831,-6.25377415814918e-05
2022-11-10 10:08:33,0.0,0.0,-0.403756157097888,-0.403750219376356,0.0,-0.40375318823712203,-0.004121148779021964,-0.0010157472116846212,-0.0002348389823681026,-5.788120117125789e-05
2022-11-10 10:08:36,0.0,0.0,-0.403756157097888,-0.403750219376356,0.0,-0.40375318823712203,-0.0012265888788147977,-0.0013956564461079096,-6.700949738659226e-05,-7.624578910940012e-05
2022-11-10 10:08:39,0.0,0.0,-0.403756157097888,-0.323000175501085,0.0,-0.3633781662994865,-0.004060317124903944,-0.0013771733809364124,-0.00024237337604260395,-8.220790432507459e-05
2022-11-10 10:08:42,0.0,0.0,-0.403756157097888,-0.323000175501085,0.0,-0.3633781662994865,-0.0013243024941010971,-0.0009471303767853824,-8.392509589465834e-05,-6.0022546246438614e-05
2022-11-10 10:08:45,0.0,0.0,-0.403756157097888,-0.323000175501085,0.0,-0.3633781662994865,-0.00444659792286206,-0.0012576710718421235,-0.0002887233914907553,-8.166221986816138e-05
2022-11-10 10:08:48,0.0,0.0,-0.403756157097888,-0.323000175501085,0.0,-0.3633781662994865,-0.002136393184026526,-0.0005663295366013519,-0.00014545161256347247,-3.8557295986939436e-05
2022-11-10 10:08:51,0.0,0.0,-0.403756157097888,-0.323000175501085,0.0,-0.3633781662994865,-0.0005011713322101864,-0.000992291734735029,-3.530591021106959e-05,-6.990376471703015e-05
2022-11-10 10:08:54,0.0,0.0,-0.403756157097888,-0.323000175501085,0.0,-0.3633781662994865,-0.00016537006866168893,-0.0017305534600294582,-1.1820998708833447e-05,-0.000123703584222522
2022-11-10 10:08:57,0.0,0.0,-0.403756157097888,-0.323000175501085,0.0,-0.3633781662994865,-0.00026905256885029726,-0.0010429060030901546,-1.577772088815011e-05,-6.115786182472087e-05
2022-11-10 10:09:00,0.0,0.0,-0.403756157097888,-0.323000175501085,0.0,-0.3633781662994865,-0.006717373001683039,-0.0005381270914977879,-0.0004518804419985476,-3.620003056201989e-05
2022-11-10 10:09:03,0.0,0.0,-0.403756157097888,-0.323000175501085,0.0,-0.3633781662994865,0.0013579201752703532,-0.0013597699414350942,8.868784681450936e-05,-8.880865787634408e-05
2022-11-10 10:09:06,0.0,0.0,-0.403756157097888,-0.323000175501085,0.0,-0.3633781662994865,-0.004267721268331066,-0.0005101451284277659,-0.00028813493763822407,-3.4442416813097126e-05
2022-11-10 10:09:09,0.0,0.0,-0.403756157097888,-0.323000175501085,0.0,-0.3633781662994865,-0.0001614928190552924,-0.0012030769156477624,-1.0407591113760252e-05,-7.753368038103739e-05
2022-11-10 10:09:12,0.0,0.0,-0.323006113222617,-0.323000175501085,0.0,-0.323003144361851,-0.0001614928190552924,-0.0012030769156477624,-9.137607640500888e-06,-6.807265413311868e-05
2022-11-10 10:09:15,0.0,0.0,-0.323006113222617,-0.323000175501085,0.0,-0.323003144361851,-0.0025088245092571328,-0.0008393235292996071,-0.0001447854216287291,-4.8437748684358715e-05
2022-11-10 10:09:18,0.0,0.0,-0.323006113222617,-0.323000175501085,0.0,-0.323003144361851,-0.00026043894541311063,-0.0009814093288940812,-1.5231035091588483e-05,-5.73949487619357e-05
2022-11-10 10:09:21,0.0,0.0,-0.323006113222617,-0.323000175501085,0.0,-0.323003144361851,-0.00408386545330633,-0.0006467085822424064,-0.00023009931428078347,-3.643783151401325e-05
2022-11-10 10:09:24,0.0,0.0,-0.323006113222617,-0.323000175501085,0.0,-0.323003144361851,-0.0015180600297541036,-0.0014301096575476333,-8.687450028687465e-05,-8.184133658733414e-05
2022-11-10 10:09:27,0.0,0.0,-0.323006113222617,-0.323000175501085,0.0,-0.323003144361851,-0.001239866628840498,-0.0009087258438518191,-7.264458167432682e-05,-5.324283051718248e-05
2022-11-10 10:09:30,0.0,0.0,-0.323006113222617,-0.323000175501085,0.0,-0.323003144361851,-0.0024999197904353315,-0.0005922258235103225,-0.00014996449635213473,-3.552627875872291e-05
2022-11-10 10:09:33,0.0,0.0,-0.323006113222617,-0.323000175501085,0.0,-0.323003144361851,-0.0027072378349709903,-0.0006349782936378341,-0.00016400284713048745,-3.846660484625629e-05
2022-11-10 10:09:36,0.0,0.0,-0.323006113222617,-0.323000175501085,0.0,-0.323003144361851,-0.004539030018117511,-0.0008323838304357799,-0.00025642020138243307,-4.702326897506276e-05
2022-11-10 10:09:39,0.0,0.0,-0.323006113222617,-0.323000175501085,0.0,-0.323003144361851,-0.0007035341079229471,-0.0008859156762663391,-4.0719632362292895e-05,-5.127563857288971e-05
2022-11-10 10:09:42,0.0,0.0,-0.323006113222617,-0.323000175501085,0.0,-0.323003144361851,-3.212586394527733e-05,-0.001344951225542023,-1.917084276924771e-06,-8.025884851250358e-05
2022-11-10 10:09:45,0.0,0.0,-0.242262007068879,-0.323000175501085,0.0,-0.282631091284982,-0.001499754053992797,-0.0009788666400747268,-9.474419505214715e-05,-6.183809380636304e-05
2022-11-10 10:09:48,0.0,0.0,-0.242262007068879,-0.323000175501085,0.0,-0.282631091284982,-0.0030292893271509514,-0.001199539125408964,-0.00020255639423732622,-8.020835705975735e-05
2022-11-10 10:09:51,0.0,0.0,-0.242262007068879,-0.323000175501085,0.0,-0.282631091284982,-0.0001491421922450711,-0.0008779301089757432,-1.0254509602610634e-05,-6.0363486665928935e-05
2022-11-10 10:09:54,0.0,0.0,-0.242262007068879,-0.323000175501085,0.0,-0.282631091284982,-0.002893378999074622,-0.0007209340224642608,-0.0002114387635056524,-5.268352273509683e-05
2022-11-10 10:09:57,0.0,0.0,-0.242262007068879,-0.323000175501085,0.0,-0.282631091284982,0.0008869698900826721,-0.000869809150463508,6.32635661417794e-05,-6.20395679000379e-05
2022-11-10 10:10:00,0.0,0.0,-0.242262007068879,-0.323000175501085,0.0,-0.282631091284982,-0.0027482429228485464,0.0005062172044426154,-0.00018010377629636755,3.317451648408366e-05
2022-11-10 10:10:03,0.0,0.0,-0.242262007068879,-0.323000175501085,0.0,-0.282631091284982,-0.003626724339781941,0.00047720686552769377,-0.0002373234123384215,3.122717667733299e-05
2022-11-10 10:10:06,0.0,0.0,-0.242262007068879,-0.323000175501085,0.0,-0.282631091284982,-0.003410279010205866,-0.0007307875112386088,-0.0002335096580366947,-5.003870397000551e-05
2022-11-10 10:10:09,0.0,0.0,-0.242262007068879,-0.323000175501085,0.0,-0.282631091284982,8.623893759164038e-06,-0.0007154897598420735,5.969182463887268e-07,-4.9523904709538297e-05
2022-11-10 10:10:12,0.0,0.0,-0.242262007068879,-0.323000175501085,0.0,-0.282631091284982,-0.00025091775830100426,-0.0006574284871711748,-1.7116061723228078e-05,-4.484571614708726e-05
2022-11-10 10:10:15,0.0,0.0,-0.242262007068879,-0.323000175501085,0.0,-0.282631091284982,-0.004642667267025351,-0.0007451524691863658,-0.0003232290121341467,-5.1878560890009616e-05
2022-11-10 10:10:18,0.0,0.0,-0.242262007068879,-0.242250131625813,0.0,-0.242256069347346,-0.004769443581189631,-0.001349197965062639,-0.0003097465062742893,-8.762224541217761e-05
2022-11-10 10:10:21,0.0,0.0,-0.242262007068879,-0.242250131625813,0.0,-0.242256069347346,0.002850217311004896,-0.0015841340764470128,0.00014880541695919323,-8.270517860333048e-05
2022-11-10 10:10:24,0.0,0.0,-0.242262007068879,-0.242250131625813,0.0,-0.242256069347346,-0.0025063080207861285,-0.000555392958367977,-0.00014654698467241994,-3.2474525350476576e-05
2022-11-10 10:10:27,0.0,0.0,-0.242262007068879,-0.242250131625813,0.0,-0.242256069347346,-0.0013127202755432114,-0.0017486244640365703,-7.36133761458364e-05,-9.805756245798036e-05
2022-11-10 10:10:30,0.0,0.0,-0.242262007068879,-0.242250131625813,0.0,-0.242256069347346,-0.005158206665712001,-0.0007367886075824257,-0.00030129149100370517,-4.303591393665326e-05
2022-11-10 10:10:33,0.0,0.0,-0.242262007068879,-0.242250131625813,0.0,-0.242256069347346,0.001534418937079795,-0.0010244013683151313,9.325247405766832e-05,-6.225676685485206e-05
2022-11-10 10:10:36,0.0,0.0,-0.242262007068879,-0.242250131625813,0.0,-0.242256069347346,-0.0036364850282031838,-0.0012139116313612816,-0.0002219723369300319,-7.409759686896081e-05
2022-11-10 10:10:39,0.0,0.0,-0.242262007068879,-0.242250131625813,0.0,-0.242256069347346,-0.002323570065563857,-0.0011421195595453567,-0.0001327897819572914,-6.527102820305188e-05
2022-11-10 10:10:42,0.0,0.0,-0.242262007068879,-0.242250131625813,0.0,-0.242256069347346,-0.0024122753103200875,-0.0013267221662537892,-0.00013953976808094414,-7.674518020181385e-05
2022-11-10 10:10:45,0.0,0.0,-0.242262007068879,-0.242250131625813,0.0,-0.242256069347346,-0.0028207251774030346,-0.0007788157346966373,-0.00016556979031684494,-4.571461229977074e-05
2022-11-10 10:10:48,0.0,0.0,-0.242262007068879,-0.242250131625813,0.0,-0.242256069347346,-0.0009110378660771527,-0.0011305778908993827,-5.601209663633549e-05,-6.950977608937027e-05
2022-11-10 10:10:51,0.0,0.0,-0.242262007068879,-0.161500087750542,0.0,-0.2018810474097105,-0.00016259246490663536,-0.0007485599654399756,-9.674564330061316e-06,-4.4540757437412925e-05
2022-11-10 10:10:54,0.0,0.0,-0.242262007068879,-0.161500087750542,0.0,-0.2018810474097105,-0.0013642942319333964,-0.0010097147208877055,-8.294981378611823e-05,-6.139119122129837e-05
2022-11-10 10:10:57,0.0,0.0,-0.242262007068879,-0.161500087750542,0.0,-0.2018810474097105,-0.0032607619193115427,-0.0009394810934551809,-0.00020850107593487163,-6.0072714185533795e-05
2022-11-10 10:11:00,0.0,0.0,-0.242262007068879,-0.161500087750542,0.0,-0.2018810474097105,-0.0008165125237243739,-0.0008350436089591354,-5.801796886455715e-05,-5.933471036568295e-05
2022-11-10 10:11:03,0.0,0.0,-0.242262007068879,-0.161500087750542,0.0,-0.2018810474097105,-0.002149076526071949,-0.0002627518963273503,-0.0001363494367884229,-1.667045014204621e-05
2022-11-10 10:11:06,0.0,0.0,-0.242262007068879,-0.161500087750542,0.0,-0.2018810474097105,-0.0021328700029871334,-0.0008773726628670958,-0.00015090249953269381,-6.20749167379513e-05
2022-11-10 10:11:09,0.0,0.0,-0.242262007068879,-0.161500087750542,0.0,-0.2018810474097105,-0.00166605167437121,-0.0008027846696151766,-0.00010431638207978836,-5.0264702837010974e-05
2022-11-10 10:11:12,0.0,0.0,-0.242262007068879,-0.161500087750542,0.0,-0.2018810474097105,-0.0019157485391156342,-0.0015503360772455461,-0.00012392927731907675,-0.00010029083970666977
2022-11-10 10:11:15,0.0,0.0,-0.242262007068879,-0.161500087750542,0.0,-0.2018810474097105,-0.0030151151361152073,-0.0014239233578340832,-0.0001988678117610963,-9.391764808451966e-05
2022-11-10 10:11:18,0.0,0.0,-0.242262007068879,-0.161500087750542,0.0,-0.2018810474097105,0.00028997045388725294,-0.0009378120845666667,1.8798746874050536e-05,-6.0798235671449705e-05
2022-11-10 10:11:21,0.0,0.0,-0.242262007068879,-0.161500087750542,0.0,-0.2018810474097105,-0.0014737071018195436,-0.0006715672204233979,-9.183033233014425e-05,-4.184701353299404e-05
2022-11-10 10:11:24,0.0,0.0,-0.16151790091514,-0.161500087750542,0.0,-0.161508994332841,0.0005699217598817974,-0.0011190083362980045,3.577439757103532e-05,-7.024095573457359e-05
2022-11-10 10:11:27,0.0,0.0,-0.16151790091514,-0.161500087750542,0.0,-0.161508994332841,-0.006132462129483037,-0.001129353472785654,-0.0003721280955712632,-6.853106438831704e-05
2022-11-10 10:11:30,0.0,0.0,-0.16151790091514,-0.161500087750542,0.0,-0.161508994332841,-0.004876046493832798,-0.0008837155498815988,-0.0002645776150847894,-4.7951009674895476e-05
2022-11-10 10:11:33,0.0,0.0,-0.16151790091514,-0.161500087750542,0.0,-0.161508994332841,-0.002466899613854304,-0.0009992098920979138,-0.00014239881407737776,-5.767818959881316e-05
2022-11-10 10:11:36,0.0,0.0,-0.16151790091514,-0.161500087750542,0.0,-0.161508994332841,-0.0007860176390122389,-0.0008063375445007803,-4.68290394144043e-05,-4.803965048442515e-05
2022-11-10 10:11:39,0.0,0.0,-0.16151790091514,-0.161500087750542,0.0,-0.161508994332841,-0.0008377525523374507,-0.0008226532296220605,-5.033165520481659e-05,-4.9424497234820755e-05
2022-11-10 10:11:42,0.0,0.0,-0.16151790091514,-0.161500087750542,0.0,-0.161508994332841,-0.0003627784175765092,-0.0009091059629803104,-2.1414696865822224e-05,-5.3664241511911164e-05
2022-11-10 10:11:45,0.0,0.0,-0.16151790091514,-0.161500087750542,0.0,-0.161508994332841,-0.004759982372154358,-0.0011287461170231255,-0.000269677626930768,-6.394930704509011e-05
2022-11-10 10:11:48,0.0,0.0,-0.16151790091514,-0.161500087750542,0.0,-0.161508994332841,-0.002591585248121687,-0.0009243683481199964,-0.00014793413058435072,-5.276524398259088e-05
2022-11-10 10:11:51,0.0,0.0,-0.16151790091514,-0.161500087750542,0.0,-0.161508994332841,-0.0006602549180230628,-0.000959112883325194,-3.6646014494267793e-05,-5.3233476441513334e-05
2022-11-10 10:11:54,0.0,0.0,-0.16151790091514,-0.161500087750542,0.0,-0.161508994332841,-0.002154450106131099,-0.00108464578495889,-0.00013218644473041887,-6.654852191635096e-05
2022-11-10 10:11:57,0.0,0.0,-0.080767857039869,-0.161500087750542,0.0,-0.1211339723952055,-8.528104991488341e-05,-0.0009600789999438782,-5.507680553057419e-06,-6.200449505097936e-05
2022-11-10 10:12:00,0.0,0.0,-0.080767857039869,-0.161500087750542,0.0,-0.1211339723952055,-0.0038916928179460056,-0.0010213633173831085,-0.000268670710401394,-7.05118365955911e-05
2022-11-10 10:12:03,0.0,0.0,-0.080767857039869,-0.161500087750542,0.0,-0.1211339723952055,0.0005900906733936912,-0.0007733135019238214,4.2399767522741826e-05,-5.5564871946200015e-05
2022-11-10 10:12:06,0.0,0.0,-0.080767857039869,-0.161500087750542,0.0,-0.1211339723952055,-0.005082097187402577,-0.0013482871067864192,-0.0003608509661906127,-9.573423869032452e-05
2022-11-10 10:12:09,0.0,0.0,-0.080767857039869,-0.161500087750542,0.0,-0.1211339723952055,0.00038093152966633785,-0.001493492302119143,2.4909412932489422e-05,-9.76606386390899e-05
2022-11-10 10:12:12,0.0,0.0,-0.080767857039869,-0.161500087750542,0.0,-0.1211339723952055,0.0001930378451728016,-0.0007457479521909803,1.2992010383228088e-05,-5.019101373341177e-05
2022-11-10 10:12:15,0.0,0.0,-0.080767857039869,-0.161500087750542,0.0,-0.1211339723952055,-0.0009486455650195387,-0.0008428360409337083,-6.740564931761775e-05,-5.9887393882726624e-05
2022-11-10 10:12:18,0.0,0.0,-0.080767857039869,-0.161500087750542,0.0,-0.1211339723952055,-0.0029961658732554127,-0.0007963177044739136,-0.00020790053746877756,-5.525557854917762e-05
2022-11-10 10:12:21,0.0,0.0,-0.080767857039869,-0.161500087750542,0.0,-0.1211339723952055,-0.002792271925621705,-0.0006949354888600096,-0.00019657737986096535,-4.8923815878743105e-05
2022-11-10 10:12:24,0.0,0.0,-0.080767857039869,-0.161500087750542,0.0,-0.1211339723952055,-0.0014563033304860638,-0.0009843787520166774,-0.00010106468593297765,-6.831401626916352e-05
2022-11-10 10:12:27,0.0,0.0,-0.080767857039869,-0.161500087750542,0.0,-0.1211339723952055,0.003369795029754581,-0.0012266787677079928,0.00021433369754825409,-7.802213299778594e-05
2022-11-10 10:12:30,0.0,0.0,-0.080767857039869,-0.080750043875271,0.0,-0.08075895045757,-0.0056226870753341126,-0.0007663316416921121,-0.0003383285891232361,-4.6111743310697945e-05
2022-11-10 10:12:33,0.0,0.0,-0.080767857039869,-0.080750043875271,0.0,-0.08075895045757,0.002872414984689594,-0.0012326630774952031,0.0001663291459752291,-7.137819501980179e-05
2022-11-10 10:12:36,0.0,0.0,-0.080767857039869,-0.080750043875271,0.0,-0.08075895045757,-0.0005346764292179663,-0.0009945649113587193,-3.0323419871553488e-05,-5.640534676412742e-05
2022-11-10 10:12:39,0.0,0.0,-0.080767857039869,-0.080750043875271,0.0,-0.08075895045757,0.0018870951310536888,-0.0008800048849574461,0.0001094716370780228,-5.10496655985532e-05
2022-11-10 10:12:42,0.0,0.0,-0.080767857039869,-0.080750043875271,0.0,-0.08075895045757,-0.0037686144056859796,-0.0010649128252395862,-0.00023423889634508144,-6.618984540086913e-05
2022-11-10 10:12:45,0.0,0.0,-0.080767857039869,-0.080750043875271,0.0,-0.08075895045757,0.00017207831151649748,-0.0005917469880280472,9.335489599018931e-06,-3.210310354223225e-05
2022-11-10 10:12:48,0.0,0.0,-0.080767857039869,-0.080750043875271,0.0,-0.08075895045757,-0.001643695538401763,-0.0017297435209588097,-9.522803858775395e-05,-0.00010021325659917982
2022-11-10 10:12:51,0.0,0.0,-0.080767857039869,-0.080750043875271,0.0,-0.08075895045757,-0.0014259117290607113,-0.0012372504516678599,-8.454450196403698e-05,-7.335848433615439e-05
2022-11-10 10:12:54,0.0,0.0,-0.080767857039869,-0.080750043875271,0.0,-0.08075895045757,-0.0009402598636822374,-0.0007764661796120058,-5.537270138489532e-05,-4.572675231584312e-05
2022-11-10 10:12:57,0.0,0.0,-0.080767857039869,-0.080750043875271,0.0,-0.08075895045757,-0.00026598399168871467,-0.0009917625057649145,-1.55043117862781e-05,-5.78102276369893e-05
2022-11-10 10:13:00,0.0,0.0,-0.080767857039869,-0.080750043875271,0.0,-0.08075895045757,0.00028271761774076656,-0.000976619017191897,1.5942541565996096e-05,-5.50718748981556e-05
2022-11-10 10:13:03,0.0,0.0,-0.080767857039869,-5.9377215327755e-06,0.0,-0.040386897380700885,-0.0034995787217145923,-0.001035509312614341,-0.00021375710750622863,-6.324974891599441e-05
2022-11-10 10:13:06,0.0,0.0,-0.080767857039869,-5.9377215327755e-06,0.0,-0.040386897380700885,-0.0019408252549044007,-0.0008487621440430356,-0.00012437149998032802,-5.439017279603115e-05
2022-11-10 10:13:09,0.0,0.0,-0.080767857039869,-5.9377215327755e-06,0.0,-0.040386897380700885,-0.0003364218416722778,-0.0008690269848392902,-2.2268718786227354e-05,-5.7523368419940156e-05
2022-11-10 10:13:12,0.0,0.0,-0.080767857039869,-5.9377215327755e-06,0.0,-0.040386897380700885,-0.002235652042269793,-0.0008643777712955478,-0.00014455824566689908,-5.589104737653512e-05
2022-11-10 10:13:15,0.0,0.0,-0.080767857039869,-5.9377215327755e-06,0.0,-0.040386897380700885,-0.0024363823533967606,-0.0011460655590129895,-0.0001575647259080351,-7.411788442268103e-05
2022-11-10 10:13:18,0.0,0.0,-0.080767857039869,-5.9377215327755e-06,0.0,-0.040386897380700885,0.0013151697925458655,-0.0007613003823508102,8.896718283939394e-05,-5.149962438020564e-05
2022-11-10 10:13:21,0.0,0.0,-0.080767857039869,-5.9377215327755e-06,0.0,-0.040386897380700885,0.0023025197637270064,-0.0008321586587879976,0.00014843197931357178,-5.364512338729896e-05
2022-11-10 10:13:24,0.0,0.0,-0.080767857039869,-5.9377215327755e-06,0.0,-0.040386897380700885,-0.0034116479370147395,-0.0008075640323890292,-0.00022437467203970395,-5.3111258331333044e-05
2022-11-10 10:13:27,0.0,0.0,-0.080767857039869,-5.9377215327755e-06,0.0,-0.040386897380700885,-0.0012698666693118522,-0.0008113448699528835,-8.26588266838019e-05,-5.281248544193225e-05
2022-11-10 10:13:30,0.0,0.0,-0.080767857039869,-5.9377215327755e-06,0.0,-0.040386897380700885,-0.0003084147275050483,-0.001019716465423333,-1.9850709110415787e-05,-6.563271181623002e-05
2022-11-10 10:13:33,0.0,0.0,-0.080767857039869,-5.9377215327755e-06,0.0,-0.040386897380700885,-0.0041035949234066275,-0.000993807049422789,-0.000260484617630659,-6.30840650939895e-05
2022-11-10 10:13:36,0.0,0.0,-1.78131645982293e-05,-5.9377215327755e-06,0.0,-1.18754430655024e-05,-0.0026266411450579924,-0.0004959715244121652,-0.00015718748673775973,-2.9680688419324385e-05
2022-11-10 10:13:39,0.0,0.0,-1.78131645982293e-05,-5.9377215327755e-06,0.0,-1.18754430655024e-05,-0.001915016819953999,-0.0013956018537140142,-0.00010971724448174512,-7.995835242157055e-05
2022-11-10 10:13:42,0.0,0.0,-1.78131645982293e-05,-5.9377215327755e-06,0.0,-1.18754430655024e-05,-1.1338795502394486e-05,-0.001455554917806752,-6.503807331099593e-07,-8.348901559473832e-05
2022-11-10 10:13:45,0.0,0.0,-1.78131645982293e-05,-5.9377215327755e-06,0.0,-1.18754430655024e-05,-0.0018963452876814757,-0.0008842444712456096,-0.00010886824923611424,-5.076403970656669e-05
2022-11-10 10:13:48,0.0,0.0,-1.78131645982293e-05,-5.9377215327755e-06,0.0,-1.18754430655024e-05,-0.0024941363716764085,-0.0010214188908505336,-0.00014966101498905166,-6.129038879735934e-05
2022-11-10 10:13:51,0.0,0.0,-1.78131645982293e-05,-5.9377215327755e-06,0.0,-1.18754430655024e-05,0.0011166276240324995,-0.0009609957011459148,6.51568984315878e-05,-5.6075542056386065e-05
2022-11-10 10:13:54,0.0,0.0,-1.78131645982293e-05,-5.9377215327755e-06,0.0,-1.18754430655024e-05,0.0014709645309093373,-0.0010828650249836407,8.486922499068265e-05,-6.247731573994163e-05
2022-11-10 10:13:57,0.0,0.0,-1.78131645982293e-05,-5.9377215327755e-06,0.0,-1.18754430655024e-05,-0.001479200482540256,-0.0012846431317267617,-8.912362542833936e-05,-7.740130876950878e-05
2022-11-10 10:14:00,0.0,0.0,-1.78131645982293e-05,-5.9377215327755e-06,0.0,-1.18754430655024e-05,0.00016599030639040044,-0.0014212967517233544,9.316800284261947e-06,-7.977536922748001e-05
2022-11-10 10:14:03,0.0,0.0,-1.78131645982293e-05,-5.9377215327755e-06,0.0,-1.18754430655024e-05,-0.005035384198645313,-0.0011888956277988439,-0.00031201504349219917,-7.366931824489988e-05
2022-11-10 10:14:06,0.0,0.0,-1.78131645982293e-05,-5.9377215327755e-06,0.0,-1.18754430655024e-05,-0.0006624034535361936,-0.000684827940123903,-3.980067271190062e-05,-4.114805344587057e-05
2022-11-10 10:14:09,0.0,0.0,0.08072629298914,-5.9377215327755e-06,0.0,0.04036017763380361,0.0034111880344534096,-0.0008353317575443692,0.00020481790677043675,-5.0155810911350814e-05
2022-11-10 10:14:12,0.0,0.0,0.08072629298914,-5.9377215327755e-06,0.0,0.04036017763380361,-0.0039146958760083546,-0.0007058800971970931,-0.0002602440871168671,-4.692602626805712e-05
2022-11-10 10:14:15,0.0,0.0,0.08072629298914,-5.9377215327755e-06,0.0,0.04036017763380361,0.001626306217489621,-0.0012381811669449324,0.00011068626182371751,-8.4270504137415e-05
2022-11-10 10:14:18,0.0,0.0,0.08072629298914,-5.9377215327755e-06,0.0,0.04036017763380361,-0.0003070815674026768,-0.0011065759077469473,-2.08190123559871e-05,-7.50218181152234e-05
2022-11-10 10:14:21,0.0,0.0,0.08072629298914,-5.9377215327755e-06,0.0,0.04036017763380361,-0.0006873412137968085,-0.0008956346989012955,-4.8879541430607173e-05,-6.369211170942086e-05
2022-11-10 10:14:24,0.0,0.0,0.08072629298914,-5.9377215327755e-06,0.0,0.04036017763380361,-0.0010051333924747117,-0.0006087254085886118,-6.861957665976103e-05,-4.155715067484589e-05
2022-11-10 10:14:27,0.0,0.0,0.08072629298914,-5.9377215327755e-06,0.0,0.04036017763380361,-0.001321973058516778,-0.000974166154151559,-9.008062572931475e-05,-6.638069979183225e-05
2022-11-10 10:14:30,0.0,0.0,0.08072629298914,-5.9377215327755e-06,0.0,0.04036017763380361,-0.0003515241136682473,-0.000873019015825518,-2.4493582237874122e-05,-6.0830430197829656e-05
2022-11-10 10:14:33,0.0,0.0,0.08072629298914,-5.9377215327755e-06,0.0,0.04036017763380361,-0.0009260507560334167,-0.0007255104436415119,-6.431237238123119e-05,-5.038524887966448e-05
2022-11-10 10:14:36,0.0,0.0,0.08072629298914,-5.9377215327755e-06,0.0,0.04036017763380361,-0.0014107749795901504,-0.0008795033649257244,-0.00010226603700076995,-6.375454977655302e-05
2022-11-10 10:14:39,0.0,0.0,0.08072629298914,-5.9377215327755e-06,0.0,0.04036017763380361,0.0019665406041452817,-0.0007680512383450473,0.0001305868383026162,-5.100193845907449e-05
2022-11-10 10:14:42,0.0,0.0,0.08072629298914,0.080744106153738,0.0,0.080735199571439,-0.0014619491651559572,-0.0011997923355240338,-8.413869349359618e-05,-6.905093691397511e-05
2022-11-10 10:14:45,0.0,0.0,0.08072629298914,0.080744106153738,0.0,0.080735199571439,0.0003516906693110545,-0.0009004057258182579,2.0670726853729457e-05,-5.292162243707898e-05
2022-11-10 10:14:48,0.0,0.0,0.08072629298914,0.080744106153738,0.0,0.080735199571439,-0.0034322118711452073,-0.0011621316066043209,-0.00020332235556597104,-6.884404127814412e-05
2022-11-10 10:14:51,0.0,0.0,0.08072629298914,0.080744106153738,0.0,0.080735199571439,0.0001810012916999941,-0.0007121132496763546,1.0339618824107993e-05,-4.067915478445501e-05
2022-11-10 10:14:54,0.0,0.0,0.08072629298914,0.080744106153738,0.0,0.080735199571439,0.0024195510460564944,-0.0008592000449359014,0.0001402732747017392,-4.981205258036381e-05
2022-11-10 10:14:57,0.0,0.0,0.08072629298914,0.080744106153738,0.0,0.080735199571439,-0.0013393645863362547,-0.0009641511730382954,-7.624980548230895e-05,-5.4888967611730886e-05
2022-11-10 10:15:00,0.0,0.0,0.08072629298914,0.080744106153738,0.0,0.080735199571439,-0.0020719430482874,-0.0009775545337178011,-0.00011749588143229617,-5.543522621543517e-05
2022-11-10 10:15:03,0.0,0.0,0.08072629298914,0.080744106153738,0.0,0.080735199571439,-0.003078710873861139,-0.0011271968920655035,-0.000191023269898255,-6.993863502078715e-05
2022-11-10 10:15:06,0.0,0.0,0.08072629298914,0.080744106153738,0.0,0.080735199571439,0.0037004786980737985,-0.0008990969353549795,0.00022046951441447444,-5.356697901069806e-05
2022-11-10 10:15:09,0.0,0.0,0.08072629298914,0.080744106153738,0.0,0.080735199571439,0.0024951302003934136,-0.0010690887993391046,0.00014414546287647105,-6.176202741343434e-05
2022-11-10 10:15:12,0.0,0.0,0.08072629298914,0.080744106153738,0.0,0.080735199571439,0.00025805355412604133,-0.0008686537197568293,1.5335462074523285e-05,-5.162186671034162e-05
2022-11-10 10:15:15,0.0,0.0,0.08072629298914,0.161488212307477,0.0,0.1211072526483085,-0.0029324004373678225,-0.0010144773304586515,-0.00017748729746015437,-6.140254155715526e-05
2022-11-10 10:15:18,0.0,0.0,0.08072629298914,0.161488212307477,0.0,0.1211072526483085,0.001005478737238493,-0.0011511033504692531,6.066165738853388e-05,-6.94473532645142e-05
2022-11-10 10:15:21,0.0,0.0,0.08072629298914,0.161488212307477,0.0,0.1211072526483085,-0.0007558029542375404,-0.0007496667345424143,-4.721002158752282e-05,-4.682673244761078e-05
2022-11-10 10:15:24,0.0,0.0,0.08072629298914,0.161488212307477,0.0,0.1211072526483085,0.0006301853030967475,-0.000859857992966619,4.19337712349198e-05,-5.721664436538583e-05
2022-11-10 10:15:27,0.0,0.0,0.08072629298914,0.161488212307477,0.0,0.1211072526483085,-0.002515012495175722,-0.0008933537532426587,-0.00016878002814729663,-5.995209642378103e-05
2022-11-10 10:15:30,0.0,0.0,0.08072629298914,0.161488212307477,0.0,0.1211072526483085,-0.0025246951785971566,-0.0007466226520802246,-0.00016935120914806102,-5.008186729986752e-05
2022-11-10 10:15:33,0.0,0.0,0.08072629298914,0.161488212307477,0.0,0.1211072526483085,0.0006025905079157417,-0.0008890351921455857,3.8896734915168734e-05,-5.738650998461834e-05
2022-11-10 10:15:36,0.0,0.0,0.08072629298914,0.161488212307477,0.0,0.1211072526483085,-0.0026391187406732243,-0.0010173420540148916,-0.00017014272164656366,-6.5587555136471e-05
2022-11-10 10:15:39,0.0,0.0,0.08072629298914,0.161488212307477,0.0,0.1211072526483085,0.0012241511568553418,-0.0007182204103885073,8.320907713742748e-05,-4.881950827315542e-05
2022-11-10 10:15:42,0.0,0.0,0.08072629298914,0.161488212307477,0.0,0.1211072526483085,0.002988792530627624,-0.000825775215864976,0.0001852581550758708,-5.11850827485839e-05
2022-11-10 10:15:45,0.0,0.0,0.08072629298914,0.161488212307477,0.0,0.1211072526483085,-0.0008602857255332209,-0.001352707068415962,-5.373688103875801e-05,-8.449548406804133e-05
2022-11-10 10:15:48,0.0,0.0,0.161470399142879,0.161488212307477,0.0,0.161479305725178,-0.0013836705172210733,-0.001222914315109156,-8.518814977009026e-05,-7.529090671147208e-05
2022-11-10 10:15:51,0.0,0.0,0.161470399142879,0.161488212307477,0.0,0.161479305725178,-0.0030579466630758735,-0.0005059973575702228,-0.0001913361310626144,-3.166032223335431e-05
2022-11-10 10:15:54,0.0,0.0,0.161470399142879,0.161488212307477,0.0,0.161479305725178,0.001796044778568531,-0.001625639349639595,0.00010284907626886692,-9.309094486497755e-05
2022-11-10 10:15:57,0.0,0.0,0.161470399142879,0.161488212307477,0.0,0.161479305725178,-0.0004883639285384479,-0.0006180571668403557,-2.6149182242170888e-05,-3.3093536494712475e-05
2022-11-10 10:16:00,0.0,0.0,0.161470399142879,0.161488212307477,0.0,0.161479305725178,-0.0008429864441037715,-0.0006727960832773414,-5.095959577589952e-05,-4.0671373404909956e-05
2022-11-10 10:16:03,0.0,0.0,0.161470399142879,0.161488212307477,0.0,0.161479305725178,0.0020150846929279974,-0.0008641535907376466,0.00012119753886674034,-5.1974633506881327e-05
2022-11-10 10:16:06,0.0,0.0,0.161470399142879,0.161488212307477,0.0,0.161479305725178,-0.005858213296404403,-0.0010786728864565888,-0.0003699560340396297,-6.812000910661472e-05
2022-11-10 10:16:09,0.0,0.0,0.161470399142879,0.161488212307477,0.0,0.161479305725178,-0.0008725722633966823,-0.0007415972925125759,-4.640366246061106e-05,-3.9438373057489804e-05
2022-11-10 10:16:12,0.0,0.0,0.161470399142879,0.161488212307477,0.0,0.161479305725178,-0.003120012110492376,-0.0013560409596916536,-0.00017233667501369873,-7.490214201084131e-05
2022-11-10 10:16:15,0.0,0.0,0.161470399142879,0.161488212307477,0.0,0.161479305725178,5.525568045352397e-05,-0.001420166160300636,3.201813064530848e-06,-8.22921105763922e-05
2022-11-10 10:16:18,0.0,0.0,0.161470399142879,0.161488212307477,0.0,0.161479305725178,-0.0006871844871715622,-0.0008088041322675682,-4.173659722731662e-05,-4.912324555401834e-05
2022-11-10 10:16:21,0.0,0.0,0.24222044301815,0.161488212307477,0.0,0.2018543276628135,0.0017742269379416153,-0.0011664276793189234,0.00011033286460590284,-7.253598987972712e-05
2022-11-10 10:16:24,0.0,0.0,0.24222044301815,0.161488212307477,0.0,0.2018543276628135,0.0024546642598795056,-0.0007345837051352961,0.00015857975149753437,-4.74566332017282e-05
2022-11-10 10:16:27,0.0,0.0,0.24222044301815,0.161488212307477,0.0,0.2018543276628135,-0.004087343215767361,-0.0009667822386655398,-0.00029185871261497114,-6.903355178676147e-05
2022-11-10 10:16:30,0.0,0.0,0.24222044301815,0.161488212307477,0.0,0.2018543276628135,-0.004087343215767361,-0.0009667822386655398,-0.00026927176984324126,-6.369104592299494e-05
2022-11-10 10:16:33,0.0,0.0,0.24222044301815,0.161488212307477,0.0,0.2018543276628135,0.001732210452211956,-0.0009312248773458718,0.0001222702924888404,-6.573170019876548e-05
2022-11-10 10:16:36,0.0,0.0,0.24222044301815,0.161488212307477,0.0,0.2018543276628135,0.0014420349021835675,-0.0007534598816688201,0.00010423702846202717,-5.446360487640311e-05
2022-11-10 10:16:39,0.0,0.0,0.24222044301815,0.161488212307477,0.0,0.2018543276628135,-0.00045504265096446214,-0.0009291425601372326,-3.235150629426731e-05,-6.605789879001668e-05
2022-11-10 10:16:42,0.0,0.0,0.24222044301815,0.161488212307477,0.0,0.2018543276628135,-0.0007861015248745223,-0.0004702588592373578,-5.4611521897210584e-05,-3.266951045883995e-05
2022-11-10 10:16:45,0.0,0.0,0.24222044301815,0.161488212307477,0.0,0.2018543276628135,0.001187673382383187,-0.000953719375937699,8.029633104149198e-05,-6.447914710129544e-05
2022-11-10 10:16:48,0.0,0.0,0.24222044301815,0.161488212307477,0.0,0.2018543276628135,0.0013462929225143295,-0.000633115950385418,9.233279351513932e-05,-4.342098464641954e-05
2022-11-10 10:16:51,0.0,0.0,0.24222044301815,0.161488212307477,0.0,0.2018543276628135,-0.0010750757030174116,-0.0008792434282749034,-7.190375321990968e-05,-5.880600064671177e-05
2022-11-10 10:16:54,0.0,0.0,0.24222044301815,0.161488212307477,0.0,0.2018543276628135,-0.0009927292857297935,-0.000890340640392096,-6.485328392471613e-05,-5.8164411155266945e-05
2022-11-10 10:16:57,0.0,0.0,0.24222044301815,0.242232318461215,0.0,0.2422263807396825,0.0019962787107664914,-0.0012688864313750627,0.00012075892785287756,-7.675750094087939e-05
2022-11-10 10:17:00,0.0,0.0,0.24222044301815,0.242232318461215,0.0,0.2422263807396825,-0.0008863751302288008,-0.0008968656700397764,-5.136725677016709e-05,-5.1975205068523506e-05
2022-11-10 10:17:03,0.0,0.0,0.24222044301815,0.242232318461215,0.0,0.2422263807396825,0.0019279767485081683,-0.0010726313201866611,0.00011176608673363338,-6.218114676847521e-05
2022-11-10 10:17:06,0.0,0.0,0.24222044301815,0.242232318461215,0.0,0.2422263807396825,-0.003430909048328168,-0.0009479646814477194,-0.00020085473861963216,-5.5496428389905945e-05
2022-11-10 10:17:09,0.0,0.0,0.24222044301815,0.242232318461215,0.0,0.2422263807396825,-0.0009358279009784014,-0.0012265199068948983,-5.3955811396533805e-05,-7.071586207392067e-05
2022-11-10 10:17:12,0.0,0.0,0.24222044301815,0.242232318461215,0.0,0.2422263807396825,0.004683187603167854,-0.0008122940801689182,0.0003027066431353701,-5.250415637424837e-05
2022-11-10 10:17:15,0.0,0.0,0.24222044301815,0.242232318461215,0.0,0.2422263807396825,0.0021146798235295618,-0.0016933325727698928,0.00012296379607897097,-9.846341694622293e-05
2022-11-10 10:17:18,0.0,0.0,0.24222044301815,0.242232318461215,0.0,0.2422263807396825,6.858004260493732e-05,-0.0015290210698563518,3.746662544838689e-06,-8.353342685569494e-05
2022-11-10 10:17:21,0.0,0.0,0.24222044301815,0.242232318461215,0.0,0.2422263807396825,0.0022259897613324253,-0.0010067356757357815,0.000125231613080542,-5.663778639424458e-05
2022-11-10 10:17:24,0.0,0.0,0.24222044301815,0.242232318461215,0.0,0.2422263807396825,-0.004195664931386955,-0.0012168999076959848,-0.00024850382109711366,-7.207541162139747e-05
2022-11-10 10:17:27,0.0,0.0,0.24222044301815,0.242232318461215,0.0,0.2422263807396825,-0.0003250678739090216,-0.0009022906955149616,-1.8944118685361882e-05,-5.2583178457422974e-05
2022-11-10 10:17:30,0.0,0.0,0.24222044301815,0.322976424614954,0.0,0.28259843381655203,-0.0003250678739090216,-0.0009022906955149616,-1.9788918192948734e-05,-5.492808792542095e-05
2022-11-10 10:17:33,0.0,0.0,0.24222044301815,0.322976424614954,0.0,0.28259843381655203,-7.520833279368432e-05,-0.0009515868175169317,-4.81458583324635e-06,-6.0917404236166424e-05
2022-11-10 10:17:36,0.0,0.0,0.24222044301815,0.322976424614954,0.0,0.28259843381655203,-0.00228303435902112,-0.0009299500376806292,-0.00013984234078560107,-5.696208187540206e-05
2022-11-10 10:17:39,0.0,0.0,0.24222044301815,0.322976424614954,0.0,0.28259843381655203,0.0009772263643391225,-0.001572760760303193,6.297221520148315e-05,-0.00010134829827809623
2022-11-10 10:17:42,0.0,0.0,0.24222044301815,0.322976424614954,0.0,0.28259843381655203,0.0008593695034406126,-0.00046003402278720507,5.649947667978746e-05,-3.0245059242052432e-05
2022-11-10 10:17:45,0.0,0.0,0.24222044301815,0.322976424614954,0.0,0.28259843381655203,-0.003955866292007041,-0.0011958121603708348,-0.00025497866092236,-7.707707006733362e-05
2022-11-10 10:17:48,0.0,0.0,0.24222044301815,0.322976424614954,0.0,0.28259843381655203,-0.003955866292007041,-0.0011958121603708348,-0.00025380335861207665,-7.672178991097734e-05
2022-11-10 10:17:51,0.0,0.0,0.24222044301815,0.322976424614954,0.0,0.28259843381655203,0.002405067915240912,-0.0008259801606756538,0.0001588259205118666,-5.454609348555938e-05
2022-11-10 10:17:54,0.0,0.0,0.24222044301815,0.322976424614954,0.0,0.28259843381655203,-0.001113736083223872,-0.0007712608183233138,-7.363623104186162e-05,-5.099299615685963e-05
2022-11-10 10:17:57,0.0,0.0,0.24222044301815,0.322976424614954,0.0,0.28259843381655203,0.0019192491541998348,-0.0010759928609081742,0.00012265567882849387,-6.876472212089025e-05
2022-11-10 10:18:00,0.0,0.0,0.24222044301815,0.322976424614954,0.0,0.28259843381655203,0.000157078651337704,-0.00150759554556037,9.434343519334744e-06,-9.054810532118046e-05
2022-11-10 10:18:03,0.0,0.0,0.322964549171888,0.322976424614954,0.0,0.322970486893421,-0.001322043376351353,-0.0012899403386728014,-7.69935562527826e-05,-7.512392997455082e-05
2022-11-10 10:18:06,0.0,0.0,0.322964549171888,0.322976424614954,0.0,0.322970486893421,-0.002451338209094373,-0.0005230288229553012,-0.0001475476788215514,-3.148145306817263e-05
2022-11-10 10:18:09,0.0,0.0,0.322964549171888,0.322976424614954,0.0,0.322970486893421,-0.002224996251690167,-0.0012055394441898935,-0.00012956141383364082,-7.019849795379069e-05
2022-11-10 10:18:12,0.0,0.0,0.322964549171888,0.322976424614954,0.0,0.322970486893421,-0.0010824235163033984,-0.0010351819792673127,-6.317831812294408e-05,-6.042094930147247e-05
2022-11-10 10:18:15,0.0,0.0,0.322964549171888,0.322976424614954,0.0,0.322970486893421,0.0016423077140134907,-0.0005343991485498006,9.648792436747761e-05,-3.1396713409636964e-05
2022-11-10 10:18:18,0.0,0.0,0.322964549171888,0.322976424614954,0.0,0.322970486893421,0.007623200110772287,-0.0006417116419482147,0.0004340416228019427,-3.653709182427394e-05
2022-11-10 10:18:21,0.0,0.0,0.322964549171888,0.322976424614954,0.0,0.322970486893421,-0.005213465773996434,-0.0010879140691803261,-0.0002949809830493957,-6.15548227439654e-05
2022-11-10 10:18:24,0.0,0.0,0.322964549171888,0.322976424614954,0.0,0.322970486893421,-0.0029626533043491084,-0.0008130397907900903,-0.00016591607804019705,-4.55322845843924e-05
2022-11-10 10:18:27,0.0,0.0,0.322964549171888,0.322976424614954,0.0,0.322970486893421,0.0018302523205140607,-0.0011140643161589511,0.00010501253435959337,-6.392054033652568e-05
2022-11-10 10:18:30,0.0,0.0,0.322964549171888,0.322976424614954,0.0,0.322970486893421,0.003864891177325398,-0.0008801552474646552,0.00023193184628996985,-5.28180541702988e-05
2022-11-10 10:18:33,0.0,0.0,0.322964549171888,0.322976424614954,0.0,0.322970486893421,-0.0030342099551437978,-0.0010740856019189641,-0.00017745988624308896,-6.28193538185283e-05
2022-11-10 10:18:36,0.0,0.0,0.403714593047159,0.322976424614954,0.0,0.36334550883105654,-0.0020286613237641762,-0.001187469985807205,-0.00012480164180424613,-7.305221531360525e-05
2022-11-10 10:18:39,0.0,0.0,0.403714593047159,0.322976424614954,0.0,0.36334550883105654,0.0036527915030631995,-0.0007455318856882612,0.00023763008092903896,-4.850011345643873e-05
2022-11-10 10:18:42,0.0,0.0,0.403714593047159,0.322976424614954,0.0,0.36334550883105654,-0.0012232957167959309,-0.0005428882668811232,-8.324574066314888e-05,-3.6943753871895074e-05
2022-11-10 10:18:45,0.0,0.0,0.403714593047159,0.322976424614954,0.0,0.36334550883105654,-0.0035369570998465974,-0.0009772160854603432,-0.0002485756255613855,-6.867827143351233e-05
2022-11-10 10:18:48,0.0,0.0,0.403714593047159,0.322976424614954,0.0,0.36334550883105654,0.0016798361126307854,-0.0009069742053712136,0.00010998763631217355,-5.9384334159041386e-05
2022-11-10 10:18:51,0.0,0.0,0.403714593047159,0.322976424614954,0.0,0.36334550883105654,-0.0001306187909782524,-0.0006965601100014989,-9.45187479546528e-06,-5.0404684486368214e-05
2022-11-10 10:18:54,0.0,0.0,0.403714593047159,0.322976424614954,0.0,0.36334550883105654,-0.0008469300026671435,-0.0007584014410631432,-6.239515005090217e-05,-5.587306101440943e-05
2022-11-10 10:18:57,0.0,0.0,0.403714593047159,0.322976424614954,0.0,0.36334550883105654,0.0005051302435922292,-0.0012852014823618906,3.4170572677094493e-05,-8.694009359932167e-05
2022-11-10 10:19:00,0.0,0.0,0.403714593047159,0.322976424614954,0.0,0.36334550883105654,0.0018532375898116446,-0.0008212505867464196,0.00012170049620434563,-5.3930809770218084e-05
2022-11-10 10:19:03,0.0,0.0,0.403714593047159,0.322976424614954,0.0,0.36334550883105654,-0.0009475150950429799,-0.0009077226124363669,-6.364478586974665e-05,-6.0971916542415656e-05
2022-11-10 10:19:06,0.0,0.0,0.403714593047159,0.322976424614954,0.0,0.36334550883105654,-0.0007253593359908975,-0.0007725467043841056,-5.120327838623726e-05,-5.453424531568433e-05
2022-11-10 10:19:09,0.0,0.0,0.403714593047159,0.322976424614954,0.0,0.36334550883105654,-0.0007253593359908975,-0.0007725467043841056,-4.7971084815534104e-05,-5.109178532781213e-05
2022-11-10 10:19:12,0.0,0.0,0.403714593047159,0.403726468490225,0.0,0.40372053076869197,0.001016732647356024,-0.0007984010370430759,6.0664845836154475e-05,-4.7637769824345836e-05
2022-11-10 10:19:15,0.0,0.0,0.403714593047159,0.403726468490225,0.0,0.40372053076869197,0.00034242898470250756,-0.0009958062809956349,1.9460797599997218e-05,-5.6593294811471884e-05
2022-11-10 10:19:18,0.0,0.0,0.403714593047159,0.403726468490225,0.0,0.40372053076869197,-0.0004688467283397186,-0.0009248840861209671,-2.7437874514390304e-05,-5.41261183270026e-05
2022-11-10 10:19:21,0.0,0.0,0.403714593047159,0.403726468490225,0.0,0.40372053076869197,0.0024226892830410476,-0.0009413121187227657,0.00013948149479135473,-5.4194164436911e-05
2022-11-10 10:19:24,0.0,0.0,0.403714593047159,0.403726468490225,0.0,0.40372053076869197,-0.00202365835115281,-0.0010911369652834438,-0.00011706528160210317,-6.312046499084428e-05
2022-11-10 10:19:27,0.0,0.0,0.403714593047159,0.403726468490225,0.0,0.40372053076869197,0.0020480142648721215,-0.0010180830049548069,0.00011929148520307384,-5.930067763890823e-05
2022-11-10 10:19:30,0.0,0.0,0.403714593047159,0.403726468490225,0.0,0.40372053076869197,0.0022561059133371884,-0.0009019899674290004,0.0001316580250647554,-5.2636809751660244e-05
2022-11-10 10:19:33,0.0,0.0,0.403714593047159,0.403726468490225,0.0,0.40372053076869197,-0.00133989016575594,-0.0007666736295628227,-7.61338724667226e-05,-4.356314706124001e-05
2022-11-10 10:19:36,0.0,0.0,0.403714593047159,0.403726468490225,0.0,0.40372053076869197,0.0024654062144513246,-0.0010591854185654972,0.00014863514363373142,-6.385648575899006e-05
2022-11-10 10:19:39,0.0,0.0,0.403714593047159,0.403726468490225,0.0,0.40372053076869197,0.0012200860194516282,-0.0009993598069623494,7.137063216785192e-05,-5.845894473743956e-05
2022-11-10 10:19:42,0.0,0.0,0.403714593047159,0.403726468490225,0.0,0.40372053076869197,0.0017139503777409172,-0.0012528326624571227,9.870766369751715e-05,-7.215155509815811e-05
2022-11-10 10:19:45,0.0,0.0,0.403714593047159,0.484476512365496,0.0,0.4440955527063275,-0.0033534801456205554,-0.0010855175613677295,-0.00020298397772932725,-6.570567378763676e-05
2022-11-10 10:19:48,0.0,0.0,0.403714593047159,0.484476512365496,0.0,0.4440955527063275,0.0005999753842325668,-0.0005541727209831225,3.7791255679313114e-05,-3.490623705497858e-05
2022-11-10 10:19:51,0.0,0.0,0.403714593047159,0.484476512365496,0.0,0.4440955527063275,0.0021926341154200994,-0.001926821848355572,0.0001359700665320723,-0.0001194864629141107
2022-11-10 10:19:54,0.0,0.0,0.403714593047159,0.484476512365496,0.0,0.4440955527063275,0.001685383755014598,-0.0021022381519620196,0.00010258604357351441,-0.0001279591630199451
2022-11-10 10:19:57,0.0,0.0,0.403714593047159,0.484476512365496,0.0,0.4440955527063275,-0.0026548350165871617,-0.0008030761699512733,-0.00017634519341277726,-5.334366227295848e-05
2022-11-10 10:20:00,0.0,0.0,0.403714593047159,0.484476512365496,0.0,0.4440955527063275,0.0019920629453533,-0.0005118217295891035,0.00013367307209772485,-3.434468931824465e-05
2022-11-10 10:20:03,0.0,0.0,0.403714593047159,0.484476512365496,0.0,0.4440955527063275,0.0004206408564969783,-0.0014343027999109761,2.668557157829468e-05,-9.099256394331677e-05
2022-11-10 10:20:06,0.0,0.0,0.403714593047159,0.484476512365496,0.0,0.4440955527063275,-0.0008164499969629119,-0.0006456052666337442,-5.051374508976777e-05,-3.994358501887525e-05
2022-11-10 10:20:09,0.0,0.0,0.403714593047159,0.484476512365496,0.0,0.4440955527063275,0.00088596637084116,-0.0008270934410129702,5.900892226470121e-05,-5.5087748443590445e-05
2022-11-10 10:20:12,0.0,0.0,0.403714593047159,0.484476512365496,0.0,0.4440955527063275,0.00088596637084116,-0.0008270934410129702,5.7604276157401884e-05,-5.37764418065353e-05
2022-11-10 10:20:15,0.0,0.0,0.403714593047159,0.484476512365496,0.0,0.4440955527063275,-0.0020890499432204383,-0.0009111607238163335,-0.0001312580108775091,-5.724953804286496e-05
