TS,Nominal_Displacement_B1_sepPlane,Nominal_Displacement_B2_sepPlane,Nominal_Displacement_B1_xingPlane,Nominal_Displacement_B2_xingPlane,y_pos,x_pos,1_comp_x,1_comp_y,1_comp_decouple_x,1_comp_decouple_y
2022-11-10 10:07:33,0.0,0.0,-0.403756157097888,-0.484500263251627,0.0,-0.44412821017475745,0.058531776904907976,-0.00047958680004918765,0.0037500085841211364,-3.0726123690682585e-05
2022-11-10 10:07:36,0.0,0.0,-0.403756157097888,-0.484500263251627,0.0,-0.44412821017475745,0.058103928192132386,-0.0008879623932672494,0.0037742359457589346,-5.767905350683641e-05
2022-11-10 10:07:39,0.0,0.0,-0.403756157097888,-0.484500263251627,0.0,-0.44412821017475745,0.057979515565601866,-0.0006962565744021007,0.00390902881270334,-4.694221715758285e-05
2022-11-10 10:07:42,0.0,0.0,-0.403756157097888,-0.484500263251627,0.0,-0.44412821017475745,0.05362986479028765,-0.0007926035718078361,0.0039126091858837754,-5.7825020218608623e-05
2022-11-10 10:07:45,0.0,0.0,-0.403756157097888,-0.484500263251627,0.0,-0.44412821017475745,0.056784370774263744,-0.00043812321437705203,0.003869375684087549,-2.9854399885561153e-05
2022-11-10 10:07:48,0.0,0.0,-0.403756157097888,-0.484500263251627,0.0,-0.44412821017475745,0.0545879936075656,-0.0006311538167837688,0.0037126027645815168,-4.2925618807554744e-05
2022-11-10 10:07:51,0.0,0.0,-0.403756157097888,-0.484500263251627,0.0,-0.44412821017475745,0.05344690561524898,-0.0003788178952500161,0.003784942757602935,-2.6826698993549515e-05
2022-11-10 10:07:54,0.0,0.0,-0.403756157097888,-0.484500263251627,0.0,-0.44412821017475745,0.05660950529117918,-0.000671918269393979,0.0038690221638046445,-4.5922794470271436e-05
2022-11-10 10:07:57,0.0,0.0,-0.403756157097888,-0.484500263251627,0.0,-0.44412821017475745,0.057162275172240574,-0.0006571020097227856,0.0038064890635191796,-4.3757033919477844e-05
2022-11-10 10:08:00,0.0,0.0,-0.403756157097888,-0.484500263251627,0.0,-0.44412821017475745,0.055734250635364066,-0.0007688570667274512,0.0038946104975492004,-5.372636698360191e-05
2022-11-10 10:08:03,0.0,0.0,-0.403756157097888,-0.484500263251627,0.0,-0.44412821017475745,0.05942347010178226,-0.0006715395864977866,0.0037737737050959046,-4.264709598943996e-05
2022-11-10 10:08:06,0.0,0.0,-0.403756157097888,-0.403750219376356,0.0,-0.40375318823712203,0.06336386078762742,-0.0007703240726859759,0.0037852278055258743,-4.601758893716664e-05
2022-11-10 10:08:09,0.0,0.0,-0.403756157097888,-0.403750219376356,0.0,-0.40375318823712203,0.0670646516049725,-0.0009427908292722834,0.003897178193387955,-5.478629610138263e-05
2022-11-10 10:08:12,0.0,0.0,-0.403756157097888,-0.403750219376356,0.0,-0.40375318823712203,0.06621560469867938,-0.0008082265895253873,0.004017656432521457,-4.9039448799390246e-05
2022-11-10 10:08:15,0.0,0.0,-0.403756157097888,-0.403750219376356,0.0,-0.40375318823712203,0.06425293771219993,-0.0011864020339866564,0.0037299319149326285,-6.887154063412709e-05
2022-11-10 10:08:18,0.0,0.0,-0.403756157097888,-0.403750219376356,0.0,-0.40375318823712203,0.0638638533583162,-0.0005273195507882822,0.0038129177381001325,-3.148300584943981e-05
2022-11-10 10:08:21,0.0,0.0,-0.403756157097888,-0.403750219376356,0.0,-0.40375318823712203,0.06516923915441243,-0.0005099164292626393,0.003820320341380873,-2.9892079950490958e-05
2022-11-10 10:08:24,0.0,0.0,-0.403756157097888,-0.403750219376356,0.0,-0.40375318823712203,0.06795565589748193,-0.0007085309952544862,0.003923335114782106,-4.0906154121844686e-05
2022-11-10 10:08:27,0.0,0.0,-0.403756157097888,-0.403750219376356,0.0,-0.40375318823712203,0.06317960025544471,-0.0006736874768962196,0.0039396370355822925,-4.200856168221186e-05
2022-11-10 10:08:30,0.0,0.0,-0.403756157097888,-0.403750219376356,0.0,-0.40375318823712203,0.06289966832413088,-0.0005991564422055187,0.003779133804671845,-3.599847861450667e-05
2022-11-10 10:08:33,0.0,0.0,-0.403756157097888,-0.403750219376356,0.0,-0.40375318823712203,0.06512900771943698,-0.0007069205448824232,0.003711302531306979,-4.028306432913862e-05
2022-11-10 10:08:36,0.0,0.0,-0.403756157097888,-0.403750219376356,0.0,-0.40375318823712203,0.07478492212802565,-0.0009486081252021421,0.004085558030443463,-5.182319421325106e-05
2022-11-10 10:08:39,0.0,0.0,-0.403756157097888,-0.323000175501085,0.0,-0.3633781662994865,0.06563519615489641,-0.0008522085849220805,0.003917975761476298,-5.087106880227768e-05
2022-11-10 10:08:42,0.0,0.0,-0.403756157097888,-0.323000175501085,0.0,-0.3633781662994865,0.058941573251060926,-0.0005202282928523641,0.003735307612355586,-3.296845664734966e-05
2022-11-10 10:08:45,0.0,0.0,-0.403756157097888,-0.323000175501085,0.0,-0.3633781662994865,0.05627075471065486,-0.0008796193529661493,0.0036537333538237834,-5.711482963267888e-05
2022-11-10 10:08:48,0.0,0.0,-0.403756157097888,-0.323000175501085,0.0,-0.3633781662994865,0.05723839032607302,-0.000442854174789399,0.0038969494172292835,-3.0150748623987465e-05
2022-11-10 10:08:51,0.0,0.0,-0.403756157097888,-0.323000175501085,0.0,-0.3633781662994865,0.05771612136698925,-0.000976194974153498,0.004065915322266513,-6.876979964908751e-05
2022-11-10 10:08:54,0.0,0.0,-0.403756157097888,-0.323000175501085,0.0,-0.3633781662994865,0.05511176195749921,-0.000722690596000144,0.003939504120748188,-5.16594367489847e-05
2022-11-10 10:08:57,0.0,0.0,-0.403756157097888,-0.323000175501085,0.0,-0.3633781662994865,0.06281569640295709,-0.0005024773720041305,0.0036836240942641975,-2.946616626620469e-05
2022-11-10 10:09:00,0.0,0.0,-0.403756157097888,-0.323000175501085,0.0,-0.3633781662994865,0.056325222696383105,-0.0004926364171905519,0.003789020874876407,-3.313985420920825e-05
2022-11-10 10:09:03,0.0,0.0,-0.403756157097888,-0.323000175501085,0.0,-0.3633781662994865,0.05969781863833794,-0.0006171024314641752,0.003898955985025542,-4.030390512436398e-05
2022-11-10 10:09:06,0.0,0.0,-0.403756157097888,-0.323000175501085,0.0,-0.3633781662994865,0.05637743470662968,-0.00027845354540900497,0.0038063190194588988,-1.8799773906729765e-05
2022-11-10 10:09:09,0.0,0.0,-0.403756157097888,-0.323000175501085,0.0,-0.3633781662994865,0.06271667137323542,-0.0006178158355694316,0.00404184827218369,-3.981585458614893e-05
2022-11-10 10:09:12,0.0,0.0,-0.323006113222617,-0.323000175501085,0.0,-0.323003144361851,0.0679950232172558,-0.0004068187190135529,0.003847303225620857,-2.3018669541487583e-05
2022-11-10 10:09:15,0.0,0.0,-0.323006113222617,-0.323000175501085,0.0,-0.323003144361851,0.07057987377657252,-0.0005476574109848338,0.004073197126996091,-3.16055622324162e-05
2022-11-10 10:09:18,0.0,0.0,-0.323006113222617,-0.323000175501085,0.0,-0.323003144361851,0.06735871097025374,-0.0006691043458630212,0.003939283692324667,-3.913067515923448e-05
2022-11-10 10:09:21,0.0,0.0,-0.323006113222617,-0.323000175501085,0.0,-0.323003144361851,0.06841626490086906,-0.00046800715606989604,0.00385481251019108,-2.6369165909468816e-05
2022-11-10 10:09:24,0.0,0.0,-0.323006113222617,-0.323000175501085,0.0,-0.323003144361851,0.06729154379983565,-0.0004566967821496336,0.0038509144082332415,-2.6135530844784647e-05
2022-11-10 10:09:27,0.0,0.0,-0.323006113222617,-0.323000175501085,0.0,-0.323003144361851,0.06748396965757911,-0.0011003574554501157,0.003953929101295666,-6.447064965217607e-05
2022-11-10 10:09:30,0.0,0.0,-0.323006113222617,-0.323000175501085,0.0,-0.323003144361851,0.060999458567721904,-0.0005541988944040405,0.0036592186344780093,-3.324512986224217e-05
2022-11-10 10:09:33,0.0,0.0,-0.323006113222617,-0.323000175501085,0.0,-0.323003144361851,0.0626791746769782,-0.0002984879322608688,0.003797066873854372,-1.808222022185174e-05
2022-11-10 10:09:36,0.0,0.0,-0.323006113222617,-0.323000175501085,0.0,-0.323003144361851,0.06702734117277089,-0.0008731406041518571,0.003786528014366174,-4.932571246679122e-05
2022-11-10 10:09:39,0.0,0.0,-0.323006113222617,-0.323000175501085,0.0,-0.323003144361851,0.0731920730629725,-0.0004894872414348233,0.004236261289104035,-2.8330880184478398e-05
2022-11-10 10:09:42,0.0,0.0,-0.323006113222617,-0.323000175501085,0.0,-0.323003144361851,0.06751530118833655,-0.0010172966380521697,0.004028919582691178,-6.070633285069802e-05
2022-11-10 10:09:45,0.0,0.0,-0.242262007068879,-0.323000175501085,0.0,-0.282631091284982,0.05966478376132114,-0.0007269649699304676,0.0037692126221476716,-4.592467059769075e-05
2022-11-10 10:09:48,0.0,0.0,-0.242262007068879,-0.323000175501085,0.0,-0.282631091284982,0.05775625204958029,-0.00018630050705185182,0.003861928292873889,-1.2457165650961355e-05
2022-11-10 10:09:51,0.0,0.0,-0.242262007068879,-0.323000175501085,0.0,-0.282631091284982,0.05741291374455924,-0.0007951371480201864,0.003947516570897768,-5.467092441800219e-05
2022-11-10 10:09:54,0.0,0.0,-0.242262007068879,-0.323000175501085,0.0,-0.282631091284982,0.05370517967055589,-0.0006728055555327689,0.003924600540414158,-4.91664502946485e-05
2022-11-10 10:09:57,0.0,0.0,-0.242262007068879,-0.323000175501085,0.0,-0.282631091284982,0.056142574652671064,-0.0008602364595996998,0.0040043969075184635,-6.135679098913185e-05
2022-11-10 10:10:00,0.0,0.0,-0.242262007068879,-0.323000175501085,0.0,-0.282631091284982,0.057815565671577356,-0.0007488482795557907,0.003788894212950023,-4.9075138845893225e-05
2022-11-10 10:10:03,0.0,0.0,-0.242262007068879,-0.323000175501085,0.0,-0.282631091284982,0.05332440071416386,-0.0006404918534843097,0.003489410154384004,-4.191212179445543e-05
2022-11-10 10:10:06,0.0,0.0,-0.242262007068879,-0.323000175501085,0.0,-0.282631091284982,0.05723528726960911,-0.0006912069834804509,0.003919031937844761,-4.732853407655699e-05
2022-11-10 10:10:09,0.0,0.0,-0.242262007068879,-0.323000175501085,0.0,-0.282631091284982,0.057686748754488634,-0.0005436286757527311,0.003992891594913888,-3.762823208160693e-05
2022-11-10 10:10:12,0.0,0.0,-0.242262007068879,-0.323000175501085,0.0,-0.282631091284982,0.05593419537032755,-0.0006968238824099147,0.0038154857865785132,-4.7533027005764494e-05
2022-11-10 10:10:15,0.0,0.0,-0.242262007068879,-0.323000175501085,0.0,-0.282631091284982,0.054899304537374974,-0.0006138990741307855,0.003822166645131344,-4.274051528325421e-05
2022-11-10 10:10:18,0.0,0.0,-0.242262007068879,-0.242250131625813,0.0,-0.242256069347346,0.06170866944071561,4.468646237737895e-06,0.0040076047532003915,2.902115385899618e-07
2022-11-10 10:10:21,0.0,0.0,-0.242262007068879,-0.242250131625813,0.0,-0.242256069347346,0.07889390169925832,-0.000987551958580734,0.004118928017371646,-5.155855323665236e-05
2022-11-10 10:10:24,0.0,0.0,-0.242262007068879,-0.242250131625813,0.0,-0.242256069347346,0.06754913733981782,-0.0009569439451977096,0.0039496830845510015,-5.595371698378359e-05
2022-11-10 10:10:27,0.0,0.0,-0.242262007068879,-0.242250131625813,0.0,-0.242256069347346,0.06956669931903132,-0.0007433849116087387,0.0039010897444065437,-4.168677374678981e-05
2022-11-10 10:10:30,0.0,0.0,-0.242262007068879,-0.242250131625813,0.0,-0.242256069347346,0.06730829900989173,-0.0005121231968966099,0.003931486091942822,-2.991317943816147e-05
2022-11-10 10:10:33,0.0,0.0,-0.242262007068879,-0.242250131625813,0.0,-0.242256069347346,0.06526951543296647,-0.0009786511515219583,0.003966676666707984,-5.947635219654666e-05
2022-11-10 10:10:36,0.0,0.0,-0.242262007068879,-0.242250131625813,0.0,-0.242256069347346,0.06311231268580096,-0.0008373119655720449,0.003852397968718763,-5.1109819591183686e-05
2022-11-10 10:10:39,0.0,0.0,-0.242262007068879,-0.242250131625813,0.0,-0.242256069347346,0.06593908588981444,-0.0005697570472103577,0.0037683549842284425,-3.256106419555453e-05
2022-11-10 10:10:42,0.0,0.0,-0.242262007068879,-0.242250131625813,0.0,-0.242256069347346,0.06677524573831173,-0.0003897699102943029,0.0038626612244502395,-2.254651558829766e-05
2022-11-10 10:10:45,0.0,0.0,-0.242262007068879,-0.242250131625813,0.0,-0.242256069347346,0.06672790267957594,-0.0005290477985292253,0.003916767554474036,-3.1053834585444444e-05
2022-11-10 10:10:48,0.0,0.0,-0.242262007068879,-0.242250131625813,0.0,-0.242256069347346,0.06594518619192127,-0.000503423023787121,0.004054417801082071,-3.095127009235911e-05
2022-11-10 10:10:51,0.0,0.0,-0.242262007068879,-0.161500087750542,0.0,-0.2018810474097105,0.06977638505822106,-0.0007408700083685956,0.004151829092157025,-4.408319020374563e-05
2022-11-10 10:10:54,0.0,0.0,-0.242262007068879,-0.161500087750542,0.0,-0.2018810474097105,0.06217160997882943,-0.0007732532522973581,0.003780066901857896,-4.7014208362281985e-05
2022-11-10 10:10:57,0.0,0.0,-0.242262007068879,-0.161500087750542,0.0,-0.2018810474097105,0.05758439588112679,-0.0006326777506597899,0.00368208682368613,-4.045495960664069e-05
2022-11-10 10:11:00,0.0,0.0,-0.242262007068879,-0.161500087750542,0.0,-0.2018810474097105,0.058833400371426314,-0.0008924177787576382,0.004180455647362097,-6.341147918463007e-05
2022-11-10 10:11:03,0.0,0.0,-0.242262007068879,-0.161500087750542,0.0,-0.2018810474097105,0.059454255370909564,-0.00059377434647285,0.0037721105489508227,-3.767236612507511e-05
2022-11-10 10:11:06,0.0,0.0,-0.242262007068879,-0.161500087750542,0.0,-0.2018810474097105,0.05174785479117207,-0.0006763984667563232,0.003661207960403697,-4.785580891974625e-05
2022-11-10 10:11:09,0.0,0.0,-0.242262007068879,-0.161500087750542,0.0,-0.2018810474097105,0.06636321228810711,-0.0005812844716668064,0.004155195373337405,-3.639592575442048e-05
2022-11-10 10:11:12,0.0,0.0,-0.242262007068879,-0.161500087750542,0.0,-0.2018810474097105,0.05881081960193463,-0.0005708334648671797,0.0038044567034747063,-3.69270691461371e-05
2022-11-10 10:11:15,0.0,0.0,-0.242262007068879,-0.161500087750542,0.0,-0.2018810474097105,0.05874504469239478,-0.000536975089660852,0.0038746442382417753,-3.5417241541449314e-05
2022-11-10 10:11:18,0.0,0.0,-0.242262007068879,-0.161500087750542,0.0,-0.2018810474097105,0.06275487451814932,-0.0005213250726430413,0.0040683903665515945,-3.3797436767551165e-05
2022-11-10 10:11:21,0.0,0.0,-0.242262007068879,-0.161500087750542,0.0,-0.2018810474097105,0.06546272765192479,-0.00046322188739782253,0.0040791443754948295,-2.8864500829112164e-05
2022-11-10 10:11:24,0.0,0.0,-0.16151790091514,-0.161500087750542,0.0,-0.161508994332841,0.0648960993341257,-0.0004725429768219578,0.004073574693603418,-2.9661861525931832e-05
2022-11-10 10:11:27,0.0,0.0,-0.16151790091514,-0.161500087750542,0.0,-0.161508994332841,0.060134747836024,-0.0005605481580762133,0.003649077436987644,-3.40150031319419e-05
2022-11-10 10:11:30,0.0,0.0,-0.16151790091514,-0.161500087750542,0.0,-0.161508994332841,0.07083735060927634,-0.0008489649968275773,0.00384368305487492,-4.60654209173766e-05
2022-11-10 10:11:33,0.0,0.0,-0.16151790091514,-0.161500087750542,0.0,-0.161508994332841,0.06918300053190127,-0.0007863830683126484,0.003993505521963721,-4.539301709293804e-05
2022-11-10 10:11:36,0.0,0.0,-0.16151790091514,-0.161500087750542,0.0,-0.161508994332841,0.06469454160380676,-0.0008527923877113754,0.003854345104097992,-5.080731825131233e-05
2022-11-10 10:11:39,0.0,0.0,-0.16151790091514,-0.161500087750542,0.0,-0.161508994332841,0.06715406199644641,-0.0007901217440768491,0.004034574510787701,-4.7470025703586894e-05
2022-11-10 10:11:42,0.0,0.0,-0.16151790091514,-0.161500087750542,0.0,-0.161508994332841,0.06861811578124777,-0.0008425504068591545,0.004050505977658971,-4.973548778782782e-05
2022-11-10 10:11:45,0.0,0.0,-0.16151790091514,-0.161500087750542,0.0,-0.161508994332841,0.06535305260941304,-4.2139625702937444e-08,0.0037025885313124477,-2.38742780347222e-09
2022-11-10 10:11:48,0.0,0.0,-0.16151790091514,-0.161500087750542,0.0,-0.161508994332841,0.07100327683516651,-0.0008129096173323837,0.004053043609066386,-4.640290245936637e-05
2022-11-10 10:11:51,0.0,0.0,-0.16151790091514,-0.161500087750542,0.0,-0.161508994332841,0.07230934990536428,-0.000643117176301207,0.004013373338645091,-3.56948213802224e-05
2022-11-10 10:11:54,0.0,0.0,-0.16151790091514,-0.161500087750542,0.0,-0.161508994332841,0.06543367104381587,-0.0008480212966652193,0.004014687699811348,-5.203040903237981e-05
2022-11-10 10:11:57,0.0,0.0,-0.080767857039869,-0.161500087750542,0.0,-0.1211339723952055,0.057928234531318706,-0.0006838980302199247,0.0037411618538881527,-4.4167982043794983e-05
2022-11-10 10:12:00,0.0,0.0,-0.080767857039869,-0.161500087750542,0.0,-0.1211339723952055,0.05459924436843103,-0.0007510991261778332,0.003769366817494073,-5.185361364635448e-05
2022-11-10 10:12:03,0.0,0.0,-0.080767857039869,-0.161500087750542,0.0,-0.1211339723952055,0.05437285337126646,-0.0006261423256267609,0.00390685100855972,-4.49901858133781e-05
2022-11-10 10:12:06,0.0,0.0,-0.080767857039869,-0.161500087750542,0.0,-0.1211339723952055,0.05357724204007192,-0.00029979008745897526,0.003804216811105383,-2.1286397863876602e-05
2022-11-10 10:12:09,0.0,0.0,-0.080767857039869,-0.161500087750542,0.0,-0.1211339723952055,0.06502541963267011,-0.0010393562640795564,0.004252063435540075,-6.796432521247143e-05
2022-11-10 10:12:12,0.0,0.0,-0.080767857039869,-0.161500087750542,0.0,-0.1211339723952055,0.05784642676825907,-0.00023342616651249055,0.0038932333529371303,-1.571026228733877e-05
2022-11-10 10:12:15,0.0,0.0,-0.080767857039869,-0.161500087750542,0.0,-0.1211339723952055,0.05479666708302412,-0.000727737341845943,0.0038935563095121805,-5.1709099655984395e-05
2022-11-10 10:12:18,0.0,0.0,-0.080767857039869,-0.161500087750542,0.0,-0.1211339723952055,0.0537320024058546,-0.0006879221029583655,0.00372840244899837,-4.773413121694148e-05
2022-11-10 10:12:21,0.0,0.0,-0.080767857039869,-0.161500087750542,0.0,-0.1211339723952055,0.05267062581066803,-0.000707778971201097,0.003708039149945308,-4.982800364202458e-05
2022-11-10 10:12:24,0.0,0.0,-0.080767857039869,-0.161500087750542,0.0,-0.1211339723952055,0.05961988524293408,-0.00023690228313356368,0.004137506830686303,-1.6440568623645045e-05
2022-11-10 10:12:27,0.0,0.0,-0.080767857039869,-0.161500087750542,0.0,-0.1211339723952055,0.06086270378840394,-0.0007443784020831823,0.003871134069155179,-4.734572099632095e-05
2022-11-10 10:12:30,0.0,0.0,-0.080767857039869,-0.080750043875271,0.0,-0.08075895045757,0.06780103159488782,-0.000700860408856219,0.004079726837587749,-4.217220523277453e-05
2022-11-10 10:12:33,0.0,0.0,-0.080767857039869,-0.080750043875271,0.0,-0.08075895045757,0.07219718327022824,-0.0004946738892388199,0.004180627067871898,-2.864442845894337e-05
2022-11-10 10:12:36,0.0,0.0,-0.080767857039869,-0.080750043875271,0.0,-0.08075895045757,0.07190156511866036,-0.0004912174959600508,0.004077795895554918,-2.7858707742243653e-05
2022-11-10 10:12:39,0.0,0.0,-0.080767857039869,-0.080750043875271,0.0,-0.08075895045757,0.06711445226068537,-0.0011573983589014914,0.0038933537793983137,-6.714144454901808e-05
2022-11-10 10:12:42,0.0,0.0,-0.080767857039869,-0.080750043875271,0.0,-0.08075895045757,0.06204644449474196,-0.0004454805426433654,0.0038565077548545924,-2.768892208620528e-05
2022-11-10 10:12:45,0.0,0.0,-0.080767857039869,-0.080750043875271,0.0,-0.08075895045757,0.07582207661915388,-0.0008798140633962176,0.004113453935107133,-4.7731146159686304e-05
2022-11-10 10:12:48,0.0,0.0,-0.080767857039869,-0.080750043875271,0.0,-0.08075895045757,0.06948951410450561,-0.0008111071694041818,0.004025897726182595,-4.699175913194318e-05
2022-11-10 10:12:51,0.0,0.0,-0.080767857039869,-0.080750043875271,0.0,-0.08075895045757,0.06735614470241799,-0.000850013861357286,0.003993649531051075,-5.0398630648980345e-05
2022-11-10 10:12:54,0.0,0.0,-0.080767857039869,-0.080750043875271,0.0,-0.08075895045757,0.06840088788989128,-0.00047634214143448894,0.004028186340695129,-2.8052192987796684e-05
2022-11-10 10:12:57,0.0,0.0,-0.080767857039869,-0.080750043875271,0.0,-0.08075895045757,0.07147953560384239,-0.0005617118786422886,0.004166570323665684,-3.274240695928151e-05
2022-11-10 10:13:00,0.0,0.0,-0.080767857039869,-0.080750043875271,0.0,-0.08075895045757,0.07225126687328373,-0.0008598561709411397,0.004074273243131917,-4.848757872095882e-05
2022-11-10 10:13:03,0.0,0.0,-0.080767857039869,-5.9377215327755e-06,0.0,-0.040386897380700885,0.06231561766873154,-0.0008116511879047291,0.003806288483433759,-4.9576313044190126e-05
2022-11-10 10:13:06,0.0,0.0,-0.080767857039869,-5.9377215327755e-06,0.0,-0.040386897380700885,0.060820136114919446,-0.00048322600204914407,0.0038974614218902697,-3.0965973135644006e-05
2022-11-10 10:13:09,0.0,0.0,-0.080767857039869,-5.9377215327755e-06,0.0,-0.040386897380700885,0.06063178267394889,-0.0004618192647319794,0.004013390186446624,-3.056913096146984e-05
2022-11-10 10:13:12,0.0,0.0,-0.080767857039869,-5.9377215327755e-06,0.0,-0.040386897380700885,0.060213094471976154,-0.0005435700595509923,0.003893405207282126,-3.5147479446741546e-05
2022-11-10 10:13:15,0.0,0.0,-0.080767857039869,-5.9377215327755e-06,0.0,-0.040386897380700885,0.060530226675879546,-0.0008984281320486912,0.0039145861330177854,-5.8102777742154784e-05
2022-11-10 10:13:18,0.0,0.0,-0.080767857039869,-5.9377215327755e-06,0.0,-0.040386897380700885,0.06029551502765112,-0.0007511205274816943,0.004078805748325752,-5.0810988574736025e-05
2022-11-10 10:13:21,0.0,0.0,-0.080767857039869,-5.9377215327755e-06,0.0,-0.040386897380700885,0.061000926867928275,-0.0006640179886389917,0.003932425882986932,-4.280593196471173e-05
2022-11-10 10:13:24,0.0,0.0,-0.080767857039869,-5.9377215327755e-06,0.0,-0.040386897380700885,0.060247468445103466,-0.00026213205973238786,0.003962309776143264,-1.7239702343088665e-05
2022-11-10 10:13:27,0.0,0.0,-0.080767857039869,-5.9377215327755e-06,0.0,-0.040386897380700885,0.061553963010133654,-0.0009062202462212059,0.004006702816220065,-5.898816315128857e-05
2022-11-10 10:13:30,0.0,0.0,-0.080767857039869,-5.9377215327755e-06,0.0,-0.040386897380700885,0.0599440709076031,-0.0009412231519412826,0.003858221441326888,-6.058059272435119e-05
2022-11-10 10:13:33,0.0,0.0,-0.080767857039869,-5.9377215327755e-06,0.0,-0.040386897380700885,0.061747811654341664,-0.0006696602138394512,0.003919576714691566,-4.250813932668222e-05
2022-11-10 10:13:36,0.0,0.0,-1.78131645982293e-05,-5.9377215327755e-06,0.0,-1.18754430655024e-05,0.06398969191250788,-0.0005490616447582624,0.0038293692565409764,-3.285778880226382e-05
2022-11-10 10:13:39,0.0,0.0,-1.78131645982293e-05,-5.9377215327755e-06,0.0,-1.18754430655024e-05,0.06804145825818549,-0.0006980171586482464,0.0038983058701213486,-3.999156479978195e-05
2022-11-10 10:13:42,0.0,0.0,-1.78131645982293e-05,-5.9377215327755e-06,0.0,-1.18754430655024e-05,0.07389832617265821,-0.0006343473204605409,0.004238726021791536,-3.6385458688300746e-05
2022-11-10 10:13:45,0.0,0.0,-1.78131645982293e-05,-5.9377215327755e-06,0.0,-1.18754430655024e-05,0.0703382107098301,-0.00117007754673565,0.004038082043456598,-6.7173575830877e-05
2022-11-10 10:13:48,0.0,0.0,-1.78131645982293e-05,-5.9377215327755e-06,0.0,-1.18754430655024e-05,0.07075383054118609,-0.0008682558858515328,0.004245593871052015,-5.209982045184562e-05
2022-11-10 10:13:51,0.0,0.0,-1.78131645982293e-05,-5.9377215327755e-06,0.0,-1.18754430655024e-05,0.07422885996711359,-0.0008322819797583485,0.004331365430584231,-4.8564903155196515e-05
2022-11-10 10:13:54,0.0,0.0,-1.78131645982293e-05,-5.9377215327755e-06,0.0,-1.18754430655024e-05,0.07451440719529116,-0.0008067061955069218,0.004299206307439024,-4.654397041479335e-05
2022-11-10 10:13:57,0.0,0.0,-1.78131645982293e-05,-5.9377215327755e-06,0.0,-1.18754430655024e-05,0.06854456028551972,-0.0010072833362319935,0.00412989299837565,-6.069004426254645e-05
2022-11-10 10:14:00,0.0,0.0,-1.78131645982293e-05,-5.9377215327755e-06,0.0,-1.18754430655024e-05,0.06637927025969491,-0.0006506817804008609,0.0037257742182250225,-3.65218447295631e-05
2022-11-10 10:14:03,0.0,0.0,-1.78131645982293e-05,-5.9377215327755e-06,0.0,-1.18754430655024e-05,0.061190895118057684,-0.000620246581870037,0.003791662969177979,-3.843326677438685e-05
2022-11-10 10:14:06,0.0,0.0,-1.78131645982293e-05,-5.9377215327755e-06,0.0,-1.18754430655024e-05,0.06560875570059402,-0.0003463005418407397,0.003942118053180873,-2.080755233412144e-05
2022-11-10 10:14:09,0.0,0.0,0.08072629298914,-5.9377215327755e-06,0.0,0.04036017763380361,0.06809486413663526,-0.0005938445409259725,0.004088618801841487,-3.565619795538418e-05
2022-11-10 10:14:12,0.0,0.0,0.08072629298914,-5.9377215327755e-06,0.0,0.04036017763380361,0.058136150112587506,-0.00028385358467815846,0.00386481856924387,-1.8870231394511534e-05
2022-11-10 10:14:15,0.0,0.0,0.08072629298914,-5.9377215327755e-06,0.0,0.04036017763380361,0.06047278215420727,-0.0005355040767545433,0.004115772372229731,-3.644636158300844e-05
2022-11-10 10:14:18,0.0,0.0,0.08072629298914,-5.9377215327755e-06,0.0,0.04036017763380361,0.05903365338607119,-0.0005943266578716626,0.004002266790738553,-4.0293183789496326e-05
2022-11-10 10:14:21,0.0,0.0,0.08072629298914,-5.9377215327755e-06,0.0,0.04036017763380361,0.05678651418709351,-0.001148156155205225,0.004038312729095785,-8.164990725225302e-05
2022-11-10 10:14:24,0.0,0.0,0.08072629298914,-5.9377215327755e-06,0.0,0.04036017763380361,0.05584897851458362,-0.0008951644720029276,0.0038127608646204994,-6.111209474243472e-05
2022-11-10 10:14:27,0.0,0.0,0.08072629298914,-5.9377215327755e-06,0.0,0.04036017763380361,0.05939248648672503,-0.0008073766556311477,0.004047066097055532,-5.501548906003837e-05
2022-11-10 10:14:30,0.0,0.0,0.08072629298914,-5.9377215327755e-06,0.0,0.04036017763380361,0.0576194773639113,-0.0005240295522160984,0.004014823883883586,-3.651345791997301e-05
2022-11-10 10:14:33,0.0,0.0,0.08072629298914,-5.9377215327755e-06,0.0,0.04036017763380361,0.0549494647585675,-0.0009210672400372212,0.0038161303974733863,-6.396627716514609e-05
2022-11-10 10:14:36,0.0,0.0,0.08072629298914,-5.9377215327755e-06,0.0,0.04036017763380361,0.056063240601698164,-0.00042973128905231467,0.004063982931864835,-3.115090396583285e-05
2022-11-10 10:14:39,0.0,0.0,0.08072629298914,-5.9377215327755e-06,0.0,0.04036017763380361,0.06693138649431629,-0.0007605655065896894,0.004444534797338709,-5.050485335427008e-05
2022-11-10 10:14:42,0.0,0.0,0.08072629298914,0.080744106153738,0.0,0.080735199571439,0.06835192226166391,-0.0007966912906222793,0.003933817655184164,-4.5851501480583044e-05
2022-11-10 10:14:45,0.0,0.0,0.08072629298914,0.080744106153738,0.0,0.080735199571439,0.06769551523521714,-0.0005625492609812144,0.003978824651193754,-3.3064005190383205e-05
2022-11-10 10:14:48,0.0,0.0,0.08072629298914,0.080744106153738,0.0,0.080735199571439,0.0635312824866699,-0.0007392203426642941,0.0037635584550923394,-4.379100912049429e-05
2022-11-10 10:14:51,0.0,0.0,0.08072629298914,0.080744106153738,0.0,0.080735199571439,0.07054335513009649,-0.0003939959678806067,0.004029757996577351,-2.2506845602368164e-05
2022-11-10 10:14:54,0.0,0.0,0.08072629298914,0.080744106153738,0.0,0.080735199571439,0.07243406508507458,-0.0004513171975891752,0.004199359019931619,-2.616507774788534e-05
2022-11-10 10:14:57,0.0,0.0,0.08072629298914,0.080744106153738,0.0,0.080735199571439,0.07147363692774658,-0.0006362573264002318,0.0040689823879557436,-3.6222024883769626e-05
2022-11-10 10:15:00,0.0,0.0,0.08072629298914,0.080744106153738,0.0,0.080735199571439,0.06670787726179679,-0.000606399120646901,0.0037828746518060877,-3.438772085896345e-05
2022-11-10 10:15:03,0.0,0.0,0.08072629298914,0.080744106153738,0.0,0.080735199571439,0.061927107653078996,-0.0008825070316143607,0.0038423610023491784,-5.475648275986224e-05
2022-11-10 10:15:06,0.0,0.0,0.08072629298914,0.080744106153738,0.0,0.080735199571439,0.07478034080946974,-0.00025172831992966447,0.004455311534314338,-1.4997632735503399e-05
2022-11-10 10:15:09,0.0,0.0,0.08072629298914,0.080744106153738,0.0,0.080735199571439,0.07450432432545756,-0.0005867812571051525,0.004304168301316895,-3.389877446047647e-05
2022-11-10 10:15:12,0.0,0.0,0.08072629298914,0.080744106153738,0.0,0.080735199571439,0.06824262421966823,-0.000782119382088282,0.004055484448299858,-4.6479352560694106e-05
2022-11-10 10:15:15,0.0,0.0,0.08072629298914,0.161488212307477,0.0,0.1211072526483085,0.0662025111954298,-0.0005940279872270514,0.004006991898998474,-3.5954305805268046e-05
2022-11-10 10:15:18,0.0,0.0,0.08072629298914,0.161488212307477,0.0,0.1211072526483085,0.06902952231762352,-0.0010640126687816065,0.0041646283282195315,-6.419307498034122e-05
2022-11-10 10:15:21,0.0,0.0,0.08072629298914,0.161488212307477,0.0,0.1211072526483085,0.06374707134851634,-0.0004186189884619138,0.0039818587604500974,-2.6148364956010248e-05
2022-11-10 10:15:24,0.0,0.0,0.08072629298914,0.161488212307477,0.0,0.1211072526483085,0.061460225940886445,-0.00031494528285733745,0.0040896844816705425,-2.0957079414511753e-05
2022-11-10 10:15:27,0.0,0.0,0.08072629298914,0.161488212307477,0.0,0.1211072526483085,0.05706112349343812,-0.0007981727387676241,0.0038293161754911916,-5.356459165670744e-05
2022-11-10 10:15:30,0.0,0.0,0.08072629298914,0.161488212307477,0.0,0.1211072526483085,0.05875788130566299,-0.0007781243007634131,0.00394135431890886,-5.219493122135831e-05
2022-11-10 10:15:33,0.0,0.0,0.08072629298914,0.161488212307477,0.0,0.1211072526483085,0.061033328951949184,-0.0005079842460956078,0.003939652526963151,-3.278997644653494e-05
2022-11-10 10:15:36,0.0,0.0,0.08072629298914,0.161488212307477,0.0,0.1211072526483085,0.06071068977207911,-0.0006432315298613989,0.003913989102372385,-4.1468828761976604e-05
2022-11-10 10:15:39,0.0,0.0,0.08072629298914,0.161488212307477,0.0,0.1211072526483085,0.06336812037226022,-0.0007488170793784684,0.004307313509921617,-5.0899251919090516e-05
2022-11-10 10:15:42,0.0,0.0,0.08072629298914,0.161488212307477,0.0,0.1211072526483085,0.0662467421208509,-0.0003400998020980702,0.004106256656937855,-2.1080841588267227e-05
2022-11-10 10:15:45,0.0,0.0,0.08072629298914,0.161488212307477,0.0,0.1211072526483085,0.06245215732794036,-0.0007437283147284299,0.0039010110819463263,-4.645623981375045e-05
2022-11-10 10:15:48,0.0,0.0,0.161470399142879,0.161488212307477,0.0,0.161479305725178,0.06393513816669076,-0.0008808609997716164,0.003936281114563389,-5.423178266881198e-05
2022-11-10 10:15:51,0.0,0.0,0.161470399142879,0.161488212307477,0.0,0.161479305725178,0.06113756066324119,-0.0006530020118549825,0.003825385334924074,-4.085842308274941e-05
2022-11-10 10:15:54,0.0,0.0,0.161470399142879,0.161488212307477,0.0,0.161479305725178,0.07518083956885188,-0.0010070477812447465,0.004305171004108825,-5.766779052256358e-05
2022-11-10 10:15:57,0.0,0.0,0.161470399142879,0.161488212307477,0.0,0.161479305725178,0.07617577138826734,-0.0011974202868584491,0.004078790451274963,-6.411522119424722e-05
2022-11-10 10:16:00,0.0,0.0,0.161470399142879,0.161488212307477,0.0,0.161479305725178,0.0705589896606664,-0.0006733540570703868,0.004265380086018095,-4.0705103625776516e-05
2022-11-10 10:16:03,0.0,0.0,0.161470399142879,0.161488212307477,0.0,0.161479305725178,0.06768152677854221,-0.000976724230046004,0.004070714497058511,-5.8745209691946886e-05
2022-11-10 10:16:06,0.0,0.0,0.161470399142879,0.161488212307477,0.0,0.161479305725178,0.05796769528130965,-0.0002731697928771955,0.0036607575661087113,-1.725113239804745e-05
2022-11-10 10:16:09,0.0,0.0,0.161470399142879,0.161488212307477,0.0,0.161479305725178,0.07861279627338937,-0.0007036767090928472,0.004180652785311779,-3.7421744719489824e-05
2022-11-10 10:16:12,0.0,0.0,0.161470399142879,0.161488212307477,0.0,0.161479305725178,0.07722053484426267,-0.0007938619123510626,0.004265345693077949,-4.384967671584068e-05
2022-11-10 10:16:15,0.0,0.0,0.161470399142879,0.161488212307477,0.0,0.161479305725178,0.07039298597483681,-0.0008326316001892428,0.004078950440853637,-4.824717953965802e-05
2022-11-10 10:16:18,0.0,0.0,0.161470399142879,0.161488212307477,0.0,0.161479305725178,0.06863798483234064,-0.0005453335014609663,0.0041687726963004984,-3.3121185256552933e-05
2022-11-10 10:16:21,0.0,0.0,0.24222044301815,0.161488212307477,0.0,0.2018543276628135,0.06632119580730964,-0.00043558689957293216,0.004124279347262543,-2.7087600456817562e-05
2022-11-10 10:16:24,0.0,0.0,0.24222044301815,0.161488212307477,0.0,0.2018543276628135,0.06346573664821692,-0.0005984110012290512,0.00410010481302084,-3.865940830252359e-05
2022-11-10 10:16:27,0.0,0.0,0.24222044301815,0.161488212307477,0.0,0.2018543276628135,0.054299215443115126,-0.0006114555131798071,0.0038772616535103677,-4.3661275669134405e-05
2022-11-10 10:16:30,0.0,0.0,0.24222044301815,0.161488212307477,0.0,0.2018543276628135,0.05978972057368652,-0.0004869477656574135,0.003938911666434857,-3.207983273192457e-05
2022-11-10 10:16:33,0.0,0.0,0.24222044301815,0.161488212307477,0.0,0.2018543276628135,0.05819937206785711,-0.000529966495435069,0.00410807718907183,-3.7408363587337746e-05
2022-11-10 10:16:36,0.0,0.0,0.24222044301815,0.161488212307477,0.0,0.2018543276628135,0.05749219340545979,-0.0007772682817851271,0.004155804683558493,-5.618458741073771e-05
2022-11-10 10:16:39,0.0,0.0,0.24222044301815,0.161488212307477,0.0,0.2018543276628135,0.05619786835410534,-0.0005279058065169938,0.003995418205148055,-3.753175221293395e-05
2022-11-10 10:16:42,0.0,0.0,0.24222044301815,0.161488212307477,0.0,0.2018543276628135,0.05590353588306167,-0.00020415521646289375,0.003883693234784956,-1.4182935309879638e-05
2022-11-10 10:16:45,0.0,0.0,0.24222044301815,0.161488212307477,0.0,0.2018543276628135,0.06202506455740711,-0.0009456130886343257,0.004193396257292409,-6.393109648528937e-05
2022-11-10 10:16:48,0.0,0.0,0.24222044301815,0.161488212307477,0.0,0.2018543276628135,0.05683543456140563,-0.0008215358646079269,0.0038979440179339004,-5.634338566562419e-05
2022-11-10 10:16:51,0.0,0.0,0.24222044301815,0.161488212307477,0.0,0.2018543276628135,0.061104777562458724,-0.00023698939769451876,0.004086840428145503,-1.585044394523511e-05
2022-11-10 10:16:54,0.0,0.0,0.24222044301815,0.161488212307477,0.0,0.2018543276628135,0.06325650105358457,-0.0003256199410196863,0.004132437595911558,-2.127218647627055e-05
2022-11-10 10:16:57,0.0,0.0,0.24222044301815,0.242232318461215,0.0,0.2422263807396825,0.07212158024053754,-0.0011601568994482276,0.004362779935452279,-7.018023213035924e-05
2022-11-10 10:17:00,0.0,0.0,0.24222044301815,0.242232318461215,0.0,0.2422263807396825,0.06937657854037524,-0.0008774222473274876,0.004020515019187442,-5.0848418843491186e-05
2022-11-10 10:17:03,0.0,0.0,0.24222044301815,0.242232318461215,0.0,0.2422263807396825,0.06364188023909075,-0.0011038876711368028,0.003689361872334628,-6.399309809723141e-05
2022-11-10 10:17:06,0.0,0.0,0.24222044301815,0.242232318461215,0.0,0.2422263807396825,0.07044284405891699,-0.00029941765219150887,0.00412391550804058,-1.7528722977467016e-05
2022-11-10 10:17:09,0.0,0.0,0.24222044301815,0.242232318461215,0.0,0.2422263807396825,0.07613946800089091,-0.0011035942100787633,0.004389874218318808,-6.362849514858687e-05
2022-11-10 10:17:12,0.0,0.0,0.24222044301815,0.242232318461215,0.0,0.2422263807396825,0.07104747558147559,-0.0009862987076262688,0.004592287275009644,-6.375127289633816e-05
2022-11-10 10:17:15,0.0,0.0,0.24222044301815,0.242232318461215,0.0,0.2422263807396825,0.07288588653775215,-0.0005367957878108834,0.0042381476332924795,-3.121344756496435e-05
2022-11-10 10:17:18,0.0,0.0,0.24222044301815,0.242232318461215,0.0,0.2422263807396825,0.07254890455113672,-0.0009920374881370502,0.003963489275103658,-5.419695816303494e-05
2022-11-10 10:17:21,0.0,0.0,0.24222044301815,0.242232318461215,0.0,0.2422263807396825,0.07048788408366737,-0.0009492631089355924,0.003965566949035787,-5.340444616362344e-05
2022-11-10 10:17:24,0.0,0.0,0.24222044301815,0.242232318461215,0.0,0.2422263807396825,0.06731592363574329,-0.0007402307321867302,0.003987035313287965,-4.384291130252589e-05
2022-11-10 10:17:27,0.0,0.0,0.24222044301815,0.242232318461215,0.0,0.2422263807396825,0.0730976574028458,-0.0006722750198325826,0.004259943256801179,-3.9178457138083264e-05
2022-11-10 10:17:30,0.0,0.0,0.24222044301815,0.322976424614954,0.0,0.28259843381655203,0.06571436970739702,-0.00079443179398299,0.00400044541653114,-4.836204080076763e-05
2022-11-10 10:17:33,0.0,0.0,0.24222044301815,0.322976424614954,0.0,0.28259843381655203,0.06240626638734848,-0.0004686473991382923,0.003995040375094677,-3.000123849133441e-05
2022-11-10 10:17:36,0.0,0.0,0.24222044301815,0.322976424614954,0.0,0.28259843381655203,0.06654568392298627,-0.00087685052422295,0.00407611220225313,-5.3709585815867424e-05
2022-11-10 10:17:39,0.0,0.0,0.24222044301815,0.322976424614954,0.0,0.28259843381655203,0.06494670282983464,-0.0008523533648568849,0.004185148801212493,-5.492543127996247e-05
2022-11-10 10:17:42,0.0,0.0,0.24222044301815,0.322976424614954,0.0,0.28259843381655203,0.05965499662353998,-0.0002354392171253785,0.003922033627060652,-1.5479013979697264e-05
2022-11-10 10:17:45,0.0,0.0,0.24222044301815,0.322976424614954,0.0,0.28259843381655203,0.06392645720946351,-0.0007502776898297529,0.004120433112138802,-4.8359774206537234e-05
2022-11-10 10:17:48,0.0,0.0,0.24222044301815,0.322976424614954,0.0,0.28259843381655203,0.06290331424732716,-0.000785329506669145,0.004035796775047854,-5.038574403096623e-05
2022-11-10 10:17:51,0.0,0.0,0.24222044301815,0.322976424614954,0.0,0.28259843381655203,0.06316872354978238,-0.00011087047698861473,0.004171537361492279,-7.321666658025572e-06
2022-11-10 10:17:54,0.0,0.0,0.24222044301815,0.322976424614954,0.0,0.28259843381655203,0.06217649010914683,-0.00079306897622183,0.004110886286270074,-5.2434873256651635e-05
2022-11-10 10:17:57,0.0,0.0,0.24222044301815,0.322976424614954,0.0,0.28259843381655203,0.06614133636471498,-0.0007014584941011665,0.004226970996801162,-4.482892050556207e-05
2022-11-10 10:18:00,0.0,0.0,0.24222044301815,0.322976424614954,0.0,0.28259843381655203,0.0704400708726186,-0.0008005184291912187,0.0042307202186873775,-4.80801546883118e-05
2022-11-10 10:18:03,0.0,0.0,0.322964549171888,0.322976424614954,0.0,0.322970486893421,0.0692259345911582,-0.0008716603390159484,0.004031600614955369,-5.076401466536139e-05
2022-11-10 10:18:06,0.0,0.0,0.322964549171888,0.322976424614954,0.0,0.322970486893421,0.06332755132357265,-0.00011318922999490428,0.003811727475458319,-6.81293511086617e-06
2022-11-10 10:18:09,0.0,0.0,0.322964549171888,0.322976424614954,0.0,0.322970486893421,0.06807899535424342,-0.0007789278375843998,0.003964236291980007,-4.535692670724934e-05
2022-11-10 10:18:12,0.0,0.0,0.322964549171888,0.322976424614954,0.0,0.322970486893421,0.07352772273080244,-0.0008517768362662267,0.0042916268794738486,-4.9716055795944806e-05
2022-11-10 10:18:15,0.0,0.0,0.322964549171888,0.322976424614954,0.0,0.322970486893421,0.07297089612717793,-0.0006705521263549205,0.004287144392289186,-3.939589536121084e-05
2022-11-10 10:18:18,0.0,0.0,0.322964549171888,0.322976424614954,0.0,0.322970486893421,0.07252764654700708,-0.0012068792381023617,0.0041295016460061815,-6.871600055358545e-05
2022-11-10 10:18:21,0.0,0.0,0.322964549171888,0.322976424614954,0.0,0.322970486893421,0.07053044250156792,-0.0005236525355539487,0.003990654233848168,-2.9628570783846116e-05
2022-11-10 10:18:24,0.0,0.0,0.322964549171888,0.322976424614954,0.0,0.322970486893421,0.07357723314556856,-0.0005787700699146372,0.00412051114406177,-3.241258771194098e-05
2022-11-10 10:18:27,0.0,0.0,0.322964549171888,0.322976424614954,0.0,0.322970486893421,0.07490911616857417,-0.0009175399787736548,0.0042979845168505185,-5.2644762400960315e-05
2022-11-10 10:18:30,0.0,0.0,0.322964549171888,0.322976424614954,0.0,0.322970486893421,0.07223460245949936,-0.0006809794567131178,0.004334793386355455,-4.086552904972425e-05
2022-11-10 10:18:33,0.0,0.0,0.322964549171888,0.322976424614954,0.0,0.322970486893421,0.06949590244750657,-0.0007007460642346232,0.004064562151273691,-4.098408438531246e-05
2022-11-10 10:18:36,0.0,0.0,0.403714593047159,0.322976424614954,0.0,0.36334550883105654,0.06820586147911704,-0.0008621719404343642,0.004195970709133657,-5.304013657839591e-05
2022-11-10 10:18:39,0.0,0.0,0.403714593047159,0.322976424614954,0.0,0.36334550883105654,0.06377857415329277,-0.00043472743378297285,0.0041490755015379955,-2.828092301060467e-05
2022-11-10 10:18:42,0.0,0.0,0.403714593047159,0.322976424614954,0.0,0.36334550883105654,0.05653078710091775,-0.00078872094119006,0.0038469416494096354,-5.3672761233787096e-05
2022-11-10 10:18:45,0.0,0.0,0.403714593047159,0.322976424614954,0.0,0.36334550883105654,0.05459883984530497,-0.0003171526386578109,0.0038371799222730795,-2.228933326791796e-05
2022-11-10 10:18:48,0.0,0.0,0.403714593047159,0.322976424614954,0.0,0.36334550883105654,0.0614921974255319,-0.0005208260050673734,0.004026215054922036,-3.410119641823844e-05
2022-11-10 10:18:51,0.0,0.0,0.403714593047159,0.322976424614954,0.0,0.36334550883105654,0.05833499082146067,-0.0010135954703666466,0.004221253506556072,-7.334608908416082e-05
2022-11-10 10:18:54,0.0,0.0,0.403714593047159,0.322976424614954,0.0,0.36334550883105654,0.056722146476221404,-0.00018928081774760097,0.004178842205905463,-1.3944723870835191e-05
2022-11-10 10:18:57,0.0,0.0,0.403714593047159,0.322976424614954,0.0,0.36334550883105654,0.06158217545048682,-0.001101947957737407,0.0041658527251897375,-7.454353259164302e-05
2022-11-10 10:19:00,0.0,0.0,0.403714593047159,0.322976424614954,0.0,0.36334550883105654,0.06122199431122778,-0.000780709239472396,0.00402039497108048,-5.1268494853250083e-05
2022-11-10 10:19:03,0.0,0.0,0.403714593047159,0.322976424614954,0.0,0.36334550883105654,0.060130395559773106,-0.000510447082644261,0.004038971167516154,-3.4286836634784404e-05
2022-11-10 10:19:06,0.0,0.0,0.403714593047159,0.322976424614954,0.0,0.36334550883105654,0.058376621114467744,-0.0003517606692024361,0.004120818791266647,-2.4830864616771782e-05
2022-11-10 10:19:09,0.0,0.0,0.403714593047159,0.322976424614954,0.0,0.36334550883105654,0.0618651388915398,-0.00046198113845110755,0.004091403636291097,-3.055276919478871e-05
2022-11-10 10:19:12,0.0,0.0,0.403714593047159,0.403726468490225,0.0,0.40372053076869197,0.06799153583144281,-0.00017388768355417698,0.004056814788139214,-1.0375263883826401e-05
2022-11-10 10:19:15,0.0,0.0,0.403714593047159,0.403726468490225,0.0,0.40372053076869197,0.07574284253266753,-0.0008388705538030193,0.004304589255075139,-4.767438151983806e-05
2022-11-10 10:19:18,0.0,0.0,0.403714593047159,0.403726468490225,0.0,0.40372053076869197,0.07024521561493241,-0.0007821339818926375,0.004110894445406599,-4.577208872632034e-05
2022-11-10 10:19:21,0.0,0.0,0.403714593047159,0.403726468490225,0.0,0.40372053076869197,0.07228965472678939,-0.0006172020483432186,0.004161932431792026,-3.553417472633429e-05
2022-11-10 10:19:24,0.0,0.0,0.403714593047159,0.403726468490225,0.0,0.40372053076869197,0.07235658611492787,-0.0007145223584648047,0.004185708582916446,-4.133393418757227e-05
2022-11-10 10:19:27,0.0,0.0,0.403714593047159,0.403726468490225,0.0,0.40372053076869197,0.07339259715441944,-0.0007960730147554039,0.004274927214927508,-4.6369175200149435e-05
2022-11-10 10:19:30,0.0,0.0,0.403714593047159,0.403726468490225,0.0,0.40372053076869197,0.07204246270627825,-0.0008957777605199005,0.004204132574024376,-5.227428825472577e-05
2022-11-10 10:19:33,0.0,0.0,0.403714593047159,0.403726468490225,0.0,0.40372053076869197,0.07085351203678936,-0.0003558296803077279,0.0040259659986271535,-2.0218591189628734e-05
2022-11-10 10:19:36,0.0,0.0,0.403714593047159,0.403726468490225,0.0,0.40372053076869197,0.07273831408007833,-0.0005974783789753175,0.004385269128306306,-3.602095433867848e-05
2022-11-10 10:19:39,0.0,0.0,0.403714593047159,0.403726468490225,0.0,0.40372053076869197,0.07368046468841372,-0.0009223057026498597,0.004310041471991198,-5.3951557513724204e-05
2022-11-10 10:19:42,0.0,0.0,0.403714593047159,0.403726468490225,0.0,0.40372053076869197,0.07132994298944609,-0.0010457035537459057,0.004107943914598917,-6.0222837283362773e-05
2022-11-10 10:19:45,0.0,0.0,0.403714593047159,0.484476512365496,0.0,0.4440955527063275,0.06401767808927895,-0.00027543544073178796,0.003874948524901083,-1.667192854574746e-05
2022-11-10 10:19:48,0.0,0.0,0.403714593047159,0.484476512365496,0.0,0.4440955527063275,0.06564107667522594,-0.0004268008833820296,0.004134600813451522,-2.6883338436756284e-05
2022-11-10 10:19:51,0.0,0.0,0.403714593047159,0.484476512365496,0.0,0.4440955527063275,0.06821041542805306,-0.0006749308148616805,0.004229877962176875,-4.185394505900299e-05
2022-11-10 10:19:54,0.0,0.0,0.403714593047159,0.484476512365496,0.0,0.4440955527063275,0.06703116192455681,-0.0005340680125950469,0.004080056946980793,-3.250768511817131e-05
2022-11-10 10:19:57,0.0,0.0,0.403714593047159,0.484476512365496,0.0,0.4440955527063275,0.0638414349784807,-0.000702611071886182,0.004240613871931654,-4.667035224094862e-05
2022-11-10 10:20:00,0.0,0.0,0.403714593047159,0.484476512365496,0.0,0.4440955527063275,0.06227279809165713,-0.0004652413749686728,0.004178681325532521,-3.121901544531885e-05
2022-11-10 10:20:03,0.0,0.0,0.403714593047159,0.484476512365496,0.0,0.4440955527063275,0.06206381620294159,-0.0005689488206755489,0.003937345562431405,-3.609426959844727e-05
2022-11-10 10:20:06,0.0,0.0,0.403714593047159,0.484476512365496,0.0,0.4440955527063275,0.0688523318926949,-0.0005753580878205856,0.00425989240615022,-3.559739346147064e-05
2022-11-10 10:20:09,0.0,0.0,0.403714593047159,0.484476512365496,0.0,0.4440955527063275,0.0609670801562199,-0.0006453254810820323,0.0040606526523445,-4.298127152664544e-05
2022-11-10 10:20:12,0.0,0.0,0.403714593047159,0.484476512365496,0.0,0.4440955527063275,0.06052672078420481,-0.0003532116457319874,0.0039353614919322745,-2.2965319962921722e-05
2022-11-10 10:20:15,0.0,0.0,0.403714593047159,0.484476512365496,0.0,0.4440955527063275,0.06758041198811333,-0.0007981097153891329,0.004246174429974509,-5.014638067604031e-05
