TS,xPos,x_estimate
2024-04-06 13:24:00,0.10059185283363,0.0991979435343261
2024-04-06 13:24:03,0.09464698011759,0.0855136936112494
2024-04-06 13:24:06,0.068951783164432,0.06359177833512
2024-04-06 13:24:12,0.020310167715002,0.0232577710491668
2024-04-06 13:24:12,0.013758646792062,0.0232577710491668
2024-04-06 13:24:18,0.0052154351674509,0.0084070662714768
2024-04-06 13:24:18,0.0056485136891777,0.0084070662714768
2024-04-06 13:24:24,0.006405340645641,0.0076973012875681
2024-04-06 13:24:24,0.0056431040855386,0.0076973012875681
2024-04-06 13:24:30,0.0057585665496422,0.009456481946229
2024-04-06 13:24:30,0.0050135543326977,0.009456481946229
2024-04-06 13:24:36,0.0062397832955488,0.0098073930431172
2024-04-06 13:24:39,0.027652625077763,0.0315759294804273
2024-04-06 13:24:42,0.050158469807764,0.0495897866920566
2024-04-06 13:24:45,0.053973319412232,0.0497962201615653
2024-04-06 13:24:48,0.053349440052273,0.0551458949674252
2024-04-06 13:24:51,0.052998821893674,0.052750058319185
2024-04-06 13:24:54,0.054266989451032,0.0508860940070193
2024-04-06 13:24:57,0.052000191995998,0.0515260384763107
2024-04-06 13:25:00,0.053345625785679,0.0488601319558604
2024-04-06 13:25:03,0.053247144032737,0.0522322546788662
2024-04-06 13:25:06,0.059207896959031,0.0650346073730103
2024-04-06 13:25:06,0.065316331023954,0.0650346073730103
2024-04-06 13:25:12,0.077553729960642,0.0746048328192382
2024-04-06 13:25:12,0.077134582985912,0.0746048328192382
2024-04-06 13:25:15,0.077713925926875,0.0740368212685066
2024-04-06 13:25:18,0.07535743786737,0.0741511248833153
2024-04-06 13:25:21,0.074811115082567,0.0737616250832232
2024-04-06 13:25:24,0.076265898130777,0.0733336382021448
2024-04-06 13:25:27,0.0768052606955,0.0752569044508684
2024-04-06 13:25:33,0.088261390481138,0.093301531150294
2024-04-06 13:25:33,0.094593709423531,0.093301531150294
2024-04-06 13:25:36,0.098138325708128,0.0962241462996147
2024-04-06 13:25:36,0.099792760459808,0.0962241462996147
2024-04-06 13:25:42,0.098779699414229,0.0979855691358611
2024-04-06 13:25:48,0.10419223801062,0.1017183627117788
2024-04-06 13:25:48,0.10890794018944,0.1017183627117788
2024-04-06 13:25:54,0.12334342722407,0.1227258152274691
2024-04-06 13:25:57,0.12472638492051,0.1175438097391868
2024-04-06 13:26:00,0.12272320829049,0.1225915921528373
2024-04-06 13:26:03,0.12329400140095,0.1248338321323891
2024-04-06 13:26:09,0.12343501610977,0.1237275865140046
2024-04-06 13:26:09,0.12383797015597,0.1237275865140046
2024-04-06 13:26:12,0.12399462955157,0.129882555390644
2024-04-06 13:26:15,0.13470172473121,0.1417430015061775
2024-04-06 13:26:18,0.14852772089589,0.1452237210814372
2024-04-06 13:26:21,0.14710729050437,0.1493415440972754
2024-04-06 13:26:24,0.14838714662345,0.1535122427878199
2024-04-06 13:26:27,0.14750705506332,0.1518422509781896
2024-04-06 13:26:30,0.14513547783852,0.1459409760621176
2024-04-06 13:26:33,0.14640914172676,0.1465619494399939
2024-04-06 13:26:39,0.14799306947525,0.1545373437011798
2024-04-06 13:26:45,0.19267325981299,0.186746538353771
2024-04-06 13:26:45,0.1940264733088,0.186746538353771
2024-04-06 13:26:51,0.19614943466978,0.1886805251142234
2024-04-06 13:26:54,0.1934237263879,0.1981785228190432
2024-04-06 13:26:54,0.19298313899922,0.1981785228190432
2024-04-06 13:27:00,0.19362368459921,0.1960935487182862
2024-04-06 13:27:00,0.19444180468403,0.1960935487182862
2024-04-06 13:27:06,0.19434841274409,0.1960844399487396
2024-04-06 13:27:06,0.19552810327615,0.1960844399487396
2024-04-06 13:27:12,0.16596758140971,0.1597653320814685
2024-04-06 13:27:15,0.13293607227321,0.1311830168028107
2024-04-06 13:27:15,0.12218400320294,0.1311830168028107
2024-04-06 13:27:18,0.11489544104717,0.1080166934309553
2024-04-06 13:27:18,0.1072498963177,0.1080166934309553
2024-04-06 13:27:21,0.10042659526241,0.1051322916029973
2024-04-06 13:27:27,0.099096251137895,0.0979820370720044
2024-04-06 13:27:27,0.098690778176432,0.0979820370720044
2024-04-06 13:27:33,0.099521025981022,0.1012897350052548
2024-04-06 13:27:33,0.098858429549959,0.1012897350052548
2024-04-06 13:27:36,0.099575451517733,0.0996044909793973
2024-04-06 13:27:36,0.099786204577585,0.0996044909793973
2024-04-06 13:27:42,0.099052103367167,0.1007220718216276
2024-04-06 13:27:42,0.098852619440404,0.1007220718216276
2024-04-06 13:27:48,0.099347051013835,0.1022762232496301
2024-04-06 13:27:48,0.0986170893544,0.1022762232496301
2024-04-06 13:27:51,0.097836667386046,0.0999104820742518
2024-04-06 13:27:54,0.098809921690955,0.0943052218502892
2024-04-06 13:27:54,0.098733540837894,0.0943052218502892
2024-04-06 13:27:57,0.098646600140634,0.0953416879813244
2024-04-06 13:28:00,0.095025539361721,0.0910392628558357
2024-04-06 13:28:03,0.096553931211198,0.100577846594424
2024-04-06 13:28:06,0.097545604946286,0.096355049337554
2024-04-06 13:28:09,0.097203673918766,0.0945858769006715
2024-04-06 13:28:12,0.097837842381003,0.0945780201629086
2024-04-06 13:28:12,0.098039647654639,0.0945780201629086
2024-04-06 13:28:15,0.097984669598727,0.0989144856797301
2024-04-06 13:28:18,0.097886214389881,0.0972070543033277
2024-04-06 13:28:21,0.097259884777985,0.0931947565197732
2024-04-06 13:28:24,0.098975628700334,0.0988881714823106
2024-04-06 13:28:27,0.10028071888081,0.0963614699290297
2024-04-06 13:28:30,0.097718864723104,0.1003409309702611
2024-04-06 13:28:36,0.097821770375931,0.0982326343325559
2024-04-06 13:28:39,0.097100226470126,0.095250965700988
2024-04-06 13:28:42,0.097313596447182,0.0992953751805669
2024-04-06 13:28:42,0.097590238518758,0.0992953751805669
2024-04-06 13:28:48,0.09853939051797,0.0940468624778255
2024-04-06 13:28:48,0.099593692754944,0.0940468624778255
2024-04-06 13:28:54,0.097853685808883,0.0904347039337701
2024-04-06 13:28:54,0.097898196990002,0.0904347039337701
2024-04-06 13:28:57,0.098823091682876,0.0961581703313101
2024-04-06 13:29:03,0.096725399444079,0.0964636933233511
2024-04-06 13:29:03,0.097809954818789,0.0964636933233511
2024-04-06 13:29:09,0.096698964470254,0.1029864449498431
2024-04-06 13:29:09,0.097561622462557,0.1029864449498431
2024-04-06 13:29:15,0.099587743647184,0.0955300049423954
2024-04-06 13:29:15,0.099921677735808,0.0955300049423954
2024-04-06 13:29:18,0.099070903357358,0.0967954894423426
2024-04-06 13:29:21,0.098474622272284,0.0985306039647744
2024-04-06 13:29:24,0.099430747330969,0.0970698222180357
2024-04-06 13:29:27,0.099105045519125,0.0958145360454913
2024-04-06 13:29:30,0.098499177880634,0.0939909034120241
2024-04-06 13:29:33,0.098857603857449,0.0908641035796322
2024-04-06 13:29:36,0.09901463836022,0.0967508201731262
2024-04-06 13:29:39,0.098310539623017,0.0927153583771753
2024-04-06 13:29:45,0.098244292619236,0.0993175746822851
2024-04-06 13:29:48,0.099497630045493,0.0981473324742157
2024-04-06 13:29:51,0.09954183358836,0.0965914732528632
2024-04-06 13:29:54,0.098409557871888,0.0971843341217729
2024-04-06 13:29:57,0.099167255496528,0.1012597680330132
2024-04-06 13:30:00,0.09756829422669,0.0976432600038452
2024-04-06 13:30:03,0.099174243785257,0.1076836994170968
2024-04-06 13:30:06,0.099269984967231,0.1009331830336502
2024-04-06 13:30:06,0.098811131214335,0.1009331830336502
2024-04-06 13:30:12,0.097386743126866,0.1005146525639206
2024-04-06 13:30:12,0.097613146526117,0.1005146525639206
2024-04-06 13:30:18,0.10019378942633,0.0977838899408492
2024-04-06 13:30:18,0.099575191235124,0.0977838899408492
2024-04-06 13:30:24,0.10028021617137,0.1014901879242324
2024-04-06 13:30:24,0.10033650171677,0.1014901879242324
2024-04-06 13:30:30,0.10127052614161,0.1011485991489822
2024-04-06 13:30:30,0.099953245485424,0.1011485991489822
2024-04-06 13:30:36,0.10019225268583,0.099242278072454
2024-04-06 13:30:36,0.10053017628071,0.099242278072454
2024-04-06 13:30:39,0.099911936704345,0.1013480601498229
2024-04-06 13:30:42,0.099764998320059,0.1039800699840595
2024-04-06 13:30:45,0.10099758035151,0.1024339211482509
2024-04-06 13:30:48,0.099091696775298,0.1026485587030165
2024-04-06 13:30:51,0.10020960188781,0.1016122292382992
2024-04-06 13:30:54,0.09891139848239,0.0986442530238132
2024-04-06 13:30:57,0.098607368143799,0.0985676325454405
2024-04-06 13:31:00,0.098833599149572,0.1030875401512476
2024-04-06 13:31:03,0.097153527032725,0.0991195021717172
2024-04-06 13:31:06,0.098546593797688,0.1049462847075092
2024-04-06 13:31:09,0.099972421402497,0.105406975602203
2024-04-06 13:31:12,0.097624605037361,0.1025975950284998
2024-04-06 13:31:15,0.098802638928811,0.0957405185773855
2024-04-06 13:31:21,0.098763253037471,0.0989918181647957
2024-04-06 13:31:21,0.099743322215286,0.0989918181647957
2024-04-06 13:31:24,0.097786205375606,0.1001322647848237
2024-04-06 13:31:27,0.097465955913647,0.0983159198338364
2024-04-06 13:31:27,0.097674667529485,0.0983159198338364
2024-04-06 13:31:33,0.097202080060251,0.0998247198115208
2024-04-06 13:31:33,0.097513829529193,0.0998247198115208
2024-04-06 13:31:39,0.098290349758237,0.0962039681318634
2024-04-06 13:31:39,0.097741599603375,0.0962039681318634
2024-04-06 13:31:45,0.099041735221903,0.0949997585433327
2024-04-06 13:31:45,0.099216065064233,0.0949997585433327
2024-04-06 13:31:51,0.097454673187162,0.0918205084356552
2024-04-06 13:31:51,0.096914382400196,0.0918205084356552
2024-04-06 13:31:54,0.098572886417776,0.0977912767635692
2024-04-06 13:31:54,0.09878635324746,0.0977912767635692
2024-04-06 13:32:00,0.098351304724568,0.0951680155241866
2024-04-06 13:32:00,0.098192173892285,0.0951680155241866
2024-04-06 13:32:06,0.097047220013245,0.0989611917340247
2024-04-06 13:32:06,0.098059614822937,0.0989611917340247
2024-04-06 13:32:12,0.097634924557794,0.0971430135632532
2024-04-06 13:32:12,0.097589932287317,0.0971430135632532
2024-04-06 13:32:15,0.097858108428223,0.0971852024276018
2024-04-06 13:32:18,0.098358086075904,0.0988276028353985
2024-04-06 13:32:21,0.099203436722788,0.1017937442800672
2024-04-06 13:32:24,0.098676811927081,0.0947057873666852
2024-04-06 13:32:27,0.099469528519707,0.0954446417519876
2024-04-06 13:32:33,0.098356273901387,0.0949999273517827
2024-04-06 13:32:36,0.098326613622915,0.097970485738596
2024-04-06 13:32:36,0.097660070924598,0.097970485738596
2024-04-06 13:32:42,0.10036064944611,0.0976219793324337
2024-04-06 13:32:45,0.098163920015111,0.102708017519127
2024-04-06 13:32:48,0.098512470425931,0.1025842347645774
2024-04-06 13:32:51,0.097959566936382,0.1019947716859809
2024-04-06 13:32:57,0.097940834666579,0.097355533414922
2024-04-06 13:32:57,0.098912661392569,0.097355533414922
2024-04-06 13:33:03,0.09855767010948,0.097227163890977
2024-04-06 13:33:03,0.096859404475677,0.097227163890977
2024-04-06 13:33:09,0.099358193015792,0.1025012830808626
2024-04-06 13:33:09,0.099247621211905,0.1025012830808626
2024-04-06 13:33:15,0.098678923664485,0.1003504647754679
2024-04-06 13:33:15,0.10003404347742,0.1003504647754679
2024-04-06 13:33:18,0.10044365451853,0.1015163055419881
2024-04-06 13:33:21,0.099510128060884,0.1045200774674004
2024-04-06 13:33:24,0.099633885764035,0.1049350889394927
2024-04-06 13:33:24,0.099662358818737,0.1049350889394927
2024-04-06 13:33:30,0.10011924773981,0.1013541499742318
2024-04-06 13:33:33,0.099315960749116,0.09845164021586
2024-04-06 13:33:36,0.10003025724779,0.0995295280229738
2024-04-06 13:33:39,0.10066455124221,0.1030053159937333
2024-04-06 13:33:42,0.099954298103302,0.0991804936984125
2024-04-06 13:33:42,0.10185009138982,0.0991804936984125
2024-04-06 13:33:54,0.099129106510856,0.1017307053118982
2024-04-06 13:33:57,0.099366336192067,0.096094554427568
2024-04-06 13:33:57,0.098530587086027,0.096094554427568
2024-04-06 13:34:03,0.098545861975084,0.095272406191877
2024-04-06 13:34:03,0.099131502884711,0.095272406191877
2024-04-06 13:34:09,0.098727747027106,0.1017237147561434
2024-04-06 13:34:09,0.0987101169451,0.1017237147561434
2024-04-06 13:34:15,0.0992065867178,0.1001469683599601
2024-04-06 13:34:18,0.099419490549964,0.0978179454958714
2024-04-06 13:34:18,0.099368807632029,0.0978179454958714
2024-04-06 13:34:24,0.099287138380383,0.097244470269653
2024-04-06 13:34:24,0.098397491385844,0.097244470269653
2024-04-06 13:34:30,0.099970948862646,0.1070649722039486
2024-04-06 13:34:30,0.09959833865552,0.1070649722039486
2024-04-06 13:34:33,0.099345336586717,0.1048960473568237
2024-04-06 13:34:33,0.099134583965456,0.1048960473568237
2024-04-06 13:34:39,0.10015271402566,0.1041106069682722
2024-04-06 13:34:39,0.10177743302088,0.1041106069682722
2024-04-06 13:34:45,0.10049990395534,0.100052590785737
2024-04-06 13:34:51,0.10124029543746,0.1025670892536994
2024-04-06 13:34:54,0.10007535177372,0.1061497397763068
2024-04-06 13:34:57,0.099851652536261,0.1059670342732794
2024-04-06 13:35:00,0.10223052948288,0.102980098488686
2024-04-06 13:35:03,0.10134319970024,0.1027183593178738
2024-04-06 13:35:06,0.10024149167593,0.1021391147676229
2024-04-06 13:35:09,0.098411019337476,0.102982408573639
2024-04-06 13:35:12,0.099385956647948,0.0987637177648176
2024-04-06 13:35:15,0.10032174743949,0.0980749972160289
2024-04-06 13:35:15,0.10118810250559,0.0980749972160289
2024-04-06 13:35:18,0.099912162502767,0.0991101755780964
2024-04-06 13:35:21,0.099658210824821,0.1031589225226586
2024-04-06 13:35:24,0.1004076896701,0.1007340549229113
2024-04-06 13:35:24,0.099604582949529,0.1007340549229113
2024-04-06 13:35:27,0.1002581602576,0.0993056791629584
2024-04-06 13:35:30,0.098357403457291,0.1010532682726802
2024-04-06 13:35:33,0.10027039474649,0.1054231753532615
2024-04-06 13:35:36,0.099199150653549,0.1051379414957349
2024-04-06 13:35:39,0.098988273215964,0.1079909427182381
2024-04-06 13:35:39,0.098894831040002,0.1079909427182381
2024-04-06 13:35:42,0.099956512145315,0.105189373446045
2024-04-06 13:35:42,0.10040337985065,0.105189373446045
2024-04-06 13:35:45,0.099300659490662,0.1016739298783474
2024-04-06 13:35:45,0.098845905884984,0.1016739298783474
2024-04-06 13:35:48,0.09929777661722,0.0990508746508945
2024-04-06 13:35:48,0.10123434209587,0.0990508746508945
2024-04-06 13:35:51,0.099730902196783,0.0986784046352281
2024-04-06 13:35:54,0.099478343795302,0.099227104424936
2024-04-06 13:35:57,0.10153897824571,0.0999012691710907
2024-04-06 13:36:00,0.10087800397187,0.1037060516106933
2024-04-06 13:36:03,0.10167648908678,0.0997055291463614
2024-04-06 13:36:03,0.10170666695377,0.0997055291463614
2024-04-06 13:36:09,0.10142303519451,0.1079096244180943
2024-04-06 13:36:09,0.10087104063331,0.1079096244180943
2024-04-06 13:36:12,0.10215509578973,0.1032451851605281
2024-04-06 13:36:15,0.10005226303587,0.1015821206312166
2024-04-06 13:36:18,0.099405601223804,0.1045356391503335
2024-04-06 13:36:21,0.10042164574516,0.1029046087018257
2024-04-06 13:36:24,0.10080966378447,0.102110794510321
2024-04-06 13:36:27,0.099446207347174,0.1058669130064657
2024-04-06 13:36:27,0.10011144024708,0.1058669130064657
2024-04-06 13:36:33,0.10020252462519,0.0999759934981635
2024-04-06 13:36:33,0.10081010885814,0.0999759934981635
2024-04-06 13:36:39,0.10064620085425,0.0988020858491448
2024-04-06 13:36:45,0.099854484991135,0.1008692303163292
2024-04-06 13:36:45,0.10077024606611,0.1008692303163292
2024-04-06 13:36:51,0.10105856861826,0.1028718065560679
2024-04-06 13:36:51,0.10163780063347,0.1028718065560679
2024-04-06 13:36:57,0.099902766034927,0.1073384318653826
2024-04-06 13:37:00,0.10113780191696,0.1010609100838724
2024-04-06 13:37:00,0.099398468548244,0.1010609100838724
2024-04-06 13:37:06,0.10134234113987,0.099241762919769
2024-04-06 13:37:06,0.10065154238893,0.099241762919769
2024-04-06 13:37:12,0.098915512113786,0.1012415308200565
2024-04-06 13:37:15,0.10121706065908,0.1039726939826828
2024-04-06 13:37:18,0.10058582150735,0.1053774793153555
2024-04-06 13:37:21,0.10098570824617,0.1041493715415285
2024-04-06 13:37:24,0.099550185383932,0.0961837198150988
2024-04-06 13:37:27,0.10019317647306,0.0991262715270938
2024-04-06 13:37:33,0.098802669459231,0.0970964823694393
2024-04-06 13:37:36,0.09796535010084,0.0987522747285279
2024-04-06 13:37:39,0.10130341199541,0.1042104573147089
2024-04-06 13:37:42,0.10180736100053,0.1021431913336679
2024-04-06 13:37:45,0.10104761827925,0.0976231631667521
2024-04-06 13:37:45,0.10150370176158,0.0976231631667521
2024-04-06 13:37:51,0.09989095094316,0.0967936525305709
2024-04-06 13:37:51,0.10039696034751,0.0967936525305709
2024-04-06 13:37:57,0.099749507977223,0.0978421994535452
2024-04-06 13:38:00,0.10090184901598,0.098402964592556
2024-04-06 13:38:03,0.10104988742733,0.0958506197394718
2024-04-06 13:38:06,0.10044727262837,0.0989150158728455
2024-04-06 13:38:06,0.10015850611382,0.0989150158728455
2024-04-06 13:38:27,0.09966618316673,0.0969927405261381
2024-04-06 13:38:27,0.099728898396928,0.0969927405261381
2024-04-06 13:38:33,0.10078219123692,0.1025305980261824
2024-04-06 13:38:36,0.10005555292198,0.1010016370038366
2024-04-06 13:38:39,0.1007995597757,0.0984217568127696
2024-04-06 13:38:42,0.10083018932977,0.1007281431670324
2024-04-06 13:38:45,0.10028380264075,0.1007780015881681
2024-04-06 13:38:48,0.099999661000016,0.0936930557372371
2024-04-06 13:38:48,0.10079474388097,0.0936930557372371
2024-04-06 13:38:54,0.10098971014474,0.0945363056698648
2024-04-06 13:38:54,0.10080715723792,0.0945363056698648
2024-04-06 13:39:00,0.099441799558178,0.099462249875414
2024-04-06 13:39:00,0.099355388722485,0.099462249875414
2024-04-06 13:39:09,0.10091526724673,0.1011004707459591
2024-04-06 13:39:12,0.10068631790022,0.0977601346925716
2024-04-06 13:39:15,0.10029514655255,0.0958924161129047
2024-04-06 13:39:18,0.1011599516441,0.0985808595153453
2024-04-06 13:39:18,0.10247698478582,0.0985808595153453
2024-04-06 13:39:24,0.10092786403249,0.0923238781891402
2024-04-06 13:39:24,0.10085604533919,0.0923238781891402
2024-04-06 13:39:30,0.1002987336683,0.1015713165591137
2024-04-06 13:39:30,0.099538396216699,0.1015713165591137
2024-04-06 13:39:36,0.10027497287467,0.0992944203129917
2024-04-06 13:39:36,0.10007333725875,0.0992944203129917
2024-04-06 13:40:03,0.10127786803006,0.1064025917272575
2024-04-06 13:40:03,0.10119429891843,0.1064025917272575
2024-04-06 13:40:06,0.10047977954389,0.101152049790931
2024-04-06 13:40:09,0.099664096872608,0.1025373462273506
2024-04-06 13:40:09,0.10066062454659,0.1025373462273506
2024-04-06 13:40:15,0.10065945527236,0.1027299041324101
2024-04-06 13:40:15,0.10190129185758,0.1027299041324101
2024-04-06 13:40:21,0.099874200048915,0.108454794792929
2024-04-06 13:40:24,0.098171489498639,0.0957389331541986
2024-04-06 13:40:27,0.099347318508622,0.1002158551007686
2024-04-06 13:40:30,0.098929075264882,0.1052859605093435
2024-04-06 13:40:36,0.099892856012467,0.1038416739753845
2024-04-06 13:40:36,0.099599385145445,0.1038416739753845
2024-04-06 13:40:39,0.099920611582209,0.1048385423449129
2024-04-06 13:40:42,0.10117134964778,0.1027684892099479
2024-04-06 13:40:45,0.098400355093951,0.0918062080128311
2024-04-06 13:40:48,0.099744694258596,0.1026675936523573
2024-04-06 13:40:48,0.099476214674862,0.1026675936523573
2024-04-06 13:40:54,0.10030905338469,0.099260941664265
2024-04-06 13:40:54,0.10048570090572,0.099260941664265
2024-04-06 13:41:00,0.10149091196101,0.1033060940023028
2024-04-06 13:41:00,0.10000040036213,0.1033060940023028
2024-04-06 13:41:09,0.09911777205435,0.1005960206133129
2024-04-06 13:41:09,0.099959078773699,0.1005960206133129
2024-04-06 13:41:15,0.10172788732005,0.1080557677788991
2024-04-06 13:41:15,0.10143701561078,0.1080557677788991
2024-04-06 13:41:18,0.099448678292017,0.1031956610566369
2024-04-06 13:41:21,0.09879254193063,0.1022678890284107
2024-04-06 13:41:21,0.1002508932362,0.1022678890284107
2024-04-06 13:41:24,0.099668900527698,0.1034876242219542
2024-04-06 13:41:27,0.099928583895996,0.0997880315254466
2024-04-06 13:41:30,0.099028282269815,0.0943332268296291
2024-04-06 13:41:33,0.10111834954296,0.0946068265290366
2024-04-06 13:41:36,0.099780573068871,0.1055562856656398
2024-04-06 13:41:42,0.099027645822947,0.0983591342700621
2024-04-06 13:41:42,0.098620603135262,0.0983591342700621
2024-04-06 13:41:45,0.098280925268539,0.1046112802605775
2024-04-06 13:41:48,0.10014539945191,0.1014132802949686
2024-04-06 13:41:51,0.10090461695648,0.0995077275850897
2024-04-06 13:41:51,0.10086910663297,0.0995077275850897
2024-04-06 13:41:54,0.10083070942506,0.0988090563254078
2024-04-06 13:41:57,0.099838399264601,0.0966875352160124
2024-04-06 13:42:00,0.1007908962454,0.0948764907667376
2024-04-06 13:42:03,0.098560945774316,0.0974308463893662
2024-04-06 13:42:06,0.099702276567717,0.0977430649342016
2024-04-06 13:42:12,0.097796944998639,0.1064266623712163
2024-04-06 13:42:12,0.099466590861525,0.1064266623712163
2024-04-06 13:42:18,0.10019895114731,0.1024941590051433
2024-04-06 13:42:18,0.099821478664081,0.1024941590051433
2024-04-06 13:42:30,0.099048027216205,0.1033900088661454
2024-04-06 13:42:30,0.10009660760054,0.1033900088661454
2024-04-06 13:42:33,0.10075714624144,0.1033884607198525
2024-04-06 13:42:33,0.099980637149759,0.1033884607198525
2024-04-06 13:42:39,0.098895152189077,0.0985005583089184
2024-04-06 13:42:39,0.097817422528762,0.0985005583089184
2024-04-06 13:42:42,0.09927199736557,0.1066342906397819
2024-04-06 13:42:45,0.099793660740728,0.0991915519060522
2024-04-06 13:42:45,0.10143012851282,0.0991915519060522
2024-04-06 13:42:48,0.09931855802112,0.0980533134429758
2024-04-06 13:42:51,0.099526962165615,0.1026499581626119
2024-04-06 13:42:51,0.099465135955475,0.1026499581626119
2024-04-06 13:42:54,0.10001977981242,0.1046008029371806
2024-04-06 13:42:57,0.10186345614512,0.1069136638734961
2024-04-06 13:43:00,0.098511114413628,0.1021577136345214
2024-04-06 13:43:06,0.09983440167816,0.103348548434416
2024-04-06 13:43:09,0.099988736525797,0.105408189522854
2024-04-06 13:43:12,0.10037956385141,0.0968679997264562
2024-04-06 13:43:15,0.098187244097981,0.1040760655708736
2024-04-06 13:43:18,0.10002287015076,0.1088109774009974
2024-04-06 13:43:21,0.099373193748838,0.0989724202624834
2024-04-06 13:43:24,0.098421888867219,0.1071269334600544
2024-04-06 13:43:27,0.099738952541931,0.1011122617612138
2024-04-06 13:43:30,0.098211614706185,0.0999700824064089
2024-04-06 13:43:36,0.099217631966541,0.1066632215492083
2024-04-06 13:43:39,0.098186926768202,0.1023881977740786
2024-04-06 13:43:42,0.099102476595507,0.0970554461468679
2024-04-06 13:43:45,0.099905717255681,0.0951634715564691
2024-04-06 13:43:45,0.10042981942024,0.0951634715564691
2024-04-06 13:43:51,0.1001218203306,0.0991613283730588
2024-04-06 13:43:51,0.099110174091589,0.0991613283730588
2024-04-06 13:43:57,0.099027918190421,0.0963841157267933
2024-04-06 13:43:57,0.1000462866332,0.0963841157267933
2024-04-06 13:44:03,0.097989239780842,0.1060161767551773
2024-04-06 13:44:03,0.099653408103644,0.1060161767551773
2024-04-06 13:44:06,0.098638700110979,0.1014526085178764
2024-04-06 13:44:06,0.098993394102506,0.1014526085178764
2024-04-06 13:44:12,0.099181783646075,0.1006032994794682
2024-04-06 13:44:12,0.099699950715492,0.1006032994794682
2024-04-06 13:44:18,0.10019154538874,0.1066358650225929
2024-04-06 13:44:18,0.10017149497398,0.1066358650225929
2024-04-06 13:44:21,0.099948802502609,0.1089453936403104
2024-04-06 13:44:27,0.098562797976867,0.0915330447050619
2024-04-06 13:44:27,0.097260104189073,0.0915330447050619
2024-04-06 13:44:39,0.098924013327302,0.0976404550922027
2024-04-06 13:44:39,0.099297045251286,0.0976404550922027
2024-04-06 13:44:45,0.098354828606991,0.090307117283608
2024-04-06 13:44:48,0.098333403313865,0.098612397875984
2024-04-06 13:44:51,0.099671658836107,0.1041869045881671
2024-04-06 13:44:54,0.097933844338973,0.0936042154826384
2024-04-06 13:44:57,0.097924467219809,0.1024954299341923
2024-04-06 13:45:00,0.099886065265338,0.1091641677528579
2024-04-06 13:45:03,0.098836542205609,0.0987596141165977
2024-04-06 13:45:06,0.097823881311891,0.0936905961320336
2024-04-06 13:45:09,0.098806050729278,0.1045479266945458
2024-04-06 13:45:12,0.098930376659322,0.0964129333081568
2024-04-06 13:45:15,0.099402373211466,0.0940952146025229
2024-04-06 13:45:15,0.098535365953132,0.0940952146025229
2024-04-06 13:45:21,0.098028405213238,0.0994174962156071
2024-04-06 13:45:21,0.098504756683936,0.0994174962156071
2024-04-06 13:45:27,0.097298660409191,0.1048109249814281
2024-04-06 13:45:27,0.097193838137397,0.1048109249814281
2024-04-06 13:45:33,0.097664098575349,0.103428338647547
2024-04-06 13:45:36,0.099934547091494,0.1053829718684294
2024-04-06 13:45:36,0.099734917838374,0.1053829718684294
2024-04-06 13:45:42,0.098663143201663,0.0968450152039442
2024-04-06 13:45:42,0.098898537015736,0.0968450152039442
2024-04-06 13:45:48,0.098307032412734,0.1007945999712165
2024-04-06 13:45:48,0.097744813143953,0.1007945999712165
2024-04-06 13:45:54,0.099231630085504,0.0985777446123676
2024-04-06 13:45:57,0.099360692628209,0.0984995556425255
2024-04-06 13:46:00,0.097202048052513,0.1005499803308095
2024-04-06 13:46:03,0.098153188780355,0.1031552217999074
2024-04-06 13:46:06,0.098439791060052,0.0897679432989047
2024-04-06 13:46:09,0.097939758053186,0.0953488174480086
2024-04-06 13:46:09,0.0987732276924,0.0953488174480086
2024-04-06 13:46:15,0.098112632388126,0.0978507202213184
2024-04-06 13:46:18,0.098632822943352,0.0986577018286579
2024-04-06 13:46:21,0.097457238849202,0.1012762009053864
2024-04-06 13:46:24,0.098925596836944,0.0998807190200752
2024-04-06 13:46:27,0.097983212494558,0.0985019196604922
2024-04-06 13:46:30,0.099199851658839,0.0948030892968281
2024-04-06 13:46:33,0.09733764597343,0.10210295053669
2024-04-06 13:46:36,0.097287090885453,0.0997532886010355
2024-04-06 13:46:39,0.09916785240658,0.0988681513598386
2024-04-06 13:46:42,0.099356619406802,0.0949147796172417
2024-04-06 13:46:48,0.098020467493913,0.0928685092736861
2024-04-06 13:46:48,0.09711044557579,0.0928685092736861
2024-04-06 13:46:54,0.098888731818711,0.0985018990558567
2024-04-06 13:46:54,0.097349833488638,0.0985018990558567
2024-04-06 13:47:00,0.099192028035419,0.1044599099491145
2024-04-06 13:47:00,0.099833673296397,0.1044599099491145
2024-04-06 13:47:03,0.097516547090504,0.1050449387755932
2024-04-06 13:47:06,0.095797111223742,0.1001647753449852
2024-04-06 13:47:09,0.097283049784245,0.096603255039264
2024-04-06 13:47:09,0.098794567377737,0.096603255039264
2024-04-06 13:47:21,0.098796422999705,0.0950381025793891
2024-04-06 13:47:30,0.097604364160513,0.0895888506040144
2024-04-06 13:47:33,0.099165784085624,0.0993088351760981
2024-04-06 13:47:36,0.097333505210965,0.1004834146406474
2024-04-06 13:47:39,0.096410689686194,0.0937185401226948
2024-04-06 13:47:42,0.097504560761152,0.1018545612980337
2024-04-06 13:47:45,0.098812570973588,0.0977853977006707
2024-04-06 13:47:48,0.098020940429536,0.0913806566393548
2024-04-06 13:47:51,0.098797136122793,0.0895773716219056
2024-04-06 13:47:51,0.098363054537465,0.0895773716219056
2024-04-06 13:48:03,0.010870226920283,0.0065028860722651
2024-04-06 13:48:06,0.0029312839935143,0.0026885124882768
2024-04-06 13:48:12,0.0026598944141074,0.0087381673789199
2024-04-06 13:48:12,0.0022731273093325,0.0087381673789199
2024-04-06 13:48:18,0.002825287628639,0.0077581753228459
2024-04-06 13:48:18,0.002719284752227,0.0077581753228459
2024-04-06 13:48:24,0.001832670653693,0.0020107742531267
2024-04-06 13:48:24,0.0018481639224482,0.0020107742531267
2024-04-06 13:48:30,0.02830675457802,0.0362665276452344
2024-04-06 13:48:36,0.050214020187719,0.0491103169631841
2024-04-06 13:48:36,0.051061385785858,0.0491103169631841
2024-04-06 13:48:39,0.049993095338046,0.0534237025702616
2024-04-06 13:48:42,0.048281428409786,0.0458113175149794
2024-04-06 13:48:48,0.050268738547555,0.0511866211366329
2024-04-06 13:48:51,0.050684337786394,0.0471055314718946
2024-04-06 13:48:54,0.050743069007695,0.0566061173832209
2024-04-06 13:49:00,0.07267137722552,0.0742974256313299
2024-04-06 13:49:03,0.072285297285482,0.073999274407835
2024-04-06 13:49:06,0.07533102100439,0.0682983459498086
2024-04-06 13:49:09,0.072837764180677,0.0683408899558589
2024-04-06 13:49:12,0.073543332341868,0.071141009307372
2024-04-06 13:49:15,0.072800241685437,0.0740614124979227
2024-04-06 13:49:24,0.091098622715732,0.1002949541435102
2024-04-06 13:49:30,0.096630765644447,0.1064982589991697
2024-04-06 13:49:30,0.097658945866053,0.1064982589991697
2024-04-06 13:49:36,0.098375598801726,0.1078434270821324
2024-04-06 13:49:42,0.11889111281925,0.1198999291968071
2024-04-06 13:49:42,0.11989646436413,0.1198999291968071
2024-04-06 13:49:48,0.12028216995789,0.1177215191740914
2024-04-06 13:49:48,0.12021316505972,0.1177215191740914
2024-04-06 13:49:54,0.12059162244922,0.1214781696916048
2024-04-06 13:49:54,0.12047168869949,0.1214781696916048
2024-04-06 13:50:00,0.1201433838504,0.1235913377924338
2024-04-06 13:50:06,0.13770775875542,0.144133022016895
2024-04-06 13:50:09,0.14534465920024,0.1430764434839534
2024-04-06 13:50:12,0.14478388782788,0.1495053928351835
2024-04-06 13:50:15,0.14338618209639,0.1400508309728579
2024-04-06 13:50:18,0.14513191511699,0.1421591721205532
2024-04-06 13:50:21,0.14444951627449,0.1432917977215016
2024-04-06 13:50:24,0.14317040516889,0.1509927970861668
2024-04-06 13:50:27,0.1435677062378,0.1509705944230112
2024-04-06 13:50:33,0.17600120660315,0.1848041025446344
2024-04-06 13:50:39,0.19020614908365,0.193042494282863
2024-04-06 13:50:42,0.19250557421574,0.1930851072053968
2024-04-06 13:50:45,0.19084789096181,0.1901913941360145
2024-04-06 13:50:48,0.19112354037236,0.1937607832193412
2024-04-06 13:50:48,0.18990419569583,0.1937607832193412
2024-04-06 13:50:54,0.19314881278129,0.1915093677373188
2024-04-06 13:50:54,0.19228981907402,0.1915093677373188
2024-04-06 13:51:06,0.11697537681786,0.1082075409126557
2024-04-06 13:51:12,0.097024868596042,0.0959617835213811
2024-04-06 13:51:15,0.096586786660087,0.0965958130787586
2024-04-06 13:51:15,0.097472920339363,0.0965958130787586
2024-04-06 13:51:21,0.097673702392496,0.0973292835992048
2024-04-06 13:51:21,0.097812448969031,0.0973292835992048
2024-04-06 13:51:27,0.096864439021792,0.0939539832252209
2024-04-06 13:51:27,0.096708917415433,0.0939539832252209
2024-04-06 13:51:30,0.097291748520574,0.0932262979294291
2024-04-06 13:51:33,0.096051078040692,0.0968078994097689
2024-04-06 13:51:36,0.096767913030615,0.0936521948473743
2024-04-06 13:51:39,0.096288642416009,0.0925430799033681
2024-04-06 13:51:42,0.096430116751529,0.0955565037397108
2024-04-06 13:51:45,0.095010685959693,0.0906022857075887
2024-04-06 13:51:48,0.095371047729603,0.0875098808967585
2024-04-06 13:51:51,0.095808888398318,0.1014829230096344
2024-04-06 13:51:54,0.096754811721029,0.0939025208647084
2024-04-06 13:51:57,0.096925611238481,0.0984664190912112
2024-04-06 13:52:00,0.094737430365192,0.0950766088742298
2024-04-06 13:52:03,0.095143392133887,0.0919320889581907
2024-04-06 13:52:06,0.096176806012053,0.089961661462358
2024-04-06 13:52:09,0.096511528022987,0.0923949471679834
2024-04-06 13:52:12,0.09627872479882,0.095344837872355
2024-04-06 13:52:15,0.09549240492067,0.0946783094082291
2024-04-06 13:52:18,0.095758471196535,0.0910099356928478
2024-04-06 13:52:21,0.097873868344645,0.0920017883669253
2024-04-06 13:52:21,0.097095665467173,0.0920017883669253
2024-04-06 13:52:27,0.09710235828062,0.0946509166784363
2024-04-06 13:52:27,0.096551145565447,0.0946509166784363
2024-04-06 13:52:33,0.095934787184751,0.1000594144774917
2024-04-06 13:52:33,0.095781263621602,0.1000594144774917
2024-04-06 13:52:39,0.096247468106808,0.1015580356724182
2024-04-06 13:52:39,0.096091222766471,0.1015580356724182
2024-04-06 13:52:45,0.096603208141349,0.1013140298200899
2024-04-06 13:52:45,0.096335591692665,0.1013140298200899
2024-04-06 13:52:51,0.095441941817093,0.0910323925809977
2024-04-06 13:52:57,0.097959723664975,0.0914656375817291
2024-04-06 13:52:57,0.097670360291089,0.0914656375817291
2024-04-06 13:53:00,0.097703383509616,0.0882431759909262
2024-04-06 13:53:03,0.098194508645485,0.0936726358910181
2024-04-06 13:53:06,0.096831190316037,0.0991676513006758
2024-04-06 13:53:09,0.097201574572332,0.0905748946735498
2024-04-06 13:53:12,0.097592727530971,0.0977018749629346
2024-04-06 13:53:12,0.097777800274042,0.0977018749629346
2024-04-06 13:53:18,0.098422787377754,0.0981764458736279
2024-04-06 13:53:18,0.099075704578987,0.0981764458736279
2024-04-06 13:53:24,0.098210950705701,0.0922724425771011
2024-04-06 13:53:24,0.098373433802279,0.0922724425771011
2024-04-06 13:53:27,0.097959536660298,0.1027349530470541
2024-04-06 13:53:30,0.097585276926576,0.1005425066091613
2024-04-06 13:53:33,0.096498669103542,0.0966074720532895
2024-04-06 13:53:36,0.099466594203084,0.090597549290019
2024-04-06 13:53:39,0.098966573318281,0.1004252754923532
2024-04-06 13:53:42,0.097883964169012,0.0991513090190578
2024-04-06 13:53:45,0.096701188907132,0.1027773279539679
2024-04-06 13:53:51,0.099728125676214,0.0997985949834503
2024-04-06 13:53:51,0.09882772856449,0.0997985949834503
2024-04-06 13:53:54,0.098310079565361,0.0976058524787799
2024-04-06 13:53:57,0.098753206060856,0.1041223904356712
2024-04-06 13:54:00,0.099629779906873,0.0949038366492524
2024-04-06 13:54:00,0.099500815458838,0.0949038366492524
2024-04-06 13:54:06,0.098112321672259,0.0991080926857714
2024-04-06 13:54:06,0.09785006390288,0.0991080926857714
2024-04-06 13:54:12,0.099355270734297,0.1038856942420238
2024-04-06 13:54:12,0.099937173289305,0.1038856942420238
2024-04-06 13:54:18,0.099329577347356,0.0943084403044404
2024-04-06 13:54:18,0.099579448110427,0.0943084403044404
2024-04-06 13:54:24,0.099927483131048,0.0994312075858836
2024-04-06 13:54:24,0.099011875130489,0.0994312075858836
2024-04-06 13:54:27,0.098708422826791,0.1059041141965936
2024-04-06 13:54:27,0.099165654506348,0.1059041141965936
2024-04-06 13:54:33,0.098470783105921,0.0929739773736788
2024-04-06 13:54:33,0.097677776889313,0.0929739773736788
2024-04-06 13:54:39,0.101125073275,0.0963936977911663
2024-04-06 13:54:45,0.098141557260371,0.0898455142752064
2024-04-06 13:54:45,0.098174572297422,0.0898455142752064
