TS,comp_1,comp_2,comp_3,comp_4,comp_5,x_pos,y_pos,lumi
2022-11-10 10:07:00,-0.000638235554857616,-0.0004537197262647223,0.00010663259106471761,5.675355230577637e-05,-0.00015291109180974084,-0.484500263251627,0.0,17.469980861189246
2022-11-10 10:07:03,-0.0011245024045094729,0.0005580243449886437,0.00010785776234793328,0.00010109464410726497,-5.162213956845804e-05,-0.484500263251627,0.0,17.39310897211213
2022-11-10 10:07:06,-0.0005068595382533201,-0.0006502256918711584,-5.3992667168345086e-05,-0.00019760034830217308,6.566247930733481e-05,-0.484500263251627,0.0,17.319654923995433
2022-11-10 10:07:09,-0.0007187122851712712,0.000459114301459989,-2.717299610950179e-05,-9.179212420413537e-07,0.00016856543210245546,-0.484500263251627,0.0,17.234439200455213
2022-11-10 10:07:12,-0.0007739884467587502,1.0449711698055809e-07,-0.0003137114509721248,-0.00045407473288414714,0.0004518722356043034,-0.484500263251627,0.0,16.86695090487391
2022-11-10 10:07:15,5.455366520581088e-05,-0.0004215776935596644,3.8186000774724574e-05,9.372001966611545e-05,-0.00035828468302800725,-0.484500263251627,0.0,16.21202323221805
2022-11-10 10:07:18,0.0003185383048370953,0.00041596529084882177,3.2900289378073296e-05,-2.228950904648107e-05,-3.665352080388758e-05,-0.484500263251627,0.0,18.207438387101117
2022-11-10 10:07:21,-0.0005252251203803403,-0.0005806254437387055,-0.00021941527661257474,0.00019060605719195897,-4.093344699706552e-05,-0.484500263251627,0.0,17.175522525843743
2022-11-10 10:07:24,-0.000873120490879691,0.0008021611151968051,4.829087559388782e-05,0.0001146973802335608,-7.096734657793489e-05,-0.484500263251627,0.0,16.757889409144695
2022-11-10 10:07:27,-0.00078154749937856,-0.0002101633107666159,0.00011408016074942845,-0.00031730135897288373,0.0005739379611574835,-0.484500263251627,0.0,17.725777009047405
2022-11-10 10:07:30,-0.00035291858025018533,-0.0002562741438234263,-0.00033540527261196576,1.1430982676949912e-05,-0.0001543065169648608,-0.484500263251627,0.0,16.731235305433465
2022-11-10 10:07:33,-0.00044454108876473304,-1.7298314979107073e-05,6.348615790554153e-06,-3.2258646435887284e-05,-0.00013918538615554475,-0.44412821017475745,0.0,15.608438112049193
2022-11-10 10:07:36,-0.0006381321452344209,0.00020779092010017743,3.534170507374262e-05,0.00010749253243840776,0.0001452433387172424,-0.44412821017475745,0.0,15.394884958748564
2022-11-10 10:07:39,2.1786941259212518e-05,-0.0006206344156617205,-2.4125075119942344e-05,-0.00015088406838912512,0.00016350935004176906,-0.44412821017475745,0.0,14.832204709564518
2022-11-10 10:07:42,-0.000116733627471443,0.00025384325073983576,3.299000952131825e-05,3.0305012200059473e-05,-3.9974993605864714e-05,-0.44412821017475745,0.0,13.70693116597941
2022-11-10 10:07:45,-0.00023272334342734478,-1.502016386090358e-05,6.637880702374554e-05,6.120810534934236e-05,-2.2868744308609523e-05,-0.44412821017475745,0.0,14.675331477319258
2022-11-10 10:07:48,-0.0004573665803585031,-0.00015576390175156055,-0.00018448057008586878,-0.0001310758944054821,0.00011745669633154518,-0.44412821017475745,0.0,14.703429660813374
2022-11-10 10:07:51,-0.0004327864830662406,-0.00010743570869630919,0.0003031660554294992,-5.0899827936919125e-06,7.528366491176768e-05,-0.44412821017475745,0.0,14.120928383365502
2022-11-10 10:07:54,-0.00017939122032535582,0.00025091727231676833,-7.73290658323019e-05,-0.00032330213361761743,-0.0003889296069487379,-0.44412821017475745,0.0,14.631476092530733
2022-11-10 10:07:57,-0.0003482188666989627,-0.0007210343415474913,-7.138040854713849e-05,0.00013339631519964263,0.0002472276145875855,-0.44412821017475745,0.0,15.017060135565671
2022-11-10 10:08:00,-0.0002228262504850939,0.0004354330077325985,-5.653687898791868e-05,0.00010684162231677457,-0.00011986447982271113,-0.44412821017475745,0.0,14.310609666983773
2022-11-10 10:08:03,-0.0004442723362229467,-0.00021980226501471404,0.00037688032710325633,-0.00010714894682848393,0.00043385091367949784,-0.44412821017475745,0.0,15.746431753854225
2022-11-10 10:08:06,-0.000506402568011594,-0.0003342218055281808,0.0001996751626313249,-0.000242798046547527,-0.00014286028700652775,-0.40375318823712203,0.0,16.73977473565145
2022-11-10 10:08:09,-0.0002702969869091308,-0.0002026810915878868,3.572314998279682e-05,-0.00010519474595519446,4.128893475792705e-05,-0.40375318823712203,0.0,17.208515566148858
2022-11-10 10:08:12,3.028489642200227e-05,4.746016107271887e-05,-0.00017647426314030932,0.0001448876427907223,1.4554196099904325e-05,-0.40375318823712203,0.0,16.481151589441126
2022-11-10 10:08:15,-0.000589331271668423,-6.64908048462803e-05,-4.839529279165329e-05,6.549586975224288e-05,-6.617899940283985e-05,-0.40375318823712203,0.0,17.226303100859816
2022-11-10 10:08:18,-0.0004795277169518808,0.0002941243051204349,9.6483645738186e-05,-0.0001927061092506607,-0.00021475054260135105,-0.40375318823712203,0.0,16.74933941536796
2022-11-10 10:08:21,-0.0004778359566106424,-0.00019853941570526157,3.519302006976168e-05,-9.755199065215317e-05,0.0004591468806901805,-0.40375318823712203,0.0,17.05857973440434
2022-11-10 10:08:24,-0.0002361892924906232,-0.0003509240938092569,-2.784412189133102e-05,-1.9471957578456683e-06,-7.085986284997121e-05,-0.40375318823712203,0.0,17.320889985013693
2022-11-10 10:08:27,-0.00015988100843902943,-0.00022679993059614888,-0.0001009966749507799,9.470312286793423e-05,8.981630875387949e-05,-0.40375318823712203,0.0,16.0369089042505
2022-11-10 10:08:30,-0.0005743664466163208,0.00023376780559112903,0.00015078784297269953,-3.823227604905093e-05,-8.673793758594354e-05,-0.40375318823712203,0.0,16.643937890310468
2022-11-10 10:08:33,-0.0005662742354778507,0.0002449453898805014,0.0002851925404291859,-9.541045556254695e-05,-0.0001816197480417851,-0.40375318823712203,0.0,17.548827445360818
2022-11-10 10:08:36,-4.1243192502339364e-05,0.00017667116911258544,-0.0002936981182301407,-0.00028215735934093337,0.0002533281318414004,-0.40375318823712203,0.0,18.304701969906468
2022-11-10 10:08:39,-0.00024169694755495725,-0.00036566079841029547,-0.00019715618083828324,3.8177322104172664e-05,5.133528708831427e-05,-0.3633781662994865,0.0,16.75232317674293
2022-11-10 10:08:42,-0.0006471283889861788,0.00015789304621601486,5.656567004711173e-05,5.09560803461118e-05,8.895469655360275e-05,-0.3633781662994865,0.0,15.779576775978237
2022-11-10 10:08:45,-0.0007531178592051232,-0.0005861403646059927,-0.0001013812173568467,2.174756064382746e-05,5.9063837423490856e-05,-0.3633781662994865,0.0,15.40089252866939
2022-11-10 10:08:48,-9.313534150024242e-06,8.962444864032942e-05,9.731875196224242e-05,-2.511091569991375e-06,-6.947672240119133e-05,-0.3633781662994865,0.0,14.687999303508873
2022-11-10 10:08:51,0.00012556496344434884,0.00023537368285491583,-0.0004329130533867048,-0.0003678408788778717,-3.1756414788247605e-05,-0.3633781662994865,0.0,14.195111504392042
2022-11-10 10:08:54,-6.641234803372154e-05,1.388387264535581e-06,0.0011766006760137923,0.0006904871128414407,1.4584539394364484e-05,-0.3633781662994865,0.0,13.989517530199311
2022-11-10 10:08:57,-0.0008793956049366744,0.00037659874614499845,9.336289859980067e-05,6.390563418179844e-05,-5.346605007835628e-05,-0.3633781662994865,0.0,17.05268908973854
2022-11-10 10:09:00,-0.0002646488839322971,-0.0007571315898765128,-4.5578179864444786e-05,-0.000255874363229717,9.120286449317283e-05,-0.3633781662994865,0.0,14.865376717730635
2022-11-10 10:09:03,-0.00010956226884881596,0.000294950082323974,-8.2191328767571e-05,0.0001658383631916261,7.870032836737977e-05,-0.3633781662994865,0.0,15.311231741936902
2022-11-10 10:09:06,-0.0003480591964332134,-0.00014129403798492757,-9.488039667943637e-05,-9.099183431182889e-05,0.00036358441508314675,-0.3633781662994865,0.0,14.811536925416258
2022-11-10 10:09:09,-4.6383681530009775e-05,-0.00030885842287328306,0.0008105496673103398,0.0003455323850160631,-0.0002271690839168336,-0.3633781662994865,0.0,15.516829714973804
2022-11-10 10:09:12,-0.0005377445198237209,0.0002624776144494152,7.733619684502501e-05,-2.4193827318761652e-05,-0.00028973148307697707,-0.323003144361851,0.0,17.673424533956023
2022-11-10 10:09:15,6.76202074113705e-05,-8.691643763729933e-05,-1.3098163605251238e-05,-9.611533694645717e-05,7.606959263404257e-05,-0.323003144361851,0.0,17.32788067358377
2022-11-10 10:09:18,-0.00014494452828926082,0.00013817405844994152,-0.00011000931322702774,0.00013547658824808651,0.0001307761152962871,-0.323003144361851,0.0,17.099228243321498
2022-11-10 10:09:21,-0.000394682844701449,-0.00010873000419161465,0.00013669430128945,-2.771899342081227e-05,-6.619820201114247e-05,-0.323003144361851,0.0,17.748273027545437
2022-11-10 10:09:24,-0.0004914454336653552,-0.00012865247126975655,-0.00040519353415291063,-4.0749654431933014e-05,-8.83004307452693e-05,-0.323003144361851,0.0,17.4741727980156
2022-11-10 10:09:27,-3.3688097936013846e-06,-1.4985810309415046e-05,0.00012100263419037314,0.00010145997358306061,6.614093175032863e-05,-0.323003144361851,0.0,17.06757200969163
2022-11-10 10:09:30,-0.0007534577993937063,-0.00019478815162616778,-0.00012181018908818963,0.00017337253349795798,1.3686791516077062e-05,-0.323003144361851,0.0,16.670077593333946
2022-11-10 10:09:33,-0.0005839008445462473,0.00024077882910641168,0.00010380374197915866,1.9854665427917348e-05,7.334383328445989e-05,-0.323003144361851,0.0,16.507261199051012
2022-11-10 10:09:36,-0.0005417049304211871,-0.0004914982298925975,0.00021736571555664298,-0.00019984872377907517,-0.00025331912349060035,-0.323003144361851,0.0,17.701530509867514
2022-11-10 10:09:39,0.0004371829342952259,0.0002501366301413227,-0.00019144220017980147,-0.0001662462909417449,-0.0002475047188315051,-0.323003144361851,0.0,17.277516203079283
2022-11-10 10:09:42,-0.00011949048402951896,-0.00020170028939536748,-4.287194857737167e-06,0.00031798778435035055,0.0005784930906328218,-0.323003144361851,0.0,16.757669097787918
2022-11-10 10:09:45,-0.0006506648436266569,-3.781856877196407e-05,-0.00048541501313375905,3.14799454858677e-05,-0.0003263295766145431,-0.282631091284982,0.0,15.8295086381528
2022-11-10 10:09:48,-0.00018178772214613793,0.00016480160485105047,0.00022374668717962544,-0.000272784611332639,-0.00022019978648653353,-0.282631091284982,0.0,14.95528856818842
2022-11-10 10:09:51,4.7367667218940135e-05,3.979520587642216e-05,-0.00018533650192938396,0.00010320604285060576,0.00022673850201380513,-0.282631091284982,0.0,14.544058957934164
2022-11-10 10:09:54,-1.0389254592000415e-06,-0.00011568031920821677,-3.6642315488139735e-05,1.4666493639113491e-05,-7.384688798055599e-06,-0.282631091284982,0.0,13.684241011924348
2022-11-10 10:09:57,0.00018776198029369422,-0.00010848449167152839,0.0003839929978759252,0.0001330155870963077,-9.740714051348388e-05,-0.282631091284982,0.0,14.02023224702338
2022-11-10 10:10:00,-0.0003848411999345019,1.395023937878607e-05,0.00026757059712518867,0.0001791606669440509,0.00024951138915337473,-0.282631091284982,0.0,15.25921876466493
2022-11-10 10:10:03,-0.001156705791497445,6.67020319708568e-05,-3.4204587345316046e-05,-0.00019118481220487877,-1.3675411016078238e-05,-0.282631091284982,0.0,15.281780689257316
2022-11-10 10:10:06,-6.691802771784505e-05,-0.0003655319556835924,-7.564762679358198e-05,-8.99923406367375e-05,2.1276630936862957e-05,-0.282631091284982,0.0,14.604445224573796
2022-11-10 10:10:09,9.240999803097591e-05,-0.00010991441411107966,-2.4139608907510416e-05,3.872613634594108e-05,5.324356702302776e-05,-0.282631091284982,0.0,14.447361613315405
2022-11-10 10:10:12,-0.000184134187961185,0.0001108721990016326,-0.00024046489989750826,0.00020376733466207238,9.021145246044974e-05,-0.282631091284982,0.0,14.659783445422242
2022-11-10 10:10:15,-0.00027490431384994394,2.090297012668013e-05,7.662033831145254e-05,9.950472582701424e-07,1.6567049931489037e-06,-0.282631091284982,0.0,14.363398991853332
2022-11-10 10:10:18,-4.391386102485541e-05,-9.65971387716909e-05,0.0014163365557082548,-0.00010190549366716914,-0.000428052381723549,-0.242256069347346,0.0,15.397893066035598
2022-11-10 10:10:21,0.00010925937647551245,0.0003612450489688541,-0.00021887185203877516,6.491516134276894e-05,7.005360911487683e-05,-0.242256069347346,0.0,19.15398894239521
2022-11-10 10:10:24,-7.939950756531962e-05,-0.000466170721608667,-0.0001553753233016626,0.0001671193085836464,0.00016649098832982498,-0.242256069347346,0.0,17.102419585012548
2022-11-10 10:10:27,-0.00043498933499936776,0.0004443327845275849,9.085936059441023e-05,-2.3192755596178708e-05,4.205661522091162e-05,-0.242256069347346,0.0,17.832632386572847
2022-11-10 10:10:30,-0.00016685652204184652,-0.0003197288539120521,-5.294180553332583e-05,-0.0002676095708696905,0.0001160563076399104,-0.242256069347346,0.0,17.12031975588905
2022-11-10 10:10:33,-8.303689105532864e-05,-0.000108992552894542,-0.00025764787240827714,0.00026924969799415547,-0.00024852626772951396,-0.242256069347346,0.0,16.45445820698434
2022-11-10 10:10:36,-0.0004025630768315798,-0.00016209592492966496,0.00035019392520283904,0.00016559098286782458,0.0003722823220704912,-0.242256069347346,0.0,16.38260460063293
2022-11-10 10:10:39,-0.0006439894835645325,-0.00028601189809438545,3.47875996929131e-05,-3.99617874557278e-06,-6.921754150137793e-05,-0.242256069347346,0.0,17.49810890051146
2022-11-10 10:10:42,-0.0003807648455165596,0.00024145509185804088,4.287280335827708e-06,-4.205342569561721e-05,-6.576214102928607e-06,-0.242256069347346,0.0,17.287367920238886
2022-11-10 10:10:45,-0.0001472371807077427,-0.0006480964468897098,-8.848600382800945e-05,-9.481875148515191e-05,5.467380915256338e-05,-0.242256069347346,0.0,17.036472486950153
2022-11-10 10:10:48,7.489572624604194e-05,0.00023440121544023574,1.9276821628712962e-05,-0.0002129921319813475,-0.0001457538720374713,-0.242256069347346,0.0,16.265019893687665
2022-11-10 10:10:51,0.0003269398036101547,0.0003254543947958327,0.0002989325205173589,-2.675160925771975e-05,0.0001796985554186549,-0.2018810474097105,0.0,16.806179519776357
2022-11-10 10:10:54,-0.0003972903060725277,-4.856947142063437e-05,-0.00023250990478193722,-1.0944581282842646e-05,-1.98996176680559e-05,-0.2018810474097105,0.0,16.447224769559554
2022-11-10 10:10:57,-0.0005293238240637121,-0.0002866148836969876,-0.00022821021237852182,0.00017673808606413546,-6.021754531002965e-05,-0.2018810474097105,0.0,15.639065192786292
2022-11-10 10:11:00,0.0004819859684884577,0.00022329226255536893,0.00011162614035217952,-5.1355585026964615e-05,0.0002798680871336904,-0.2018810474097105,0.0,14.073442068103436
2022-11-10 10:11:03,-0.0003740790185884169,-0.0005265333799202966,-0.00015221672225105795,1.0712204661989528e-05,-9.73648341155385e-05,-0.2018810474097105,0.0,15.761535776687724
2022-11-10 10:11:06,-0.0007429021702335418,0.00025270210391071764,-8.67374247446027e-05,-0.00011822279053625046,-0.0002887482426718314,-0.2018810474097105,0.0,14.134093269442737
2022-11-10 10:11:09,0.00036945988721430516,0.00020872509737543589,0.0003094516502052943,-9.124213190956825e-05,0.00025629557997751255,-0.2018810474097105,0.0,15.971141264244562
2022-11-10 10:11:12,-0.00038246391145905633,-0.00025009834427242093,-7.53857963044658e-05,-1.900469182468339e-05,-6.581104973488794e-05,-0.2018810474097105,0.0,15.458401602578686
2022-11-10 10:11:15,-0.00023123107761571234,-0.00013627054233965826,-6.507663356804776e-06,-6.160013428354123e-05,-8.589366460202651e-06,-0.2018810474097105,0.0,15.161403494182974
2022-11-10 10:11:18,8.245066670011163e-05,-4.326919183650437e-06,-2.7884622759001258e-05,3.125331868699748e-05,3.5818497799151064e-05,-0.2018810474097105,0.0,15.424988475562865
2022-11-10 10:11:21,0.0003568751757892633,-0.00026867963158987726,1.0847376828091383e-05,-0.00013867402602348364,8.709841353345418e-05,-0.2018810474097105,0.0,16.04815167739281
2022-11-10 10:11:24,0.0003419755437226595,2.2346948021528764e-05,0.00013926271533710606,0.0002645308546532299,-0.0003100525422898912,-0.161508994332841,0.0,15.930995308869536
2022-11-10 10:11:27,-0.0009518730205758963,7.368839043477258e-05,0.00043507070594937407,2.7111752949285334e-05,0.0006029023606712033,-0.161508994332841,0.0,16.479438673043326
2022-11-10 10:11:30,-0.00040752374576372743,-0.00017143730192648415,1.3877632613980653e-05,-7.714233837306434e-05,-9.684748611479945e-05,-0.161508994332841,0.0,18.429550407241244
2022-11-10 10:11:33,9.915117091973915e-05,-0.00019143501560397376,-1.2135882663067924e-05,-0.00010124194691434232,-1.767237449443605e-05,-0.161508994332841,0.0,17.323877518487066
2022-11-10 10:11:36,-0.00030554158510896377,3.323636215150663e-05,3.553200690316299e-05,9.852882612391178e-05,-6.496723896332149e-05,-0.161508994332841,0.0,16.78483370236429
2022-11-10 10:11:39,4.429541553755994e-05,6.517222446799716e-05,-0.00014681885799583782,-9.499573205282237e-05,-1.3558293884227812e-05,-0.161508994332841,0.0,16.6446453812884
2022-11-10 10:11:42,9.562849815417848e-05,-5.7968915851143836e-05,0.00038724944936018404,0.00031340123603216884,0.00013234943878649767,-0.161508994332841,0.0,16.940628197987813
2022-11-10 10:11:45,-0.000823337604494773,4.8039748513429e-05,0.00019696694678311938,-0.00027065740713512763,0.00013022534018733399,-0.161508994332841,0.0,17.65063875089774
2022-11-10 10:11:48,6.862491433790985e-05,-0.00047839795264330987,-0.00012646305305486706,7.951003089129552e-05,2.3799189846002248e-05,-0.161508994332841,0.0,17.51850798652572
2022-11-10 10:11:51,-7.736109830996991e-05,0.00044058335163511277,-4.515602696383582e-05,5.78305205786031e-05,-0.00022650556537498178,-0.161508994332841,0.0,18.017100280477717
2022-11-10 10:11:54,0.00017261742735276688,-0.0002372767835054933,8.070797301997678e-05,-0.00011473776156486481,0.00015875819946116915,-0.161508994332841,0.0,16.29857063275199
2022-11-10 10:11:57,-0.0003247058674599376,0.00010657501956289976,-0.00015493852208911318,0.00022190218254540962,4.4123505097598544e-05,-0.1211339723952055,0.0,15.484022556018116
2022-11-10 10:12:00,-0.00024138634403420782,-0.00012688280570509098,-0.0002898179110522944,-8.812537962126284e-05,0.00019346175174784485,-0.1211339723952055,0.0,14.484990984435248
2022-11-10 10:12:03,6.633402810636613e-05,-0.00012148416851302475,2.0678734927487642e-05,0.00026666107241782127,-2.252633224244376e-05,-0.1211339723952055,0.0,13.917309171027558
2022-11-10 10:12:06,-0.0003518420251127894,6.259012441571809e-06,0.0002538083792532963,-0.00041731883401816325,-0.0001726333446561956,-0.1211339723952055,0.0,14.0836457805632
2022-11-10 10:12:09,0.0005324605627703646,-3.9471000257603064e-05,-9.887049738543229e-05,5.538297791690601e-05,7.489025019003284e-05,-0.1211339723952055,0.0,15.292673926067833
2022-11-10 10:12:12,1.7796791848596544e-05,-0.00013370123319971636,-9.168660905451666e-05,0.00018551474507357007,-4.779703411576227e-05,-0.1211339723952055,0.0,14.858196651536083
2022-11-10 10:12:15,-3.952255899492743e-06,0.0003767033201893227,-8.24752252730367e-05,-3.8894921517326975e-05,0.00017770931403337498,-0.1211339723952055,0.0,14.073680390637406
2022-11-10 10:12:18,-0.0005210079330481622,-0.00022781819371025017,3.5413060052402566e-05,0.00011963609055280248,4.496819632689284e-06,-0.1211339723952055,0.0,14.41153500483555
2022-11-10 10:12:21,-0.0004973108342663338,-0.0002455482278786853,-0.0005948380156118087,-0.00018610279803594972,-0.00026737682266380063,-0.1211339723952055,0.0,14.204441668703767
2022-11-10 10:12:24,0.0005516127974242851,-1.3704405103672161e-05,0.0006050221036049679,-0.00013075371843713685,-4.5899322621317454e-05,-0.1211339723952055,0.0,14.409616148729045
2022-11-10 10:12:27,-0.00021659986927386742,0.00010086249846677686,-0.00016731192067328583,0.00037358417031882013,0.000211655229452602,-0.1211339723952055,0.0,15.72218959641622
2022-11-10 10:12:30,7.03135720052365e-06,-0.0002064782416565388,-6.131840602461989e-05,-0.00018143494781061072,-0.000253508656278114,-0.08075895045757,0.0,16.619012569718283
2022-11-10 10:12:33,7.573227102850297e-05,0.0002526437492383418,0.00027977840664468706,-0.000391198121904674,-8.840693462105684e-05,-0.08075895045757,0.0,17.2694627141137
2022-11-10 10:12:36,9.7472479141938e-05,-0.0001967439448883951,-0.00015827066535079094,0.00024121487087785606,0.00032456015463785173,-0.08075895045757,0.0,17.6324580631998
2022-11-10 10:12:39,-0.00018347199179815293,-0.00028679094559206123,-0.00045370065010269533,0.0006330475056898441,-0.00016802519276292905,-0.08075895045757,0.0,17.238210566895198
2022-11-10 10:12:42,-0.0003394585276432057,0.0007679745177301206,0.00026328123448049934,-0.0004963221139572026,-0.00019275224717670353,-0.08075895045757,0.0,16.08876435335507
2022-11-10 10:12:45,9.248643117970297e-05,-0.0005347389862593921,-0.00022278348213581115,0.00016859626481587666,0.00015652065138809857,-0.08075895045757,0.0,18.432703468983696
2022-11-10 10:12:48,3.9525084254335766e-05,0.0001117159949735956,-5.9522793473469476e-05,0.00017793933682096552,-6.49594673657053e-05,-0.08075895045757,0.0,17.260625786039633
2022-11-10 10:12:51,-7.055992348403741e-05,-9.646338430449968e-05,1.7362651402203842e-05,-1.8386727310945055e-05,-5.081638481286045e-06,-0.08075895045757,0.0,16.865812630456524
2022-11-10 10:12:54,-1.9555179646772415e-05,-2.9988905620711833e-05,-6.69211216896587e-05,4.1924782192253073e-05,-0.00010980872081183558,-0.08075895045757,0.0,16.98056696108244
2022-11-10 10:12:57,0.00013977217691942687,4.929320020674607e-05,0.00012380818263574118,7.482806827603212e-05,-0.00011552196162684492,-0.08075895045757,0.0,17.15548521954522
2022-11-10 10:13:00,6.021763358379075e-05,0.0003478150549128215,-1.9179884536441334e-06,0.00013424753091011043,0.00015840040461144195,-0.08075895045757,0.0,17.73353493045149
2022-11-10 10:13:03,-0.00022538879460410032,-0.00026646055981523095,-7.988241195726368e-06,-0.00011553600736250482,-0.0002111874135634475,-0.040386897380700885,0.0,16.371753728060803
2022-11-10 10:13:06,-0.00012978071100576535,-0.00013041716031310336,0.00016889244233014267,-3.6101046061686467e-05,-9.535334779181717e-06,-0.040386897380700885,0.0,15.605064305016692
2022-11-10 10:13:09,5.662966053330869e-05,0.00013821294961327622,-8.571224559610482e-05,1.1415856655212917e-05,0.00010982083935044322,-0.040386897380700885,0.0,15.107373033079314
2022-11-10 10:13:12,-0.00016568306236967162,-3.1469639255326794e-05,5.166953937735985e-05,7.005562211227799e-05,2.5966236961453584e-05,-0.040386897380700885,0.0,15.46540656989802
2022-11-10 10:13:15,-0.00010185535088595273,-5.22289953315576e-05,-0.0002232970537346535,-0.000258722495430718,-0.00020675117100600246,-0.040386897380700885,0.0,15.462739768409776
2022-11-10 10:13:18,0.0003749262878260011,-0.00010262846950161451,7.323231350676836e-05,0.0001439125424391315,0.00011689299036343031,-0.040386897380700885,0.0,14.782639514617957
2022-11-10 10:13:21,-0.00021034962053642756,9.446620411353278e-05,-0.00017702893203041818,0.0002700440465164894,-3.587976927136228e-05,-0.040386897380700885,0.0,15.512289025418102
2022-11-10 10:13:24,2.3078645558869777e-05,0.00012402508526719225,9.175780144874366e-05,-0.0002034362950092376,-1.1896650583564888e-05,-0.040386897380700885,0.0,15.205138378591304
2022-11-10 10:13:27,0.0001250152293743594,-0.00023452981747224843,-3.520981276603943e-05,8.232872134666385e-05,-2.9695916522967014e-05,-0.040386897380700885,0.0,15.362747334528756
2022-11-10 10:13:30,-0.0002022148884782768,0.00026389227201032757,-6.525597926539834e-05,-5.657042048007129e-06,-2.6020591797274164e-05,-0.040386897380700885,0.0,15.536710844411155
2022-11-10 10:13:33,-0.0003687019968854277,5.968327048879157e-05,0.00031051232464293703,-0.00018549004971495266,0.00022630124995037188,-0.040386897380700885,0.0,15.753693867732002
2022-11-10 10:13:36,-0.0003282279633968473,-0.00023711196261820512,-1.7704195309964733e-05,0.00016565241680046544,-0.00011711626210323343,-1.18754430655024e-05,0.0,16.710243286986902
2022-11-10 10:13:39,-0.0003253691166518982,0.0001399332573220404,-0.00019689438847019533,-0.00010689026362498702,0.0001156131201398671,-1.18754430655024e-05,0.0,17.454109688952514
2022-11-10 10:13:42,0.0003818478354916964,-0.00018705331353752996,1.8120080687197456e-05,-9.905931005528946e-05,9.542360324020944e-05,-1.18754430655024e-05,0.0,17.434088873105416
2022-11-10 10:13:45,0.00015923233822791167,-3.5508181387337184e-05,-6.229150270808918e-05,0.00013685858342661535,-0.00012344159009970344,-1.18754430655024e-05,0.0,17.418717587426876
2022-11-10 10:13:48,0.00041935499675715667,0.00012529257274975446,0.00015222765609114957,-0.00010169080106676867,-3.97666973836766e-06,-1.18754430655024e-05,0.0,16.66523758280582
2022-11-10 10:13:51,0.0005461320273717579,8.016332943871883e-05,3.730610248316562e-05,-0.00015247953493096594,-0.00012272078940990595,-1.18754430655024e-05,0.0,17.13751960131919
2022-11-10 10:13:54,0.0005350877422429,0.00021624716894959423,-0.00018787992025916144,0.0002243806824060091,-3.4907437175747834e-07,-1.18754430655024e-05,0.0,17.3321310648333
2022-11-10 10:13:57,0.00012371043788509084,0.00010065984576059323,0.0004666089572590207,1.5020601610773313e-05,0.00021398509724450214,-1.18754430655024e-05,0.0,16.597175837843583
2022-11-10 10:14:00,-0.0005423238742391969,-0.0002208749422103916,-0.00021615617045558938,0.0003407288751745784,4.6205000371739385e-05,-1.18754430655024e-05,0.0,17.816235330362645
2022-11-10 10:14:03,-0.0003557129210394322,7.51161337619276e-07,0.00019528414964910498,1.3076449977417088e-05,-7.353914978573193e-05,-1.18754430655024e-05,0.0,16.138273790543067
2022-11-10 10:14:06,-0.00017449305285572816,-0.0003858754721497576,0.00018929962273018586,-0.00037689217129040854,-0.00016942675312336258,-1.18754430655024e-05,0.0,16.643021547174286
2022-11-10 10:14:09,0.00031196626002344136,0.0001071060545116357,-0.00019668918885733719,0.00014950900884035679,-0.00012806230626347982,0.04036017763380361,0.0,16.654735360989335
2022-11-10 10:14:12,-0.0003955053438219574,0.00030898829840145573,-2.5125711110618257e-05,-0.00014606359133335586,8.991944887899351e-05,0.04036017763380361,0.0,15.042400845212644
2022-11-10 10:14:15,0.00043923982763896475,-0.00015050392034236449,-5.869050238453224e-05,-1.985873227989e-06,9.656310879056974e-05,0.04036017763380361,0.0,14.69293650985999
2022-11-10 10:14:18,0.00010925362130827598,3.0328671788788055e-05,0.00012232616407803156,-1.2745800640607814e-05,-0.00010719660225358052,0.04036017763380361,0.0,14.750054524770324
2022-11-10 10:14:21,0.0002115406600946222,2.144318413887838e-05,9.708378308991771e-06,2.5703945897708248e-05,4.098771324883724e-05,0.04036017763380361,0.0,14.061940715475131
2022-11-10 10:14:24,-0.0001603242147861864,-0.00012737690527952803,-0.00014116851250015915,0.0001035945345625227,-2.832600338180831e-05,0.04036017763380361,0.0,14.647910135885878
2022-11-10 10:14:27,0.00022191585453483918,-7.769170104688802e-05,6.548527442125833e-05,-7.30590404055805e-05,-4.318367004564929e-05,0.04036017763380361,0.0,14.675442669428206
2022-11-10 10:14:30,9.152202832465971e-05,0.00028057640390765563,-7.711848156849522e-05,-0.00019960577064005085,-4.444452819266376e-05,0.04036017763380361,0.0,14.35168242253638
2022-11-10 10:14:33,-0.00029498835809878,0.0002656401893797969,8.578606312017147e-05,7.181521899730887e-05,3.0482681244182536e-05,0.04036017763380361,0.0,14.399262875018335
2022-11-10 10:14:36,0.0004738584576426698,-0.0004271056718951408,-4.7347496584304445e-05,-0.00010690375908084381,5.917355898137648e-05,0.04036017763380361,0.0,13.795146668092055
2022-11-10 10:14:39,0.0006977326610222433,0.0005833754528395916,-0.00047700901169316626,-0.0002301369210382918,0.00046436296591963454,0.04036017763380361,0.0,15.059255815567775
2022-11-10 10:14:42,3.112544058036363e-05,-0.0005974423446752788,-0.0003153006172216808,-7.682153108762729e-05,-9.309774240397504e-05,0.080735199571439,0.0,17.375467866840914
2022-11-10 10:14:45,-0.0003063550027577261,0.0002766932418228864,-0.0001669639230786301,-0.0001945192048651316,-0.0002932002632336647,0.080735199571439,0.0,17.01394787903173
2022-11-10 10:14:48,-0.0006130201838304029,0.0004117229368180222,0.0002299896805768145,0.00012217087437734796,0.000440077280439069,0.080735199571439,0.0,16.880641883138
2022-11-10 10:14:51,0.0004190955456029073,-0.0004355737202465749,-0.00015569177974273933,-6.847063210014195e-05,-7.471274667354634e-05,0.080735199571439,0.0,17.505605842835237
2022-11-10 10:14:54,0.000290458174654599,0.0002088824184663279,-5.869008377962284e-05,4.6333468669275404e-05,-7.321056765364251e-05,0.080735199571439,0.0,17.248838392068244
2022-11-10 10:14:57,0.0002217060197611685,-4.377990526791905e-06,-8.339529649756697e-05,-6.873447938331513e-05,0.0001285846810162378,0.080735199571439,0.0,17.56548200830501
2022-11-10 10:15:00,-0.0005071991938503265,-8.669711899323526e-05,-1.9563037605735646e-05,1.4680461971683155e-05,-7.20878487781668e-05,0.080735199571439,0.0,17.634175964553286
2022-11-10 10:15:03,-0.0003047346904893306,-0.00014363178634110022,0.00022630540581966994,0.00024673892590625497,-5.7412881450093225e-05,0.080735199571439,0.0,16.116941540687463
2022-11-10 10:15:06,0.000793613949102867,-0.0001652947163686857,5.897128844916893e-05,-0.00031499735587236247,-0.00022815120572189506,0.080735199571439,0.0,16.784536891195927
2022-11-10 10:15:09,0.0007344730080086673,5.6081652388139754e-05,-0.00012912830626686175,0.00019800136239760455,1.7556282613283754e-05,0.080735199571439,0.0,17.309807402898805
2022-11-10 10:15:12,-0.0001641549739460231,0.0002854403154170138,7.279614873039596e-05,0.00013838332647230116,6.398239160932057e-05,0.080735199571439,0.0,16.827243474765865
2022-11-10 10:15:15,-2.3629034031976217e-06,0.00021820288949594836,0.0001927102204071959,-0.00017177828789777074,2.721528017555851e-05,0.1211072526483085,0.0,16.52174820018397
2022-11-10 10:15:18,0.00026401967816212855,-0.00014388759851822761,2.630922714979547e-06,0.0001792977956490681,1.2523708625796292e-05,0.1211072526483085,0.0,16.57519396145853
2022-11-10 10:15:21,0.00011299191087167177,-0.0002004219628164291,-0.00016099679002958624,0.00012376395304685968,-0.0002843462328625911,0.1211072526483085,0.0,16.009375315288825
2022-11-10 10:15:24,0.00024920573517152545,0.00012366473978850254,0.00012663768166041824,7.901275516133623e-07,3.0946254931362605e-05,0.1211072526483085,0.0,15.028109433953531
2022-11-10 10:15:27,-0.00018040451579490535,-0.00018013760827846015,-0.00016390030246163712,6.836265087985774e-05,-5.607955124332654e-05,0.1211072526483085,0.0,14.90112617460187
2022-11-10 10:15:30,7.334880296112869e-05,0.00016074449257618946,5.345156923806313e-06,-2.9101449948084052e-05,-5.823039371465465e-05,0.1211072526483085,0.0,14.908043416388344
2022-11-10 10:15:33,-0.00026484896983548713,0.00016249378340945085,-0.00015351332627069905,-0.00010714588431097092,-6.271293426025989e-05,0.1211072526483085,0.0,15.492058889517402
2022-11-10 10:15:36,-9.579088470943514e-07,2.320070876525005e-05,0.00012843551902978493,6.3587515779857846e-06,5.550456512886449e-05,0.1211072526483085,0.0,15.511205622744464
2022-11-10 10:15:39,0.0009761727787088414,-0.0002970735712707333,-0.00011736891309810809,-0.0001725126015777082,4.797100977589709e-05,0.1211072526483085,0.0,14.711750195637226
2022-11-10 10:15:42,0.00012418349178957742,0.000568001910931545,-1.890765042617023e-05,0.00012631424973522532,-0.0002590868333909202,0.1211072526483085,0.0,16.133122611544906
2022-11-10 10:15:45,-0.00012111828574562069,-3.457760693155107e-05,-7.118152860776738e-05,0.00013549911211392025,3.301575210618029e-05,0.1211072526483085,0.0,16.009223254188036
2022-11-10 10:15:48,-0.00026087594477234986,-0.00011168630705319911,-0.00012379680860430273,-3.459731455431755e-06,-6.531521705579961e-05,0.161479305725178,0.0,16.24252341382443
2022-11-10 10:15:51,-0.00045288155909264206,0.00012715546316324894,0.0001126248204849986,-0.0002052158207358875,-3.2514426215227e-05,0.161479305725178,0.0,15.982065938582014
2022-11-10 10:15:54,0.0005208286645676004,0.0001256444594555896,-0.00023086636655267426,3.500037605206619e-05,0.0005961077958159911,0.161479305725178,0.0,17.462915990352023
2022-11-10 10:15:57,0.00021943020451871696,-0.00013673476425102977,3.616783850430543e-05,-1.9223452410313814e-05,-0.00022210765373999978,0.161479305725178,0.0,18.676068873422032
2022-11-10 10:16:00,0.0007736635209831297,-0.0003899888410559416,0.000602516213373839,0.00024830575909637835,-0.00015538835689123492,0.161479305725178,0.0,16.542251390903846
2022-11-10 10:16:03,-7.113551319336605e-05,0.0007410974259326526,-0.0003934209272926875,-0.0005441234181016453,0.00019656651100412182,0.161479305725178,0.0,16.626448950779704
2022-11-10 10:16:06,-0.001075022996135546,0.00034540068521728606,1.921202393220911e-05,0.000376230918973577,0.0002525686396461837,0.161479305725178,0.0,15.834890520468903
2022-11-10 10:16:09,0.000812873896718776,-0.00048116071066361786,-0.0001458331358481089,-0.0001717283729719454,-0.00026100056990151053,0.161479305725178,0.0,18.80395247115139
2022-11-10 10:16:12,0.0002596942212263815,0.00044414192708175745,0.00021832769746333384,8.688964841141865e-05,4.90813222460612e-05,0.161479305725178,0.0,18.10416796218432
2022-11-10 10:16:15,-1.0542819433342722e-05,-0.00024869191178632715,0.00012572606704192742,-3.1696851884686303e-05,-0.00019717124538222493,0.161479305725178,0.0,17.257622272092394
2022-11-10 10:16:18,0.0003169720727131791,5.57149759518338e-05,0.0001552157050228334,1.0057406038647538e-05,-2.1839514949527093e-05,0.161479305725178,0.0,16.464794277042778
2022-11-10 10:16:21,0.00028120966619581535,5.5268228586783494e-05,5.0370024676325464e-05,0.00017307993002531593,6.819957238572896e-05,0.2018543276628135,0.0,16.08067500358088
2022-11-10 10:16:24,0.0002156397101541446,-7.156386375759666e-07,-0.0001166857259619804,0.0001692597404111794,-2.9518332745519788e-05,0.2018543276628135,0.0,15.479052254144005
2022-11-10 10:16:27,-0.00019064223350994956,0.0001661597558580231,0.00010290344235542912,-0.00014668530664914347,3.340114775655006e-05,0.2018543276628135,0.0,14.004526982065832
2022-11-10 10:16:30,0.00018447889941107287,-0.0003244739092062862,-5.8051277713025086e-05,-7.200966498910186e-05,1.2033808098568452e-05,0.2018543276628135,0.0,15.179248898415311
2022-11-10 10:16:33,0.00040908214576912015,-1.807314099515434e-05,0.00024314326632430847,3.134512648943624e-05,-7.450734435707326e-05,0.2018543276628135,0.0,14.167059037419534
2022-11-10 10:16:36,0.0005153553286065761,5.2140843744895985e-05,4.752871106909927e-05,9.88349000038072e-05,5.7877034187152887e-05,0.2018543276628135,0.0,13.83419043558874
2022-11-10 10:16:39,0.0003089870560498182,1.1447601810981468e-05,-8.8386225367233e-05,-9.467544942701242e-07,0.00018444235720399272,0.2018543276628135,0.0,14.06557848730202
2022-11-10 10:16:42,-0.00019909040617482987,0.00010619709789174087,-6.813039540537997e-05,-0.00010341492878655973,-0.00024311609945125675,0.2018543276628135,0.0,14.394426259610874
2022-11-10 10:16:45,0.00041623188313508024,0.0006088397037579876,0.00014688296527300178,-2.462674245881697e-05,0.00011754229134382794,0.2018543276628135,0.0,14.791128896904066
2022-11-10 10:16:48,-5.0112542672034605e-05,-0.0005807971383490634,-0.0003333020283353684,0.00045780646249799937,-0.000266875132359464,0.2018543276628135,0.0,14.580875020244946
2022-11-10 10:16:51,0.00031305288237165976,0.0001324275522748608,0.00024134366240081523,-0.0005504370545725177,0.00030407394663846887,0.2018543276628135,0.0,14.951593691214024
2022-11-10 10:16:54,0.0004516607844374409,0.00022922422594390525,-0.00018274245974320613,0.0003432755856933174,-0.00019089182395249106,0.2018543276628135,0.0,15.307309447616976
2022-11-10 10:16:57,0.0007733917059037954,-0.00024516662197491336,-0.0002496942982474703,-0.00017485076683835822,0.00012121786561430669,0.2422263807396825,0.0,16.53110661266046
2022-11-10 10:17:00,2.0399633433836758e-05,0.0005275867536848726,0.00024715791637077263,-1.578012549728231e-05,-0.00016646684316915615,0.2422263807396825,0.0,17.25564466474657
2022-11-10 10:17:03,-0.0007091734627661494,0.0001876304178884482,-0.0003148097974040765,0.00040392733384783663,2.2699437872231933e-05,0.2422263807396825,0.0,17.250105151332896
2022-11-10 10:17:06,0.00019991623230020497,-0.0004354011320538654,0.000584123113685044,-6.546324785329586e-05,-0.0003448862201957747,0.2422263807396825,0.0,17.0815439650913
2022-11-10 10:17:09,0.0010181121435991548,-0.00015922796537760044,0.00010934771944084716,-0.00025608901537907056,0.0001256233282528946,0.2422263807396825,0.0,17.344339316867735
2022-11-10 10:17:12,0.0013887587904384971,9.661361395162898e-05,-6.342091584898428e-05,0.00021795184362403286,0.00012289056344427354,0.2422263807396825,0.0,15.471043366146205
2022-11-10 10:17:15,0.00021824968034958963,0.0005252984854380143,-0.000689512297837556,-0.000606430872494394,7.767572302928395e-05,0.2422263807396825,0.0,17.1975808405545
2022-11-10 10:17:18,5.3830451403456773e-05,0.00027976937227855024,-3.372804688933639e-05,0.0003097157833668108,-0.0004511880937272656,0.2422263807396825,0.0,18.30430197120675
2022-11-10 10:17:21,-5.5197097738451745e-05,-2.2501773630201696e-05,-0.00012137355359944557,0.00025720046429961857,0.0002514588830224898,0.2422263807396825,0.0,17.77498274258268
2022-11-10 10:17:24,1.2940018513473825e-05,-0.0003157880263536835,0.0001477959827220625,-0.00017143813933630323,0.00011605195135075047,0.2422263807396825,0.0,16.883703891809844
2022-11-10 10:17:27,0.0005537599650028759,1.702185901116824e-05,-3.2308046021234115e-05,2.8811170289538115e-05,-0.00013413821056613789,0.2422263807396825,0.0,17.15930306962242
2022-11-10 10:17:30,-0.00028767776201182144,0.00047767666454156214,-0.00010982897042694359,-0.00022608638322695325,0.00023748678085264312,0.28259843381655203,0.0,16.426763238874326
2022-11-10 10:17:33,-4.86122456539667e-05,-0.00012303026958971613,5.157497977076949e-05,0.00032212220495048566,-0.00023197308725116548,0.28259843381655203,0.0,15.620935091518202
2022-11-10 10:17:36,0.0005775904517229158,-0.0002902612966247054,2.1723214191674974e-05,-0.00010595202146730488,0.00011317653262472798,0.28259843381655203,0.0,16.325773340145588
2022-11-10 10:17:39,0.0004959713104103858,7.123469129992501e-05,2.8509540813228857e-05,5.353663617386081e-05,-6.084477596420306e-06,0.28259843381655203,0.0,15.518373638475822
2022-11-10 10:17:42,-0.0002727525747159945,0.00029412951506112576,-4.3963622259159035e-08,-5.38765882502228e-06,-2.1495098643323976e-07,0.28259843381655203,0.0,15.210220588610332
2022-11-10 10:17:45,0.0004918795752932103,-0.0002779230176175197,0.00021261078970822602,-4.623967294797012e-05,-6.193922290602017e-05,0.28259843381655203,0.0,15.514499439667173
2022-11-10 10:17:48,0.0002376075921902866,4.941262335899465e-05,-0.00016374997092266562,-0.00015440673834472057,0.00010132128778233785,0.28259843381655203,0.0,15.58634335510645
2022-11-10 10:17:51,0.00047032135638016664,-1.0865559406696377e-06,0.0001764120664537068,0.00016648985402858575,-2.7945211516827552e-05,0.28259843381655203,0.0,15.142792231203966
2022-11-10 10:17:54,0.0004105535197617873,-6.725352260124172e-05,-0.00015971749591601634,-0.00017097998627683508,3.516195310332139e-05,0.28259843381655203,0.0,15.124838241527076
2022-11-10 10:17:57,0.0003854569209125884,0.0006601883049678367,-0.0001527176534067823,0.00020716907374717343,2.1828786955822537e-05,0.28259843381655203,0.0,15.647454504601203
2022-11-10 10:18:00,0.0006668769542247279,-0.00017574485679546832,1.5540140936001344e-05,7.39831813710817e-05,1.7584190260372266e-05,0.28259843381655203,0.0,16.64966417809432
2022-11-10 10:18:03,0.00026548042541340243,-8.246097261876536e-05,-0.0002543044641599054,2.134207803537877e-05,-7.666897772556634e-05,0.322970486893421,0.0,17.170831439593016
2022-11-10 10:18:06,-0.0005051221543244989,0.0001964708748004249,7.699140083765973e-05,-0.00021599117542281583,0.00011912694144029697,0.322970486893421,0.0,16.6138717238588
2022-11-10 10:18:09,9.225185605082312e-05,4.636424706985889e-05,5.141085167068617e-05,0.00020891925505481617,7.542386743371887e-05,0.322970486893421,0.0,17.173294006710222
2022-11-10 10:18:12,0.000873222042312491,-0.0006394139607455266,2.1151639130380193e-05,-0.00037475904699855675,-0.00014366680834273067,0.322970486893421,0.0,17.132832092760335
2022-11-10 10:18:15,0.00046849757559382706,0.0010199806318991415,0.00017074566209535029,0.00012432111823580937,-0.00022240662045609023,0.322970486893421,0.0,17.020862711884078
2022-11-10 10:18:18,0.00035483395929675736,0.00019625815189341347,-0.00048563444185784223,0.0005657254001473238,-5.609000329004359e-05,0.322970486893421,0.0,17.56329280487191
2022-11-10 10:18:21,-5.0372961718925686e-05,-0.00025911745124456044,4.897246055105939e-05,-0.0004587869334947341,-0.00027679119307494663,0.322970486893421,0.0,17.673904670401818
2022-11-10 10:18:24,0.00032146576490988733,-6.210861428820057e-05,0.00018531833926534392,8.206641003542504e-05,3.3921161196923984e-07,0.322970486893421,0.0,17.85633640418704
2022-11-10 10:18:27,0.0006993755384709924,-0.00018490064177778697,-0.000102012526030345,0.00014038754680516718,0.0001489584376081602,0.322970486893421,0.0,17.428893909433192
2022-11-10 10:18:30,0.0005976545528940982,0.0007441271685734654,9.420100457862489e-05,-1.7413532405061553e-05,2.014223582645821e-05,0.322970486893421,0.0,16.663908985113526
2022-11-10 10:18:33,0.00024594720632206,-0.00042206420599418036,-5.204739172264351e-05,-0.0001770735712611866,-0.00021144484092035524,0.322970486893421,0.0,17.098004621661154
2022-11-10 10:18:36,0.0005936444488200035,9.237777572553806e-05,0.0003295707746334017,1.5581853584551385e-05,0.0003414183030094049,0.36334550883105654,0.0,16.255085225130067
2022-11-10 10:18:39,0.00035916242067041994,0.0003340213577950634,5.597066252498074e-06,0.00017802571230031438,-1.4775348994423286e-05,0.36334550883105654,0.0,15.37175549821908
2022-11-10 10:18:42,-0.0002183036790522286,0.00021160326146335128,-8.384931469182844e-05,5.6326626041408197e-05,0.0001490495063876332,0.36334550883105654,0.0,14.69499468742739
2022-11-10 10:18:45,-0.00019408942147993265,-0.0003913459376675475,0.00010277623554927386,-0.00024730271189762345,-0.0001499392559366906,0.36334550883105654,0.0,14.228897511003746
2022-11-10 10:18:48,8.46518575078814e-05,5.8023295793774216e-05,-9.712589609061012e-06,0.00020421730994575187,-4.050955128251951e-05,0.36334550883105654,0.0,15.272954024241171
2022-11-10 10:18:51,0.0005971535921164423,-0.0002016155007952709,0.00028951039603751304,0.0002479817223034617,0.00016186796548990065,0.36334550883105654,0.0,13.81935264746834
2022-11-10 10:18:54,0.0006194965195439209,8.22871181031038e-05,-0.00018510599261192126,-0.0006024465460599718,0.0003896870026008353,0.36334550883105654,0.0,13.573651188853866
2022-11-10 10:18:57,0.00041882834551679713,0.0006467625933661583,-0.000193303629913945,1.4484604221968288e-06,-0.000364023903688146,0.36334550883105654,0.0,14.782609831143754
2022-11-10 10:19:00,8.827028717211212e-05,0.00016083970434442263,-0.00016263660823230474,0.00027388550552936796,3.5649359067897584e-05,0.36334550883105654,0.0,15.227855658861891
2022-11-10 10:19:03,0.00045257343628636896,-0.0005895141670368137,-9.464262412887154e-05,3.9665587410286727e-05,0.00017674695166227357,0.36334550883105654,0.0,14.88755256372664
2022-11-10 10:19:06,0.0002579547773551013,0.00019464178028077652,4.75201528255149e-05,-0.00015611339125866036,-0.00022912356211479717,0.36334550883105654,0.0,14.166267451067434
2022-11-10 10:19:09,0.00027312295308510784,0.000301177144800555,-0.00014024859630635403,-0.00011981543741209627,-0.00014506472676123537,0.36334550883105654,0.0,15.120761575023002
2022-11-10 10:19:12,0.00041748007187573173,0.00021326876096431147,-0.00025962570857132226,2.7393016047077817e-05,-0.0001836734130838957,0.40372053076869197,0.0,16.759832376431774
2022-11-10 10:19:15,0.0004922069782542806,7.746683666269929e-05,0.00013259570789968955,-7.453280798004243e-05,-0.00017902967006085436,0.40372053076869197,0.0,17.595835059841356
2022-11-10 10:19:18,0.00022258082038699084,3.794118015036465e-05,-0.00012099192307247609,0.00022291672853799304,0.00011317175061528773,0.40372053076869197,0.0,17.087574625863354
2022-11-10 10:19:21,0.0003329370743090986,-0.0001474103847553199,-0.0002694489083578945,0.00026612969261571173,0.00011081653188198543,0.40372053076869197,0.0,17.369252363297797
2022-11-10 10:19:24,0.0004169516562152878,0.00010796660851904572,0.0002361270279153674,-0.0002692892029539175,-0.00026261461698913897,0.40372053076869197,0.0,17.28657996169253
2022-11-10 10:19:27,0.0006246572006902065,0.00019284756478428234,4.515991519703026e-05,0.00020177972594055728,0.00039546050650327426,0.40372053076869197,0.0,17.168151284106482
2022-11-10 10:19:30,0.0003174062991519426,0.00012614193319782319,-0.00038092304345881665,1.443966853284602e-05,-0.00033801347689795447,0.40372053076869197,0.0,17.136106304401366
2022-11-10 10:19:33,0.00014590971802853632,-0.0005543106360274833,-6.406812994724533e-06,-0.00013721669830219987,-0.00011807842834510607,0.40372053076869197,0.0,17.59913324179843
2022-11-10 10:19:36,0.0008145103766799126,0.0003938098706129207,-5.942009250363547e-08,2.4728936212785533e-05,3.914685509127688e-05,0.40372053076869197,0.0,16.58696694589679
2022-11-10 10:19:39,0.0006880822010708999,0.00026900062079980943,-0.0001444961630201165,8.941098028233298e-06,9.415778985326812e-05,0.40372053076869197,0.0,17.095070933128177
2022-11-10 10:19:42,0.00021584965092326584,0.00010824445362795821,-0.00035572045032889165,0.00021902913294326884,-8.010788552473512e-05,0.40372053076869197,0.0,17.363903809872355
2022-11-10 10:19:45,-0.0003408452912441225,-5.784800636302615e-05,0.0002355468434705803,-0.00032339324466260045,-0.00018286689421337433,0.4440955527063275,0.0,16.52091058188009
2022-11-10 10:19:48,0.0007260076578090884,-0.0005898760398397547,-5.817698164697304e-05,-1.569478682951096e-05,2.2602916969536467e-05,0.4440955527063275,0.0,15.87603728555102
2022-11-10 10:19:51,0.0003289638789447625,0.0008108676241331807,8.551506637478041e-05,0.0002543856700424253,-0.0001497712264268339,0.4440955527063275,0.0,16.12585895810315
2022-11-10 10:19:54,0.00020337493091345963,6.615465926261968e-05,0.0001279117399041308,-3.210666535417638e-05,-0.00013884359968187966,0.4440955527063275,0.0,16.428977045077595
2022-11-10 10:19:57,0.000638391508050586,-0.00021074121942935467,0.0004243164061508285,-1.284566485372569e-05,0.0006202146702666831,0.4440955527063275,0.0,15.05476256658098
2022-11-10 10:20:00,0.0003146140381916112,0.0001634620021917665,-0.0003978485912058275,-2.9351449910555254e-05,-0.00036290648892091165,0.4440955527063275,0.0,14.90249991334796
2022-11-10 10:20:03,-0.0002569506041990151,0.00019776047890530062,-0.00020050078788528126,0.00014970135696474677,-0.00021211488063605804,0.4440955527063275,0.0,15.762857290233804
2022-11-10 10:20:06,0.0008071422140963781,3.778856346281594e-05,-0.00010971219071492345,-4.1816305320008914e-05,0.00010617466714656728,0.4440955527063275,0.0,16.162927447014706
2022-11-10 10:20:09,0.0001195163674863484,1.0195577945417139e-05,-0.0001331320375520559,0.00010821063594945076,8.099022994814936e-05,0.4440955527063275,0.0,15.014108660837888
2022-11-10 10:20:12,4.1840597866563676e-05,-7.741747866717197e-05,0.00010454099551725542,-3.0389524876628648e-05,-0.0003275878344621489,0.4440955527063275,0.0,15.380218795220769
2022-11-10 10:20:15,0.0008350105513030983,-9.050745383057989e-05,0.00021296759968257763,-0.000201533797687855,0.00010050463104535747,0.4440955527063275,0.0,15.915599583250994
