TS,1_comp_x,1_comp_y,1_comp_decouple_x,1_comp_decouple_y,lumi,y_pos,x_pos
2022-11-10 10:24:21,-0.019252228094150885,0.007234786534362656,-0.0011583311453137238,0.0004352887640571148,16.620659965882716,-0.4441252413139915,2.96886076631141e-06
2022-11-10 10:24:24,-0.022710264278547606,0.006836565673036203,-0.001427204838755564,0.00042963743131092536,15.912407008337764,-0.4441252413139915,2.96886076631141e-06
2022-11-10 10:24:27,-0.01736832448010327,0.006918176002262984,-0.001150070924924072,0.00045809790592205707,15.101959456326515,-0.4441252413139915,2.96886076631141e-06
2022-11-10 10:24:30,-0.010544101865626286,0.005909126301868824,-0.0006929228796560537,0.00038832788847483965,15.216847610602876,-0.4441252413139915,2.96886076631141e-06
2022-11-10 10:24:33,-0.017733505800662713,0.006197536939058056,-0.0011989702246504846,0.00041901823247067287,14.790614008644177,-0.4441252413139915,2.96886076631141e-06
2022-11-10 10:24:36,-0.018191668754473127,0.006258924249992109,-0.0012162583565009286,0.0004184590773118265,14.957076066312922,-0.4441252413139915,2.96886076631141e-06
2022-11-10 10:24:39,-0.01668705098322137,0.006257179454150145,-0.001178954759720973,0.0004420752059375866,14.154106292569486,-0.4441252413139915,2.96886076631141e-06
2022-11-10 10:24:42,-0.017486190331683048,0.005958016079579945,-0.0012175103001461033,0.0004148385558963829,14.36225248327236,-0.4441252413139915,2.96886076631141e-06
2022-11-10 10:24:45,-0.02117052444621091,0.005732632568485671,-0.0013886403471706403,0.0003760211467755321,15.2455057850983,-0.4441252413139915,2.96886076631141e-06
2022-11-10 10:24:48,-0.014090836748674446,0.006395404475038304,-0.0009460627488363986,0.00042938925810381856,14.894188325251516,-0.4441252413139915,2.96886076631141e-06
2022-11-10 10:24:51,-0.012843573920068447,0.0058746565269597005,-0.0007947360495639074,0.00036351262894867935,16.16080449240481,-0.4441252413139915,2.96886076631141e-06
2022-11-10 10:24:54,-0.02516167725295807,0.0066736876647450205,-0.0014632504237700444,0.00038810116692038237,17.195742331055925,-0.403750219376356,2.96886076631141e-06
2022-11-10 10:24:57,-0.01857359428793983,0.007169352607246448,-0.0010437917784115228,0.0004029005475174025,17.794348137332282,-0.403750219376356,2.96886076631141e-06
2022-11-10 10:25:00,-0.019185207303953376,0.006664013590478945,-0.0011322384703721115,0.0003932849113737771,16.94449341369591,-0.403750219376356,2.96886076631141e-06
2022-11-10 10:25:03,-0.01866942199975303,0.0063021471217138015,-0.0011093817789455602,0.00037448867914368137,16.828671927078027,-0.403750219376356,2.96886076631141e-06
2022-11-10 10:25:06,-0.02453714081255835,0.007145685722408817,-0.0014787062213265211,0.00043062759488106465,16.593654952331583,-0.403750219376356,2.96886076631141e-06
2022-11-10 10:25:09,-0.02356123276557176,0.007300689421179953,-0.001332322270782497,0.00041283370885912925,17.684334550479157,-0.403750219376356,2.96886076631141e-06
2022-11-10 10:25:12,-0.00899914452028981,0.0064419483234048345,-0.0005304317893521089,0.000379704333939,16.96569606297868,-0.403750219376356,2.96886076631141e-06
2022-11-10 10:25:15,-0.025004840738856875,0.0062380401156291124,-0.001399622783191829,0.00034916851338834964,17.865414195268762,-0.403750219376356,2.96886076631141e-06
2022-11-10 10:25:18,-0.02001595710608495,0.006753037291149701,-0.0011972596308876743,0.00040393466531333985,16.718142489482155,-0.403750219376356,2.96886076631141e-06
2022-11-10 10:25:21,-0.019430724294651928,0.005809373294423374,-0.001165935465254206,0.0003485899059734567,16.66535144843158,-0.403750219376356,2.96886076631141e-06
2022-11-10 10:25:24,-0.022856785166961137,0.006869274377898705,-0.0013363071132869075,0.00040160766911237353,17.10444024408463,-0.403750219376356,2.96886076631141e-06
2022-11-10 10:25:27,-0.019945592835052702,0.006643486441751489,-0.0012318712280141343,0.00041031218620451873,16.191296932234096,-0.3633751974387205,2.96886076631141e-06
2022-11-10 10:25:30,-0.014415826036563889,0.005232848848190445,-0.0010126821907592645,0.00036759689122613037,14.235291356072468,-0.3633751974387205,2.96886076631141e-06
2022-11-10 10:25:33,-0.013504207124680463,0.004807251376070871,-0.0010179279648674696,0.00036236378520193596,13.266368142699234,-0.3633751974387205,2.96886076631141e-06
2022-11-10 10:25:36,-0.01612281436357192,0.004911475059381173,-0.0012148460545451263,0.0003700772063323641,13.271487612155738,-0.3633751974387205,2.96886076631141e-06
2022-11-10 10:25:39,-0.01618424246655261,0.004894768984480341,-0.0012238414382868448,0.00037013911070774214,13.2241334214076,-0.3633751974387205,2.96886076631141e-06
2022-11-10 10:25:42,-0.01615071920886989,0.0050793195657248625,-0.0012167532078554018,0.00038266273442016474,13.273619584152543,-0.3633751974387205,2.96886076631141e-06
2022-11-10 10:25:45,-0.012708444155275996,0.004783662280775309,-0.0009831781246952037,0.0003700840207442142,12.92588172587318,-0.3633751974387205,2.96886076631141e-06
2022-11-10 10:25:48,-0.014015220690509885,0.004512824863724102,-0.0010542382744364522,0.0003394589926356222,13.29416796027614,-0.3633751974387205,2.96886076631141e-06
2022-11-10 10:25:51,-0.018014867788954208,0.005237225928653619,-0.0013139195479486675,0.0003819785748802919,13.71078451270444,-0.3633751974387205,2.96886076631141e-06
2022-11-10 10:25:54,-0.01204009996018456,0.004709241279999064,-0.0008875644492002155,0.0003471528605788433,13.565324716457376,-0.3633751974387205,2.96886076631141e-06
2022-11-10 10:25:57,-0.01449909303220851,0.004844810710729068,-0.00100429237218826,0.00033558005529536587,14.43712352471256,-0.3633751974387205,2.96886076631141e-06
2022-11-10 10:26:00,-0.0240642677183029,0.00599123708431141,-0.0014523686733451436,0.0003615935941910826,16.56898014942534,-0.323000175501085,2.96886076631141e-06
2022-11-10 10:26:03,-0.020506583646539255,0.005777370392226815,-0.0012545902042298113,0.0003534587928066866,16.34524450884596,-0.323000175501085,2.96886076631141e-06
2022-11-10 10:26:06,-0.020728290638363827,0.0055418430585397775,-0.001206192193707302,0.00032248331290714267,17.184898680743586,-0.323000175501085,2.96886076631141e-06
2022-11-10 10:26:09,-0.01807582904193101,0.005922280789133525,-0.0010945912733930213,0.00035862680795061236,16.513770465115652,-0.323000175501085,2.96886076631141e-06
2022-11-10 10:26:12,-0.01893143155091706,0.0058223740228603715,-0.0011478494899107234,0.0003530218533255073,16.49295636520211,-0.323000175501085,2.96886076631141e-06
2022-11-10 10:26:15,-0.017123851068297214,0.005603848602633834,-0.0009695583493821162,0.0003172918392998625,17.661496163907998,-0.323000175501085,2.96886076631141e-06
2022-11-10 10:26:18,-0.026351146296604486,0.0060249204709112505,-0.0014627446022029203,0.0003344416139749833,18.014864834858507,-0.323000175501085,2.96886076631141e-06
2022-11-10 10:26:21,-0.016925247358660064,0.006264919523065082,-0.0009554410387557454,0.00035365871410888083,17.714591138665686,-0.323000175501085,2.96886076631141e-06
2022-11-10 10:26:24,-0.022506173046260756,0.005859164767722167,-0.0013180963372303662,0.0003431477934382501,17.07475577509879,-0.323000175501085,2.96886076631141e-06
2022-11-10 10:26:27,-0.022208661779800184,0.005321733054089419,-0.0012781459270974791,0.0003062747091934694,17.37568559971354,-0.323000175501085,2.96886076631141e-06
2022-11-10 10:26:30,-0.018761747837120514,0.005695795792433239,-0.0010991084486655608,0.0003336734579147789,17.069969628474198,-0.323000175501085,2.96886076631141e-06
2022-11-10 10:26:33,-0.020990224838584277,0.0052114689001027635,-0.0012626120451970468,0.0003134822736316796,16.624445266802823,-0.28262812242421553,2.96886076631141e-06
2022-11-10 10:26:36,-0.013915140811199742,0.004787590584831972,-0.0009033601608364572,0.0003108066716257707,15.403757454075857,-0.28262812242421553,2.96886076631141e-06
2022-11-10 10:26:39,-0.015467468315158961,0.004550828296987464,-0.0010476883572544148,0.0003082501754954267,14.76342483722278,-0.28262812242421553,2.96886076631141e-06
2022-11-10 10:26:42,-0.018694571048415792,0.004278339749193566,-0.0012794447326709099,0.0002928068925735611,14.611472126185449,-0.28262812242421553,2.96886076631141e-06
2022-11-10 10:26:45,-0.02263630939159903,0.004520091723809324,-0.0015342123965762866,0.0003063565105230375,14.754351771706252,-0.28262812242421553,2.96886076631141e-06
2022-11-10 10:26:48,-0.01716768312941226,0.004678507827037617,-0.0011726597939314739,0.00031957125390795493,14.639952028930464,-0.28262812242421553,2.96886076631141e-06
2022-11-10 10:26:51,-0.013435881504976873,0.004432117467732657,-0.0008848672896479312,0.00029189270310408253,15.184063940619511,-0.28262812242421553,2.96886076631141e-06
2022-11-10 10:26:54,-0.015317683475071064,0.004269331714360257,-0.0010580666933602766,0.0002949034491555428,14.47704910398812,-0.28262812242421553,2.96886076631141e-06
2022-11-10 10:26:57,-0.019637907098972653,0.004319371558614053,-0.0013390370294773474,0.0002945221418914889,14.66569382822648,-0.28262812242421553,2.96886076631141e-06
2022-11-10 10:27:00,-0.012637420159117544,0.004255571109413722,-0.0008437833920290887,0.0002841387071499285,14.977090422137485,-0.28262812242421553,2.96886076631141e-06
2022-11-10 10:27:03,-0.0217736735130206,0.004355944622711851,-0.0013650495242615523,0.0002730857579630162,15.950830446828991,-0.28262812242421553,2.96886076631141e-06
2022-11-10 10:27:06,-0.01851645116828594,0.004901630781259288,-0.0011593620626035514,0.0003069035594906535,15.97124122442302,-0.2422531004865795,2.96886076631141e-06
2022-11-10 10:27:09,-0.019216073020157636,0.004733974525314062,-0.0010946503737021144,0.0002696725276696944,17.55453017858913,-0.2422531004865795,2.96886076631141e-06
2022-11-10 10:27:12,-0.02095598675628331,0.004584287736055662,-0.001206040265450869,0.00026383084043694595,17.375859958082803,-0.2422531004865795,2.96886076631141e-06
2022-11-10 10:27:15,-0.018090137469786244,0.004778962063135899,-0.0010633859271947227,0.000280919977143558,17.011827039604647,-0.2422531004865795,2.96886076631141e-06
2022-11-10 10:27:18,-0.019788839233696162,0.0046164224351623465,-0.0011466188248328243,0.00026748799184362547,17.25842869933812,-0.2422531004865795,2.96886076631141e-06
2022-11-10 10:27:21,-0.023207046370617827,0.005338596819724289,-0.001344330686997846,0.00030925260438790614,17.26290011458692,-0.2422531004865795,2.96886076631141e-06
2022-11-10 10:27:24,-0.01942762495686405,0.004607978509278781,-0.0011107584207928377,0.0002634573677110978,17.490414290982365,-0.2422531004865795,2.96886076631141e-06
2022-11-10 10:27:27,-0.01778041716495908,0.005024949245501844,-0.0010328990998875705,0.0002919090988983287,17.214089127286925,-0.2422531004865795,2.96886076631141e-06
2022-11-10 10:27:30,-0.01588162036630369,0.004746098001080698,-0.0009486510763003865,0.00028349695264754705,16.74126637608414,-0.2422531004865795,2.96886076631141e-06
2022-11-10 10:27:33,-0.018635620757587727,0.0048559936508464005,-0.0010929117598325424,0.0002847864654318698,17.05134983673623,-0.2422531004865795,2.96886076631141e-06
2022-11-10 10:27:36,-0.02195093011271885,0.004551839510450461,-0.001329377347289742,0.0002756654183954203,16.512189076691538,-0.2422531004865795,2.96886076631141e-06
2022-11-10 10:27:39,-0.023238545934844413,0.004095209184555599,-0.001497479989097805,0.0002638931808485636,15.518435040220515,-0.2018810474097105,2.96886076631141e-06
2022-11-10 10:27:42,-0.017925771399742912,0.0037634753981615134,-0.001241950362840788,0.00026074468607560755,14.433565089300522,-0.2018810474097105,2.96886076631141e-06
2022-11-10 10:27:45,-0.013514761746779815,0.003301391059716228,-0.0010010663951424991,0.0002445408738258568,13.50036502309722,-0.2018810474097105,2.96886076631141e-06
2022-11-10 10:27:48,-0.01618374637218156,0.003435119443615405,-0.0012084358363299238,0.0002564994125756925,13.392309203054053,-0.2018810474097105,2.96886076631141e-06
2022-11-10 10:27:51,-0.012728051532036398,0.003399148516437439,-0.0009265879958139792,0.00024745423157600244,13.736473588625756,-0.2018810474097105,2.96886076631141e-06
2022-11-10 10:27:54,-0.0138405303389755,0.003274031340980973,-0.001042154847636593,0.00024652578692804783,13.280685082800472,-0.2018810474097105,2.96886076631141e-06
2022-11-10 10:27:57,-0.0152338500965865,0.0031461265090893652,-0.0011948080770505627,0.0002467542571739734,12.750039432434992,-0.2018810474097105,2.96886076631141e-06
2022-11-10 10:28:00,-0.017991991044010943,0.00304788622559435,-0.0013618806504592262,0.00023070583268325158,13.211136407543526,-0.2018810474097105,2.96886076631141e-06
2022-11-10 10:28:03,-0.015840322868184552,0.002900285102187531,-0.0011423729817529155,0.00020916286667200067,13.866156781717956,-0.2018810474097105,2.96886076631141e-06
2022-11-10 10:28:06,-0.014298812674133526,0.0036872455324018587,-0.0010358234336647594,0.0002671085645486282,13.804295413113124,-0.2018810474097105,2.96886076631141e-06
2022-11-10 10:28:09,-0.017386621784314764,0.0036634362655803294,-0.001184136074096344,0.0002495025825626442,14.68295930227707,-0.2018810474097105,2.96886076631141e-06
2022-11-10 10:28:12,-0.018639914246223195,0.004215392592739313,-0.0011366653959643117,0.00025705541491650936,16.398769868778903,-0.161506025472075,2.96886076631141e-06
2022-11-10 10:28:15,-0.018894001992260465,0.004092590696555135,-0.0011247133856635175,0.00024362184043079168,16.798948277043994,-0.161506025472075,2.96886076631141e-06
2022-11-10 10:28:18,-0.015387143692022112,0.003625814390995991,-0.0009054484981248191,0.00021335916922052473,16.99394689359896,-0.161506025472075,2.96886076631141e-06
2022-11-10 10:28:21,-0.02444933967186092,0.0035426847394847043,-0.0013747549712940664,0.00019920061329670768,17.784507190286128,-0.161506025472075,2.96886076631141e-06
2022-11-10 10:28:24,-0.020690690933004973,0.004077165083579269,-0.001197368383931576,0.00023594516891459603,17.280138018231945,-0.161506025472075,2.96886076631141e-06
2022-11-10 10:28:27,-0.019744618792277135,0.003971408215934282,-0.0011768212358198853,0.000236704368607464,16.777925305300222,-0.161506025472075,2.96886076631141e-06
2022-11-10 10:28:30,-0.024561435592644287,0.0039552015936412605,-0.0017230209018716386,0.0002774632203909468,14.254868043657698,-0.161506025472075,2.96886076631141e-06
2022-11-10 10:28:33,-0.009278729081419365,0.0015481435457410653,-0.0007603651392109588,0.00012686590721063315,12.202991172172922,-0.161506025472075,2.96886076631141e-06
2022-11-10 10:28:36,-0.015687749703137303,0.0028949707896464352,-0.0009529456189916408,0.0001758537574417467,16.46237664614828,-0.161506025472075,2.96886076631141e-06
2022-11-10 10:28:39,-0.0263518435487974,0.004459442159319869,-0.001547915213953548,0.00026194897337541707,17.02408717948566,-0.161506025472075,2.96886076631141e-06
2022-11-10 10:28:42,-0.0231883651791809,0.003518581119262106,-0.0013248305290330619,0.00020102856107609486,17.502891631056475,-0.161506025472075,2.96886076631141e-06
2022-11-10 10:28:45,-0.02126226293212135,0.004717318213505476,-0.001226182222841522,0.00027204497241676434,17.34021464024225,-0.161506025472075,2.96886076631141e-06
2022-11-10 10:28:48,-0.016217851990985063,0.003785372175009568,-0.0009560922608144755,0.00022315933348268768,16.962643309307207,-0.161506025472075,2.96886076631141e-06
2022-11-10 10:28:51,-0.01683389811111152,0.003308761964615428,-0.0009659771287543265,0.00018986620693640965,17.426808161410232,-0.161506025472075,2.96886076631141e-06
2022-11-10 10:28:54,-0.02073573298173568,0.0041469116145303716,-0.001184164132681125,0.00023681940733182602,17.510860538215148,-0.161506025472075,2.96886076631141e-06
2022-11-10 10:28:57,-0.024908535791069726,0.00413724246938346,-0.001459421629427553,0.00024240610514606145,17.067402105613514,-0.161506025472075,2.96886076631141e-06
2022-11-10 10:29:00,-0.020373210534721103,0.0035346748160198387,-0.001246465618776114,0.0002162570609189863,16.3447833841781,-0.12113397239520599,2.96886076631141e-06
2022-11-10 10:29:03,-0.012506599208300601,0.0027855154723323535,-0.00082603455916681,0.0001839774351858386,15.14052780178536,-0.12113397239520599,2.96886076631141e-06
2022-11-10 10:29:06,-0.020151677918635275,0.00270221630435647,-0.0013606629528131733,0.00018245654930924867,14.810190780142609,-0.12113397239520599,2.96886076631141e-06
2022-11-10 10:29:09,-0.01659698864266384,0.0029494705556898032,-0.0010879236251968637,0.00019333619902040506,15.25565605734553,-0.12113397239520599,2.96886076631141e-06
2022-11-10 10:29:12,-0.01427652470883995,0.002724607331298259,-0.0009572497825524731,0.00018268660115939786,14.914105982632972,-0.12113397239520599,2.96886076631141e-06
2022-11-10 10:29:15,-0.0202624053330349,0.0027988299080923605,-0.0013676313387846737,0.00018890982740308346,14.81569247385103,-0.12113397239520599,2.96886076631141e-06
2022-11-10 10:29:18,-0.017333152365485698,0.002935161126814763,-0.001182847621986009,0.00020030103502187335,14.653749175555866,-0.12113397239520599,2.96886076631141e-06
2022-11-10 10:29:21,-0.015168057860804768,0.0033560516046451296,-0.0010259632265865542,0.00022700239968032502,14.784212014371972,-0.12113397239520599,2.96886076631141e-06
2022-11-10 10:29:24,-0.00820988017668142,0.002332780365912519,-0.000591879600860305,0.0001681784730296967,13.870861852221717,-0.12113397239520599,2.96886076631141e-06
2022-11-10 10:29:27,-0.023218197312268075,0.0031235470040266175,-0.0014838350230293273,0.00019962051223520539,15.647425051921813,-0.12113397239520599,2.96886076631141e-06
2022-11-10 10:29:30,-0.018111858401188632,0.0029943329501896576,-0.001192351363639435,0.00019712482823489952,15.190034543094317,-0.12113397239520599,2.96886076631141e-06
2022-11-10 10:29:33,-0.022519465984263586,0.003535839252659843,-0.0013599382355248039,0.00021352739881672696,16.55918290698935,-0.080761919318337,2.96886076631141e-06
2022-11-10 10:29:36,-0.019265134542264143,0.002634815337930319,-0.0010990983980991521,0.00015031928849773533,17.528125394034276,-0.080761919318337,2.96886076631141e-06
2022-11-10 10:29:39,-0.016309007863262,0.0031134973668146015,-0.0009292566012693373,0.00017740122547028347,17.5505967253656,-0.080761919318337,2.96886076631141e-06
2022-11-10 10:29:42,-0.01758548037557807,0.002431305195543616,-0.0010437679488569203,0.00014430759824576663,16.848074703612774,-0.080761919318337,2.96886076631141e-06
2022-11-10 10:32:03,-0.016757486747266005,0.0021820234090081437,-0.0009253274516258352,0.00012048860255102623,18.109790991094524,-0.080761919318337,2.96886076631141e-06
2022-11-10 10:32:06,-0.018682035049914926,0.004116545603410562,-0.0010480852469672284,0.00023094329412587546,17.824919398468623,-0.080761919318337,2.96886076631141e-06
2022-11-10 10:32:09,-0.020160007750373014,0.0027090142071762757,-0.001145545773278733,0.00015393346139588664,17.59860515452987,-0.080761919318337,2.96886076631141e-06
2022-11-10 10:32:12,-0.009026810479648564,0.003151759331316115,-0.0005386938389405608,0.00018808784536146744,16.756847446782434,-0.080761919318337,2.96886076631141e-06
2022-11-10 10:32:15,-0.017223894921066133,0.003766729510407909,-0.0010373836085652195,0.00022686758540409093,16.603207124978667,-0.080761919318337,2.96886076631141e-06
2022-11-10 10:32:18,-0.02820368834890963,0.0028407834634612333,-0.0018414256740751814,0.00018547544347361812,15.316224133278885,-0.04038689738070125,2.96886076631141e-06
2022-11-10 10:32:21,-0.020201925920944167,0.0017119981335880674,-0.001431390563457535,0.00012130219577403254,14.113496649122975,-0.04038689738070125,2.96886076631141e-06
2022-11-10 10:32:24,-0.027032292803926206,0.002525502548777621,-0.0018015038373852899,0.00016830620199143482,15.00540395359967,-0.04038689738070125,2.96886076631141e-06
2022-11-10 10:32:27,-0.010658417895762957,0.0014738639582313005,-0.0008184409101536481,0.00011317538599204418,13.022831292441165,-0.04038689738070125,2.96886076631141e-06
2022-11-10 10:32:30,-0.016377548329007133,0.0020797617245971165,-0.0011865044066613664,0.0001506725183444914,13.803192164360295,-0.04038689738070125,2.96886076631141e-06
2022-11-10 10:32:33,-0.01734219431410577,0.001793663337868325,-0.0012639643792122894,0.00013072893350759817,13.720477095180115,-0.04038689738070125,2.96886076631141e-06
2022-11-10 10:32:36,-0.016849988956728876,0.00243991225952188,-0.0012808571957101049,0.000185470695709975,13.155244014058315,-0.04038689738070125,2.96886076631141e-06
2022-11-10 10:32:39,-0.011964804432558485,0.002285044286022475,-0.0008939218848689913,0.0001707216450284713,13.38461965758002,-0.04038689738070125,2.96886076631141e-06
2022-11-10 10:32:42,-0.018375137928839044,0.002064514068818613,-0.0013920483139783467,0.00015640172823808035,13.200071968999827,-0.04038689738070125,2.96886076631141e-06
2022-11-10 10:32:45,-0.01962728991355669,0.0022599644752821675,-0.0014610230292904985,0.00016822802120454995,13.43393602980241,-0.04038689738070125,2.96886076631141e-06
2022-11-10 10:32:48,-0.015662198446555115,0.002616431038313879,-0.0010739936008057433,0.0001794147993774588,14.58313944776286,-0.04038689738070125,2.96886076631141e-06
2022-11-10 10:32:51,-0.014571866989789548,0.0021574244719773225,-0.0008863294735675018,0.00013122470153269786,16.440688732980256,-1.18754430655094e-05,2.96886076631141e-06
2022-11-10 10:32:54,-0.01672111056901461,0.002218349610967083,-0.0009467852497531131,0.00012560772693837665,17.66093269130974,-1.18754430655094e-05,2.96886076631141e-06
2022-11-10 10:32:57,-0.02525442550548926,0.0024132345262378647,-0.001447051422355998,0.000138275743113304,17.452334530290287,-1.18754430655094e-05,2.96886076631141e-06
2022-11-10 10:33:00,-0.02455035144702842,0.0023534846591312434,-0.001460221326952252,0.00013998204870237655,16.81276049999179,-1.18754430655094e-05,2.96886076631141e-06
2022-11-10 10:33:03,-0.014543349782196121,0.0027290546568055586,-0.0008692296361713767,0.00016311064658094788,16.731309169638994,-1.18754430655094e-05,2.96886076631141e-06
2022-11-10 10:33:06,-0.015073677428399405,0.0019844389376247867,-0.0008519221411827493,0.00011215494538861464,17.693726573970906,-1.18754430655094e-05,2.96886076631141e-06
2022-11-10 10:33:09,-0.023351636146465717,0.002582123219302004,-0.001301624779963504,0.00014392805480875517,17.94037460405484,-1.18754430655094e-05,2.96886076631141e-06
2022-11-10 10:33:12,-0.02963343602141661,0.002688112883250976,-0.001672360675702411,0.00015170344318319971,17.71952453316939,-1.18754430655094e-05,2.96886076631141e-06
2022-11-10 10:33:15,-0.012049778748513684,0.0020647321105361945,-0.0007613076661686435,0.00013045022793714434,15.827738618678824,-1.18754430655094e-05,2.96886076631141e-06
2022-11-10 10:33:18,-0.028262543228485027,0.0022323048220305006,-0.0015196140003538904,0.00012002605827758993,18.598501475969027,-1.18754430655094e-05,2.96886076631141e-06
2022-11-10 10:33:21,-0.01786323581461138,0.0010242242119418508,-0.001133087306514606,6.496781801575767e-05,15.765100987283112,-1.18754430655094e-05,2.96886076631141e-06
2022-11-10 10:33:24,-0.010760904058940923,0.0015090733228477708,-0.0007362553347739272,0.00010324999446385156,14.61572303886279,0.04036314649457025,2.96886076631141e-06
2022-11-10 10:33:27,-0.023629922864623846,0.0012175011359527236,-0.0014250235587070167,7.342249111115767e-05,16.582127867460844,0.04036314649457025,2.96886076631141e-06
2022-11-10 10:33:30,-0.015827712699520373,0.0021214969132021273,-0.0009226213377660221,0.00012366526719835813,17.155155697834402,0.04036314649457025,2.96886076631141e-06
2022-11-10 10:33:33,-0.01659051073887657,0.0016318938543092457,-0.0011466391865652293,0.0001127869702818238,14.468815415748727,0.04036314649457025,2.96886076631141e-06
2022-11-10 10:33:36,-0.02067327264735533,0.0022541877938033784,-0.0013746501877703633,0.00014989013722594547,15.038933418316908,0.04036314649457025,2.96886076631141e-06
2022-11-10 10:33:39,-0.018744659449832647,0.0018079342525113232,-0.0012653210041283067,0.00012204101066269363,14.81415339560102,0.04036314649457025,2.96886076631141e-06
2022-11-10 10:33:42,-0.010356224370691829,0.0010912734723777468,-0.0007081106812958174,7.461622830346586e-05,14.625149209358495,0.04036314649457025,2.96886076631141e-06
2022-11-10 10:33:45,-0.016615923907525542,0.0017641408276245201,-0.001106186480008265,0.00011744569505791929,15.02090669866205,0.04036314649457025,2.96886076631141e-06
2022-11-10 10:33:48,-0.012922301096778502,0.0018535443845895997,-0.0009077188069966912,0.00013020104429500794,14.23601780328168,0.04036314649457025,2.96886076631141e-06
2022-11-10 10:33:51,-0.021325410434346388,0.0010485560089110975,-0.0013423181935525534,6.600087778162186e-05,15.887000963539776,0.04036314649457025,2.96886076631141e-06
2022-11-10 10:33:54,-0.018070624711861022,0.0015411700859606701,-0.0011049507031180386,9.423675148258633e-05,16.354236130958498,0.04036314649457025,2.96886076631141e-06
2022-11-10 10:33:57,-0.009931944189713451,0.0016502164002207818,-0.0006371037931283631,0.00010585632661450002,15.589209006188373,0.0807351995714395,2.96886076631141e-06
2022-11-10 10:34:00,-0.028751233958565325,0.0013435307375366623,-0.0016206321412729264,7.573132684245615e-05,17.740752652222888,0.0807351995714395,2.96886076631141e-06
2022-11-10 10:34:03,-0.02292279606016108,0.001968789081700077,-0.0012899157153793295,0.00011078805439297367,17.77077043628397,0.0807351995714395,2.96886076631141e-06
2022-11-10 10:34:06,-0.021464768618034754,0.0010929420649728743,-0.0012283316027562646,6.254412997771166e-05,17.47473448527235,0.0807351995714395,2.96886076631141e-06
2022-11-10 10:34:09,-0.022911363741347456,0.0014266721213941507,-0.0013624516143414703,8.483876197301882e-05,16.816276996685474,0.0807351995714395,2.96886076631141e-06
2022-11-10 10:34:12,-0.019987466328768393,0.0016234367525448587,-0.0011628940599010343,9.44534402262966e-05,17.18769320265458,0.0807351995714395,2.96886076631141e-06
2022-11-10 10:34:15,-0.020359168532104687,0.001098309175322794,-0.0011734527902444026,6.330386058257787e-05,17.34979770925795,0.0807351995714395,2.96886076631141e-06
2022-11-10 10:34:18,-0.01949296386096345,0.00036775506495494343,-0.001121334002330273,2.1155133811589305e-05,17.383726722327708,0.0807351995714395,2.96886076631141e-06
2022-11-10 10:34:21,-0.015048248571169846,0.001988741224895908,-0.0008635448258538579,0.00011412405813201006,17.4261348347382,0.0807351995714395,2.96886076631141e-06
2022-11-10 10:34:24,-0.016547376212017708,0.0013103936266870221,-0.0010090841692302344,7.990979640565222e-05,16.39841027794603,0.0807351995714395,2.96886076631141e-06
2022-11-10 10:34:27,-0.02457246768851899,0.0010811393051206911,-0.001480992594466666,6.516070444234185e-05,16.591890992789203,0.0807351995714395,2.96886076631141e-06
2022-11-10 10:34:30,-0.016948896597328962,0.000229081227398252,-0.0010629724652846094,1.4367132139818427e-05,15.944812448919755,0.12110725264830852,2.96886076631141e-06
2022-11-10 10:34:33,-0.012511524650401588,0.001337772177673261,-0.0008845495413022707,9.45788622244245e-05,14.144515446790692,0.12110725264830852,2.96886076631141e-06
2022-11-10 10:34:36,-0.012043519245255747,0.0003828860429056251,-0.0009112153440416216,2.8969243143147024e-05,13.216984683156998,0.12110725264830852,2.96886076631141e-06
2022-11-10 10:34:39,-0.013351980046689313,0.00021623008515708796,-0.0010758894800957269,1.7423608564963236e-05,12.410178083999227,0.12110725264830852,2.96886076631141e-06
2022-11-10 10:34:42,-0.015648092048935545,0.0014022564071692997,-0.0011531867479487804,0.00010333934008804004,13.569434505529513,0.12110725264830852,2.96886076631141e-06
2022-11-10 10:34:45,-0.015662603108487494,-3.413868247795909e-05,-0.0011370683352118318,-2.478388463441493e-06,13.774548655925422,0.12110725264830852,2.96886076631141e-06
2022-11-10 10:34:48,-0.013357487672901376,0.0003427281400990856,-0.001011405439133354,2.595077109773446e-05,13.20685766169801,0.12110725264830852,2.96886076631141e-06
2022-11-10 10:34:51,-0.02056917598584719,0.0006158078729250713,-0.001553055945779006,4.6495984047287715e-05,13.244323903302648,0.12110725264830852,2.96886076631141e-06
2022-11-10 10:34:54,-0.014203856410697366,0.0007932239086583119,-0.0010415127972927304,5.8163982238231464e-05,13.637716644114544,0.12110725264830852,2.96886076631141e-06
2022-11-10 10:34:57,-0.016521373844750643,0.001255386719597405,-0.001183040972683994,8.989409354228544e-05,13.965174686442346,0.12110725264830852,2.96886076631141e-06
2022-11-10 10:35:00,-0.01352415087765646,0.001584270603467811,-0.0009416237452035495,0.0001103053960687366,14.362584786700513,0.12110725264830852,2.96886076631141e-06
2022-11-10 10:35:03,-0.01813937893030613,0.0006729572698054816,-0.0011527285614646194,4.2765359747459606e-05,15.736036684350758,0.161482274585944,2.96886076631141e-06
2022-11-10 10:35:06,-0.024377553528578084,-6.983998138184312e-06,-0.001433087538559226,-4.105695302614958e-07,17.010512528136548,0.161482274585944,2.96886076631141e-06
2022-11-10 10:35:09,-0.021670699699269047,0.0014831238323540314,-0.001205512672793333,8.250423844343643e-05,17.97633503848214,0.161482274585944,2.96886076631141e-06
2022-11-10 10:35:12,-0.023682439992173093,0.00022848898181482443,-0.0013851751841802648,1.3364217013665445e-05,17.0970720979153,0.161482274585944,2.96886076631141e-06
2022-11-10 10:35:15,-0.014055143993871772,-6.3930822347858665e-06,-0.0008130652976748201,-3.6982853484476343e-07,17.286611584661472,0.161482274585944,2.96886076631141e-06
2022-11-10 10:35:18,-0.01594938451475843,0.0002811893421851725,-0.0009227944787816177,1.6268964624973947e-05,17.283788407378307,0.161482274585944,2.96886076631141e-06
2022-11-10 10:35:21,-0.022864570274579228,0.0009802418996818242,-0.001322031641854518,5.6677680467572324e-05,17.295024983294116,0.161482274585944,2.96886076631141e-06
2022-11-10 10:35:24,-0.017457446872538033,0.0004851479730742595,-0.0010451081854539693,2.9043887202882615e-05,16.703961480270053,0.161482274585944,2.96886076631141e-06
2022-11-10 10:35:27,-0.021357698639615827,3.6786625757163124e-06,-0.0012505326050523543,2.15392471424153e-07,17.078881872673502,0.161482274585944,2.96886076631141e-06
2022-11-10 10:35:30,-0.017018768786326004,0.0006034154973661634,-0.000919804792856535,3.261249233300884e-05,18.502587634353063,0.161482274585944,2.96886076631141e-06
2022-11-10 10:35:33,-0.015242035713005269,0.0001335179661686711,-0.0009035856121266477,7.915275587990089e-06,16.868391338295154,0.161482274585944,2.96886076631141e-06
2022-11-10 10:35:36,-0.010969089657118687,-0.0015391095433887158,-0.0007356019532993455,-0.00010321476274228915,14.911719045768944,0.2018572965235795,2.96886076631141e-06
2022-11-10 10:35:39,-0.02860854164067316,0.000713298460910369,-0.001752072793738417,4.3684534600664685e-05,16.32839785134201,0.2018572965235795,2.96886076631141e-06
2022-11-10 10:35:42,-0.014197366858281381,-0.00015528173435597648,-0.0009048900521425204,-9.897109661303062e-06,15.6896043057011,0.2018572965235795,2.96886076631141e-06
2022-11-10 10:35:45,-0.026381752109833435,0.0008566119799268727,-0.0017915963075977076,5.817289366876082e-05,14.72527711625386,0.2018572965235795,2.96886076631141e-06
2022-11-10 10:35:48,-0.01725119075879696,-0.0003397935158248905,-0.0011393464722469773,-2.244149687754566e-05,15.141303527077934,0.2018572965235795,2.96886076631141e-06
2022-11-10 10:35:51,-0.009712971279379578,0.00024735534068493143,-0.0006382131673131854,1.6253052839300262e-05,15.219007969187206,0.2018572965235795,2.96886076631141e-06
2022-11-10 10:35:54,-0.01582209337447464,-0.0011621787774284546,-0.001091888244200612,-8.02023673290137e-05,14.49057946956672,0.2018572965235795,2.96886076631141e-06
2022-11-10 10:35:57,-0.019966563234681937,0.0002657116988580468,-0.001443590264035331,1.921105885891706e-05,13.831184465645071,0.2018572965235795,2.96886076631141e-06
2022-11-10 10:36:00,-0.024681260042686663,0.00010523132772708799,-0.001664167662622395,7.09536597383447e-06,14.830993653484374,0.2018572965235795,2.96886076631141e-06
2022-11-10 10:36:03,-0.011759766126460734,5.8847923050561984e-05,-0.000754033738355946,3.7733164873452355e-06,15.595808951600873,0.2018572965235795,2.96886076631141e-06
2022-11-10 10:36:06,-0.010951866553543507,0.0005642577397469425,-0.000697514249019525,3.593705343914184e-05,15.701280036842572,0.2018572965235795,2.96886076631141e-06
2022-11-10 10:36:09,-0.02010086051671876,-0.0004853451939673734,-0.0012076486128924616,-2.9159271553633953e-05,16.644626841060013,0.242232318461215,2.96886076631141e-06
2022-11-10 10:36:12,-0.021465057559408213,-9.243998807340601e-05,-0.0012314578483883206,-5.303314398429082e-06,17.430606810863047,0.242232318461215,2.96886076631141e-06
2022-11-10 10:36:15,-0.020876660352527627,-0.0005047041515658657,-0.0012001292321465456,-2.9013750075527773e-05,17.39534359577904,0.242232318461215,2.96886076631141e-06
2022-11-10 10:36:18,-0.01793629825766096,-0.0004206821811713402,-0.0010562817201597138,-2.4774281269459204e-05,16.98060083341111,0.242232318461215,2.96886076631141e-06
2022-11-10 10:36:21,-0.011831149794404463,-0.0006250104564363512,-0.0006808156841724453,-3.5965813036607384e-05,17.377904283720532,0.242232318461215,2.96886076631141e-06
2022-11-10 10:36:24,-0.020060811225964124,1.350491814099315e-05,-0.001208359738876026,8.134665729405618e-07,16.601687875354067,0.242232318461215,2.96886076631141e-06
2022-11-10 10:36:27,-0.020051331864237878,-0.0008850667751167267,-0.0011511980191987433,-5.081393721233099e-05,17.417795661422353,0.242232318461215,2.96886076631141e-06
2022-11-10 10:36:30,-0.020068829808031194,-9.51171447718277e-05,-0.0011320387058889369,-5.365349674362195e-06,17.728042074561472,0.242232318461215,2.96886076631141e-06
2022-11-10 10:36:33,-0.01910019204784994,-0.0014902749217168129,-0.0011187306435765602,-8.72879297811004e-05,17.07309275697231,0.242232318461215,2.96886076631141e-06
2022-11-10 10:36:36,-0.0252124259550818,-0.0002041763637412548,-0.0015119281889238246,-1.2243962576324237e-05,16.675676887159405,0.242232318461215,2.96886076631141e-06
2022-11-10 10:36:39,-0.012257554117010174,-0.000690862972592816,-0.0006903689010394009,-3.891072448914077e-05,17.75507862326291,0.242232318461215,2.96886076631141e-06
2022-11-10 10:36:42,-0.008074075486677204,-0.0007644395537124257,-0.0004953985159013045,-4.6903477807493476e-05,16.298142258233483,0.2826073403988505,2.96886076631141e-06
2022-11-10 10:36:45,-0.023657388599402335,-0.0007447082287522854,-0.0016464781901785151,-5.1829298552338404e-05,14.36847978948166,0.2826073403988505,2.96886076631141e-06
2022-11-10 10:36:48,-0.021577214641591864,-0.0004024411680516813,-0.0015844808007881791,-2.9552484637915927e-05,13.617845436093996,0.2826073403988505,2.96886076631141e-06
2022-11-10 10:36:51,-0.016518686419127022,-0.0006067263518743845,-0.0012572239948956075,-4.6177456763675496e-05,13.139016186609322,0.2826073403988505,2.96886076631141e-06
2022-11-10 10:36:54,-0.010842659054817162,-0.0009999918107100763,-0.0008121239044007149,-7.490019280111934e-05,13.3509911431781,0.2826073403988505,2.96886076631141e-06
2022-11-10 10:36:57,-0.013641441797998824,-0.0010371610027844025,-0.0010194742095663905,-7.751078728802893e-05,13.380860123769969,0.2826073403988505,2.96886076631141e-06
2022-11-10 10:37:00,-0.018450502258503497,-0.00047600434105873874,-0.0013814785025456256,-3.5640751404909456e-05,13.35562024635569,0.2826073403988505,2.96886076631141e-06
2022-11-10 10:37:03,-0.0151646859153965,-5.493775681011931e-05,-0.001122370511041765,-4.066059694903324e-06,13.511301095500896,0.2826073403988505,2.96886076631141e-06
2022-11-10 10:37:06,-0.015977163223585743,-0.00029304062011310984,-0.0012104089404881226,-2.2200373216909957e-05,13.199806023526744,0.2826073403988505,2.96886076631141e-06
2022-11-10 10:37:09,-0.011130271358315106,-0.0009079626883328873,-0.0008120106725321717,-6.62405586937024e-05,13.707050578050286,0.2826073403988505,2.96886076631141e-06
2022-11-10 10:37:12,-0.015006794143134258,-0.0008730721952791661,-0.0010795215518826756,-6.28049030435046e-05,13.901338159449017,0.2826073403988505,2.96886076631141e-06
2022-11-10 10:37:15,-0.018482740363909823,-0.0006315816894875744,-0.001225067526510257,-4.1862310614963255e-05,15.087119659893355,0.32298236233648603,2.96886076631141e-06
2022-11-10 10:37:18,-0.023894589734074583,-0.0009293228973972883,-0.0014534024699731781,-5.652661165191418e-05,16.440449378426848,0.32298236233648603,2.96886076631141e-06
2022-11-10 10:37:21,-0.021113844143868465,-0.001326098882887586,-0.0012724957568385049,-7.992174187346065e-05,16.592467228594515,0.32298236233648603,2.96886076631141e-06
2022-11-10 10:37:24,-0.01785740772729393,-0.0013151907995030934,-0.001005146320048415,-7.402861672142565e-05,17.76597831690195,0.32298236233648603,2.96886076631141e-06
2022-11-10 10:37:27,-0.023366134524120345,-0.0010360454498552986,-0.001394184608170131,-6.18176112125818e-05,16.759713446261916,0.32298236233648603,2.96886076631141e-06
2022-11-10 10:37:30,-0.018355879640540283,-0.0011194392257563306,-0.0011061724339986997,-6.74602817907806e-05,16.594049061759442,0.32298236233648603,2.96886076631141e-06
2022-11-10 10:37:33,-0.013722363236207563,-0.0007804432966530016,-0.0007765949324543742,-4.4167924927791874e-05,17.669910866967662,0.32298236233648603,2.96886076631141e-06
2022-11-10 10:37:36,-0.016081427734001476,-0.002362036807647425,-0.0009036636137304038,-0.00013272992626456204,17.795811947784323,0.32298236233648603,2.96886076631141e-06
2022-11-10 10:37:39,-0.023440584833973127,-0.001742171520762357,-0.0014183677096475012,-0.00010541715777225225,16.526451268267156,0.32298236233648603,2.96886076631141e-06
2022-11-10 10:37:42,-0.0211880337758512,-0.0007502205858155597,-0.0011906047124042517,-4.215663304410604e-05,17.796027140750244,0.32298236233648603,2.96886076631141e-06
2022-11-10 10:37:45,-0.014013634202129963,-0.0016722752596719064,-0.0008303563448086452,-9.908809892611856e-05,16.87665095804066,0.32298236233648603,2.96886076631141e-06
2022-11-10 10:37:48,-0.019284137188705922,-0.0019386255409217254,-0.0012215505894358838,-0.00012280192518000378,15.786605446780063,0.3633573842741215,2.96886076631141e-06
2022-11-10 10:37:51,-0.026029082687852464,-0.0013588878315759913,-0.0016029702460007992,-8.368549855525381e-05,16.238032335778918,0.3633573842741215,2.96886076631141e-06
2022-11-10 10:37:54,-0.015476753805541666,-0.0024478867228176324,-0.0009836963931981891,-0.00015558671866520423,15.733262734880746,0.3633573842741215,2.96886076631141e-06
2022-11-10 10:37:57,-0.013780000370275432,-0.0016766366154044858,-0.0008767465421212789,-0.0001066752768832056,15.717199564807942,0.3633573842741215,2.96886076631141e-06
2022-11-10 10:38:00,-0.01858287886540186,-0.00181382934077201,-0.0012376591941058834,-0.00012080488585248845,15.014536274524753,0.3633573842741215,2.96886076631141e-06
2022-11-10 10:38:03,-0.015555460325041461,-0.0018381035804708138,-0.0011254798854879004,-0.0001329917960661622,13.821180214427468,0.3633573842741215,2.96886076631141e-06
2022-11-10 10:38:06,-0.011168649744490297,-0.0025629430564937682,-0.0007595863981829806,-0.00017430725553825897,14.703593654661288,0.3633573842741215,2.96886076631141e-06
2022-11-10 10:38:09,-0.02241448657911745,-0.0028003682559285268,-0.0014804284596605774,-0.0001849582790564138,15.140540181358368,0.3633573842741215,2.96886076631141e-06
2022-11-10 10:38:12,-0.026361068871208516,-0.0007848509677792948,-0.001702523746762862,-5.068942450104848e-05,15.483524926645412,0.3633573842741215,2.96886076631141e-06
2022-11-10 10:38:15,-0.014429120080679895,-0.0017928435171917442,-0.0009451986607620351,-0.00011744259399951467,15.26570093640092,0.3633573842741215,2.96886076631141e-06
2022-11-10 10:38:18,-0.013449805293449382,-0.001764652274271059,-0.0008712119441426554,-0.00011430545684941768,15.43804051801092,0.3633573842741215,2.96886076631141e-06
2022-11-10 10:38:21,-0.010604472547205888,-0.0024281973892128555,-0.0006479514763736874,-0.00014836702874786138,16.366152302877175,0.4037324062117575,2.96886076631141e-06
2022-11-10 10:38:24,-0.011692976039261567,-0.0026214944972386186,-0.000681500155277031,-0.00015278821242148245,17.157701210659816,0.4037324062117575,2.96886076631141e-06
2022-11-10 10:38:27,-0.02043397305340604,-0.0026513099150582017,-0.0011995436987742864,-0.0001556409071203965,17.034788373517205,0.4037324062117575,2.96886076631141e-06
2022-11-10 10:38:30,-0.023853013850008188,-0.0023163415052297066,-0.0014167039046315201,-0.00013757465096671007,16.836978970713204,0.4037324062117575,2.96886076631141e-06
2022-11-10 10:38:33,-0.028505718842245294,-0.0012796994112976353,-0.001709865616132642,-7.676052775488121e-05,16.671321168922773,0.4037324062117575,2.96886076631141e-06
2022-11-10 10:38:36,-0.020567785470706,-0.0026953344090498888,-0.0011192918751478436,-0.00014667917988316122,18.37571229397986,0.4037324062117575,2.96886076631141e-06
2022-11-10 10:38:39,-0.017718839517414115,-0.0025357148512989013,-0.001002377395377165,-0.00014344862966709287,17.676814739768787,0.4037324062117575,2.96886076631141e-06
2022-11-10 10:38:42,-0.015462045772786724,-0.0019235014445300644,-0.0008976802177630749,-0.00011167275152116797,17.224447489013986,0.4037324062117575,2.96886076631141e-06
2022-11-10 10:38:45,-0.015612881375754619,-0.002268612832438878,-0.0009444784849586494,-0.00013723642416619978,16.530690348587637,0.4037324062117575,2.96886076631141e-06
2022-11-10 10:38:48,-0.028736440124708655,-0.003154580801299322,-0.001622876546004555,-0.00017815342376048153,17.70710174810056,0.4037324062117575,2.96886076631141e-06
2022-11-10 10:38:51,-0.023625271467544433,-0.0018114070075642293,-0.0013921691050721983,-0.00010674099030381688,16.97011618880827,0.4037324062117575,2.96886076631141e-06
2022-11-10 10:38:54,-0.025837001781158917,-0.001752784627096298,-0.001713881023906661,-0.00011626984960640085,15.075143152157343,0.4441044592886265,2.96886076631141e-06
2022-11-10 10:38:57,-0.003164373730511186,-0.0027966943277697577,-0.00020280387068821195,-0.00017923939556654361,15.603122957036916,0.4441044592886265,2.96886076631141e-06
2022-11-10 10:39:00,-0.014106267400682215,-0.001465927551206436,-0.0011097412840490985,-0.00011532464802986117,12.711311729534708,0.4441044592886265,2.96886076631141e-06
2022-11-10 10:39:03,-0.018241773356815098,-0.002036321517039139,-0.0013619493231402811,-0.00015203383232427457,13.393870863531529,0.4441044592886265,2.96886076631141e-06
2022-11-10 10:39:06,-0.016776789934316947,-0.002411343363634957,-0.001163089893542902,-0.00016717197432202055,14.424327842118004,0.4441044592886265,2.96886076631141e-06
2022-11-10 10:39:09,-0.010696417712779696,-0.002179302651576459,-0.0007812893720992251,-0.00015918095627754552,13.690724710666142,0.4441044592886265,2.96886076631141e-06
2022-11-10 10:39:12,-0.015118829138004053,-0.0023080009996831025,-0.0012314833716110237,-0.0001879950376333566,12.276925118546778,0.4441044592886265,2.96886076631141e-06
2022-11-10 10:39:15,-0.012811065108396484,-0.002848037541799473,-0.0009317447498796736,-0.0002071368777364693,13.749543649213926,0.4441044592886265,2.96886076631141e-06
2022-11-10 10:39:18,-0.019417748389300854,-0.0017927902026572066,-0.0013862758436720055,-0.00012799124290254588,14.007131753711144,0.4441044592886265,2.96886076631141e-06
2022-11-10 10:39:21,-0.011875006797855234,-0.0022784314893485374,-0.0008924435869662237,-0.0001712311921689388,13.306170800356334,0.4441044592886265,2.96886076631141e-06
2022-11-10 10:39:24,-0.013407275826986432,-0.0022478566391990417,-0.0010042457432564652,-0.00016837130006848078,13.35059263832246,0.4441044592886265,2.96886076631141e-06
2022-11-10 10:41:00,-0.02071558867296811,0.002539973952172858,-0.0011945597937535965,0.00014646703061865665,17.3416088347279,-2.078202536465175e-05,2.96886076631141e-06
2022-11-10 10:41:03,-0.02097459067518496,0.002454672656904937,-0.0011972101663250978,0.00014011043673541984,17.519556102307096,-2.078202536465175e-05,2.96886076631141e-06
2022-11-10 10:41:06,-0.018214701653159315,0.002208800637581956,-0.0010753699086046952,0.00013040442742308172,16.93808010379712,-2.078202536465175e-05,2.96886076631141e-06
2022-11-10 10:41:09,-0.021868612145447424,0.0028987415843968216,-0.001218159040287961,0.0001614701583715609,17.952181465794396,-2.078202536465175e-05,2.96886076631141e-06
2022-11-10 10:41:12,-0.013963198054690389,0.002454260281897264,-0.000829449867549059,0.00014578937130142568,16.834288123946823,-2.078202536465175e-05,2.96886076631141e-06
2022-11-10 10:41:15,-0.01772116348833617,0.0016256379995009695,-0.0011049469053821448,0.0001013614979627314,16.03802264345663,-2.078202536465175e-05,2.96886076631141e-06
2022-11-10 10:41:18,-0.019704442546071687,0.0023284156571350824,-0.0010386516489207318,0.0001227343912928073,18.97117533731995,-2.078202536465175e-05,2.96886076631141e-06
