TS,yPos,y_estimate
2024-04-06 13:28:12,-0.081580923247998,-0.002917415645942
2024-04-06 13:28:12,-0.080559340385118,-0.002917415645942
2024-04-06 13:28:15,-0.082728625854241,-0.0029622605761527
2024-04-06 13:28:18,-0.070359781871896,-0.0023724185448593
2024-04-06 13:28:21,-0.045519545671629,-0.0016657775395765
2024-04-06 13:28:24,-0.033759411074035,-0.0014747151600362
2024-04-06 13:28:27,-0.032774153233613,-0.001435890332974
2024-04-06 13:28:30,-0.034098064472198,-0.0015195033600513
2024-04-06 13:28:36,-0.032606198514207,-0.0013931654259055
2024-04-06 13:28:39,-0.033800541335754,-0.0013980820103706
2024-04-06 13:28:42,-0.032891383789669,-0.0015248233951123
2024-04-06 13:28:42,-0.031413430710036,-0.0015248233951123
2024-04-06 13:28:48,-0.017786987630291,-0.0009638019846499
2024-04-06 13:28:48,-0.01246972475615,-0.0009638019846499
2024-04-06 13:28:54,-0.0092116053364059,-0.0009088057654767
2024-04-06 13:28:54,-0.0088055640811902,-0.0009088057654767
2024-04-06 13:28:57,-0.010963383803056,-0.0008273665047441
2024-04-06 13:29:03,-0.0094341067655503,-0.000825130284496
2024-04-06 13:29:03,-0.0089974606378867,-0.000825130284496
2024-04-06 13:29:09,-0.0085619026378784,-0.0007305747243522
2024-04-06 13:29:09,-0.007848015258419,-0.0007305747243522
2024-04-06 13:29:15,0.011163423397713,-0.0003562030940448
2024-04-06 13:29:15,0.014196780478987,-0.0003562030940448
2024-04-06 13:29:18,0.013328443197833,-0.0002950194711176
2024-04-06 13:29:21,0.015885163103651,-0.0002088901726169
2024-04-06 13:29:24,0.014109801676392,-0.0001246662373759
2024-04-06 13:29:27,0.016663445425016,0.0001810193568243
2024-04-06 13:29:30,0.030199958648936,0.0004877596810751
2024-04-06 13:29:33,0.038751066708417,0.0005920969087795
2024-04-06 13:29:36,0.03777646378661,0.0007704396709083
2024-04-06 13:29:39,0.040373509520283,0.00068604335191
2024-04-06 13:29:45,0.039196826120567,0.0005662843835086
2024-04-06 13:29:48,0.038312968249397,0.000668928607635
2024-04-06 13:29:51,0.040636473306159,0.0005750737220247
2024-04-06 13:29:54,0.043855733621698,0.0008937297020239
2024-04-06 13:29:57,0.061098067666494,0.0011780729187213
2024-04-06 13:30:00,0.063183010981917,0.0012265845583865
2024-04-06 13:30:03,0.063508301516165,0.0012936258483596
2024-04-06 13:30:06,0.063332857390538,0.0013790575870463
2024-04-06 13:30:06,0.061973817072819,0.0013790575870463
2024-04-06 13:30:12,0.062167656297839,0.0011602806739041
2024-04-06 13:30:12,0.061502154628495,0.0011602806739041
2024-04-06 13:30:18,0.064028532766957,0.0014437262895041
2024-04-06 13:30:18,0.063050787912851,0.0014437262895041
2024-04-06 13:30:24,0.10004983539247,0.0023744196425493
2024-04-06 13:30:24,0.10688924703429,0.0023744196425493
2024-04-06 13:30:30,0.11176899358257,0.0025776864372644
2024-04-06 13:30:30,0.11073863687376,0.0025776864372644
