TS,yPosition,1_comp_y
2024-05-18 14:41:06,0.0049604046915162,0.0013198878819774
2024-05-18 14:41:09,0.0049613216154494,0.0012604714171627
2024-05-18 14:41:12,0.0055118569152395,0.0026177558198576
2024-05-18 14:41:15,0.0047036681267315,0.0018410193044337
2024-05-18 14:41:18,0.0094176827791664,0.0019364732230674
2024-05-18 14:41:21,0.0076450772895722,0.0013297635380598
2024-05-18 14:41:24,0.0035620043686383,0.0011556175893906
2024-05-18 14:41:33,0.006579591458822,0.0016263324341808
2024-05-18 14:41:42,0.0047236988412311,0.0017945748134655
2024-05-18 14:41:45,0.0060008026439846,0.0011366696934529
2024-05-18 14:41:48,0.0065554395007201,0.0020376007193652
2024-05-18 14:41:48,0.0081189674491955,0.0020376007193652
2024-05-18 14:41:51,0.0035159977598947,0.0017802063476584
2024-05-18 14:41:51,0.0019287730441776,0.0017802063476584
2024-05-18 14:41:54,0.0031617809876049,0.0022215143961366
2024-05-18 14:42:03,0.0081233242315095,0.0024871040876565
2024-05-18 14:42:03,0.0099163998415198,0.0024871040876565
2024-05-18 14:42:06,0.00768683304055,0.0013083372611743
2024-05-18 14:42:09,0.0068209782161555,0.001636655642991
2024-05-18 14:42:09,0.0069234278026881,0.001636655642991
2024-05-18 14:42:15,0.010825678566438,0.0013113036178799
2024-05-18 14:42:15,0.010442265328345,0.0013113036178799
2024-05-18 14:42:18,0.010352416208302,0.0016254514988256
2024-05-18 14:42:18,0.006302666995574,0.0016254514988256
2024-05-18 14:42:21,0.0093202338432908,0.0012964797911633
2024-05-18 14:42:24,0.011271696417318,0.001743645408953
2024-05-18 14:42:27,0.0084180001292505,0.0006252320301861
2024-05-18 14:42:30,0.0058706977551657,0.0007728053714331
2024-05-18 14:42:33,0.0086533155310984,0.0019484689601569
2024-05-18 14:42:33,0.0074478870394862,0.0019484689601569
2024-05-18 14:42:39,0.0078716073808291,0.0006271869253922
2024-05-18 14:42:42,0.013788373391969,0.0013152282010989
2024-05-18 14:42:45,0.0072287365928977,0.0022947445016922
2024-05-18 14:42:48,0.0055430558774088,0.0018040724652124
2024-05-18 14:42:54,0.009711577512832,0.0013157675243011
2024-05-18 14:42:54,0.011778698006316,0.0013157675243011
2024-05-18 14:42:57,0.0079554016274378,0.0010169015916848
2024-05-18 14:43:00,0.0069209850189665,0.0019236727267249
2024-05-18 14:43:03,0.0067578748577701,0.0026517591139103
2024-05-18 14:43:09,0.0069869151006968,0.0008970353258914
2024-05-18 14:43:12,0.0069116052308771,0.0019316336585867
2024-05-18 14:43:15,0.010404408278265,0.0009317363843285
2024-05-18 14:43:15,0.0084554301085346,0.0009317363843285
2024-05-18 14:43:18,0.0061191248365425,0.000999699858701
2024-05-18 14:43:21,-0.0010030139252615,0.0016695773700248
2024-05-18 14:43:33,0.004869815925201,0.0015575529821362
2024-05-18 14:43:39,0.0078142332155301,0.0021740040083305
2024-05-18 14:43:39,0.0048177677495042,0.0021740040083305
2024-05-18 14:43:54,0.0059408199322661,0.0015593493184958
2024-05-18 14:43:54,0.0055031532827492,0.0015593493184958
2024-05-18 14:43:57,0.0069303526356506,0.0014002776545744
2024-05-18 14:43:57,0.0094839294116612,0.0014002776545744
2024-05-18 14:44:00,0.0069098095496432,0.0019955760497178
2024-05-18 14:44:00,0.0038939848423702,0.0019955760497178
2024-05-18 14:44:15,0.0064223105823071,0.0024021412811508
2024-05-18 14:44:18,0.0056419462907065,0.0017196934032477
2024-05-18 14:44:18,0.0044439480532105,0.0017196934032477
2024-05-18 14:44:24,0.0046744641399059,0.0018482668079307
2024-05-18 14:44:27,0.0043839525622118,0.0014393427319944
2024-05-18 14:44:48,0.0090778172071543,0.0019885716289507
2024-05-18 14:44:57,0.0016209405527709,0.0026370217958024
2024-05-18 14:44:57,0.0031851897807289,0.0026370217958024
2024-05-18 14:45:03,0.0043226377964269,0.0012650695438366
2024-05-18 14:45:06,0.0047427299358409,0.0017969344812832
2024-05-18 14:45:09,0.0029163352345235,0.0003383585629101
2024-05-18 14:45:12,0.0058377451553744,0.0021685679978389
2024-05-18 14:45:15,0.00980646123572,0.0023439631456287
2024-05-18 14:45:21,0.003873536441879,0.0025125389396388
2024-05-18 14:45:24,0.0072625984376057,0.0018181325704915
2024-05-18 14:45:27,0.010587769107012,0.001817823513688
2024-05-18 14:45:30,0.010993625228952,0.0028767114937315
2024-05-18 14:45:33,0.0009258772641368,0.0017564218635163
2024-05-18 14:45:36,0.0013244011461457,0.0015729674555612
2024-05-18 14:45:39,-0.0017287890675534,0.0021677959298893
2024-05-18 14:45:42,0.0017706368598535,0.0018223291219819
2024-05-18 14:45:42,0.000334346956647,0.0018223291219819
2024-05-18 14:45:48,-0.000260740088343,0.000732427253497
2024-05-18 14:45:48,-0.0003370572187273,0.000732427253497
2024-05-18 14:45:51,-0.004000605673771,0.0022376412938628
2024-05-18 14:45:51,-0.0058666123207764,0.0022376412938628
2024-05-18 14:46:00,0.0020518732012294,0.002572994459969
2024-05-18 14:46:03,0.0008464251571032,0.0021880573735884
2024-05-18 14:46:03,-0.0006428490736866,0.0021880573735884
2024-05-18 14:46:06,0.0049433423161145,0.00286678520472
2024-05-18 14:46:09,0.0004405467782665,0.0027751995876511
2024-05-18 14:46:15,0.003882678727556,0.0027387279141878
2024-05-18 14:46:18,-0.0003144604882428,0.0015850615256831
2024-05-18 14:46:21,-0.000112826704896,0.0016680390706712
2024-05-18 14:46:24,0.0022340872381768,0.0012345045742844
2024-05-18 14:46:24,0.0018292586213667,0.0012345045742844
2024-05-18 14:46:27,0.002168486217459,0.001870016602879
2024-05-18 14:46:42,0.001890471698577,0.0010786922609464
2024-05-18 14:46:48,0.0027208575242457,0.0012798916459263
2024-05-18 14:46:48,0.0057628504191264,0.0012798916459263
2024-05-18 14:46:51,0.0060049433047443,0.0020093707580907
2024-05-18 14:46:54,0.0030113401487616,0.0014652534441136
2024-05-18 14:47:00,0.0051353542310894,0.002598364483514
2024-05-18 14:47:00,0.0058628967654966,0.002598364483514
2024-05-18 14:47:03,0.0065994754361946,0.0019455976282811
2024-05-18 14:47:03,0.0073341643494853,0.0019455976282811
2024-05-18 14:47:09,0.0044961051355863,0.0022113565886939
2024-05-18 14:47:15,0.0080061979040431,0.0025227409380095
2024-05-18 14:47:21,0.0062333650343669,0.0013859211658776
2024-05-18 14:47:24,0.0023925106521247,0.0025849475699665
2024-05-18 14:47:24,0.002442705996007,0.0025849475699665
2024-05-18 14:47:30,-0.0032034066160248,0.002865681292159
2024-05-18 14:47:30,-0.01050468516485,0.002865681292159
2024-05-18 14:47:33,-0.018196296006337,0.0031178757399414
2024-05-18 14:47:33,-0.025907191017526,0.0031178757399414
2024-05-18 14:47:36,-0.052595093513998,0.0042772892851208
2024-05-18 14:47:36,-0.059510024548659,0.0042772892851208
2024-05-18 14:47:42,-0.10788262705474,0.0050569920140909
2024-05-18 14:47:51,-0.20105368852988,0.0091198576943844
2024-05-18 14:47:51,-0.21369444658296,0.0091198576943844
2024-05-18 14:47:57,-0.27761307872345,0.0105239799150302
2024-05-18 14:48:09,-0.33257019173865,0.012073334855185
2024-05-18 14:48:12,-0.3418378216726,0.0127270893493519
2024-05-18 14:48:18,-0.34215063053363,0.0125374536666525
2024-05-18 14:48:21,-0.33958472592622,0.012415611535375
2024-05-18 14:48:24,-0.34235518621717,0.0120218313579675
2024-05-18 14:48:27,-0.3423705589249,0.0120222022530776
2024-05-18 14:48:30,-0.34306867434584,0.0120508748988753
2024-05-18 14:48:39,-0.32457629228751,0.0108856495399225
2024-05-18 14:48:42,-0.30231709590657,0.0088895585354786
2024-05-18 14:48:45,-0.27627814695619,0.0093258807136739
2024-05-18 14:48:51,-0.21303029190269,0.0067603401137026
2024-05-18 14:48:57,-0.18051063709899,0.0066023746115478
2024-05-18 14:49:00,-0.18017284224405,0.0066497882979346
2024-05-18 14:49:00,-0.17942861162036,0.0066497882979346
2024-05-18 14:49:06,-0.17238096052936,0.0072340399027893
2024-05-18 14:49:09,-0.17910775202685,0.0069914140340746
2024-05-18 14:49:09,-0.18416868227071,0.0069914140340746
2024-05-18 14:49:27,-0.11807750897237,0.0051285040870614
2024-05-18 14:49:30,-0.1011534690905,0.0046441366774861
2024-05-18 14:49:30,-0.085588545485232,0.0046441366774861
2024-05-18 14:49:33,-0.085224685203265,0.003842205140749
2024-05-18 14:49:42,-0.083108557691294,0.0042799676309854
2024-05-18 14:49:45,-0.08586138516198,0.004767955623225
2024-05-18 14:49:45,-0.083158026945078,0.004767955623225
2024-05-18 14:49:51,-0.08371975508693,0.0047700466186213
2024-05-18 14:49:54,-0.07436351833487,0.0040031793716289
2024-05-18 14:50:00,-0.026152547579807,0.0016621603216147
2024-05-18 14:50:03,-0.011720732546267,0.0022427274943926
2024-05-18 14:50:06,0.010645374573092,0.0014517219931763
2024-05-18 14:50:12,0.0011903097302017,0.0019053114274152
2024-05-18 14:50:15,0.0047240859765265,0.000934034012359
2024-05-18 14:50:18,0.0092826762147205,0.0007469479909858
2024-05-18 14:50:21,0.027061296201858,-0.0004276150519034
2024-05-18 14:50:24,0.042012199672475,-0.0004552095676151
2024-05-18 14:50:27,0.079463094952166,-0.0002517731979233
2024-05-18 14:50:33,0.09415904431666,-0.0002697986272751
2024-05-18 14:50:33,0.095244495643019,-0.0002697986272751
2024-05-18 14:50:39,0.093624085916641,-0.0006600495921784
2024-05-18 14:50:42,0.090966843325506,-0.0017473577409077
2024-05-18 14:50:51,0.096737301383276,-0.0011091759976075
2024-05-18 14:50:54,0.10701593755267,-0.0027274450258147
2024-05-18 14:50:54,0.11870464155062,-0.0027274450258147
2024-05-18 14:51:03,0.18363387961283,-0.0033145162303574
2024-05-18 14:51:24,0.18867752232137,-0.0037148313583928
2024-05-18 14:51:24,0.19103244309932,-0.0037148313583928
2024-05-18 14:51:27,0.1970517278643,-0.004921707027037
2024-05-18 14:51:27,0.20252202119425,-0.004921707027037
2024-05-18 14:51:30,0.22139670770845,-0.0054823020595096
2024-05-18 14:51:30,0.22791071218542,-0.0054823020595096
2024-05-18 14:51:39,0.30254697376946,-0.0076562271419473
2024-05-18 14:51:39,0.31338094842427,-0.0076562271419473
2024-05-18 14:51:42,0.31922444409975,-0.0091487456072694
2024-05-18 14:51:45,0.3410086285818,-0.0086597529959001
2024-05-18 14:51:48,0.34991150927008,-0.008853092263181
2024-05-18 14:52:09,0.35302422716777,-0.009210309323023
2024-05-18 14:52:12,0.34881685221106,-0.0078670861781645
2024-05-18 14:52:15,0.33767561380245,-0.0087402323222747
2024-05-18 14:52:18,0.32340181838496,-0.0065624272876986
2024-05-18 14:52:21,0.30360889084567,-0.0071178574968209
2024-05-18 14:52:24,0.29177336746074,-0.0067587178299013
2024-05-18 14:52:30,0.25096401611028,-0.005312114610179
2024-05-18 14:52:30,0.23616090800883,-0.005312114610179
2024-05-18 14:52:33,0.21303592937178,-0.0037187131347136
2024-05-18 14:52:36,0.19401345477437,-0.0013807197691247
2024-05-18 14:52:42,0.10251637706877,-0.0010986196184788
2024-05-18 14:52:54,0.014235625836512,0.0020317090536764
2024-05-18 14:52:57,0.010653986172423,0.0020615384886961
2024-05-18 14:53:00,0.0088929883059181,0.0011835032279646
2024-05-18 14:53:15,0.0031383065532744,0.0013417600334912
2024-05-18 14:53:18,0.0074457962115948,0.002097866652471
2024-05-18 14:53:21,0.0088148190734122,0.0021167145766675
2024-05-18 14:53:24,0.0066803164348735,0.002249008731268
2024-05-18 14:53:27,0.0063453096214015,0.0024372544137893
2024-05-18 14:53:36,0.0050971568594607,0.0012330932950861
2024-05-18 14:53:39,0.0053340848469404,0.0015094027539243
2024-05-18 14:53:39,0.0044771668824394,0.0015094027539243
2024-05-18 14:53:42,0.0055669474488076,0.002392730474462
2024-05-18 14:53:54,0.0087410792812993,0.0036255702386431
2024-05-18 14:53:54,0.0096955912645592,0.0036255702386431
2024-05-18 14:56:33,0.015067718250502,-0.0006460965821495
2024-05-18 14:57:06,0.015330824572483,0.0027260313828314
2024-05-18 14:57:18,0.015754823104314,0.0014446226522723
2024-05-18 14:57:18,0.01451223248958,0.0014446226522723
2024-05-18 14:57:45,0.014175792519119,0.0014855850759045
2024-05-18 14:57:45,0.013873368897051,0.0014855850759045
2024-05-18 14:57:51,0.014050577903192,0.0022526197655941
2024-05-18 14:57:57,0.011461906958515,0.0024323318379144
2024-05-18 14:57:57,0.0093047177073325,0.0024323318379144
2024-05-18 14:58:09,0.014565284789968,0.0020549544909688
2024-05-18 14:58:09,0.01357069643013,0.0020549544909688
2024-05-18 14:58:12,0.011542532387842,0.0007349544274387
2024-05-18 14:58:15,0.011872330502725,0.0024821227014349
2024-05-18 14:58:21,0.011441822739122,0.0012389669716772
2024-05-18 14:58:27,0.007276182704132,0.001249495386964
2024-05-18 14:58:39,0.014724040211091,0.0028667434558506
2024-05-18 14:58:39,0.012405236557467,0.0028667434558506
2024-05-18 14:58:42,0.0093213134380218,0.0015120115312775
2024-05-18 14:58:48,0.0064355019727044,0.0020110365353894
2024-05-18 14:59:00,0.010034940822148,0.0022284213679549
2024-05-18 14:59:06,0.0097524019089073,0.0016282124091825
2024-05-18 14:59:09,0.0055655003537884,0.0022036926646839
2024-05-18 14:59:15,0.0017888487724426,0.0017035234270096
2024-05-18 14:59:18,0.0033338070147481,0.0016946798459563
2024-05-18 14:59:21,0.006398041807886,0.0014366470037683
2024-05-18 14:59:27,0.0070053896088909,0.0014678147100236
2024-05-18 14:59:30,0.0075230776377812,0.0013636293000583
2024-05-18 14:59:33,0.0076137067728772,0.0018285397671144
2024-05-18 14:59:42,0.0029650664679233,0.0015041519679436
2024-05-18 14:59:48,0.0040830293842349,0.0025894292130905
